patientID,cohort,caseID_TS,legacyID,caseID_AS,imageID_AS,studyID_AS,presentTS,presentAS,blindedStatus,age,raceEthnicity,implants,biologicalSex,menopausalStatus,height(m),height(in),weight(kg),weight(lbs),bmi,bmiBinned,cancerSubtype,laterality,location,grade,gradeType,erReceptorPercentage,erReceptorStatus,prReceptorPercentage,prReceptorStatus,receptorHER2,receptorHER2ISHRatio,receptorHER2ISHCopyNumber,receptorCEP17ISHCopyNumber,fdaHR,fdaHER2,fdaSubtype,tStage,nStage,mStage,stage,molecularSubtype,calculatedMolecularSubtype,tumorMeasurements,initialSizeLD1(cm),initialSizeLD2(cm),initialSizeLD3(cm),pam50Score,oncotypeDXScore,mammaPrintIndex,ki67Status,ki67Percent,tilDensity,brca,tumorTypeCode,tumorType,multiFocal,marginsCode,margins,skinInvolvement,muscleInvolvement,diffuse,simulationRegimen,actualRegimen,drugCombination,fdaRegimen,socA,socC,socPacT,socDocT,socH,socP,socCarbo,regimenDiff,experimentalDrug,experimentalDrugName1,experimentalDrugName2,regimenInterruption,regimenLength(weeks),regimenDescription,regimenNotes,diagnosisDate,diagnosisDay,pretrtMRIDate,pretrtMRIDay,trtStartDate,trtStartDay(fromDiagnosis),simulationLagDays(MRItoTrt),actualLagDays(MRItoTrt),mriTimePoint,regimenChangeDate,presurgMRIDate(fromDiagnosis),presurgMRIDay(fromDiagnosis),surgDate,surgDay(fromDiagnosis),residualSizeLD1(cm),residualBed(cm),residualNote,pathCompleteResponse,residualCancerBurden,finalPathTStage,finalPathNStage,finalPathMStage,anyProgression,progressionDrug,knownRecurrence,responseNote,goldSimID,goldSimStartVol,goldSimStartLD,goldSimDepictionID,goldSimRegimenLength,goldSimFromStudy,goldSimLagTime,goldSimMVMap,goldSimPhenoTyper,goldSimBestMV,rfsDays,rfsWeeks,rfsYears,rfsInd,firstRecurrenceDate,survivalStatus,deathDate,survivalDays,rfsDataExtractDate,excludeFromStudy,excludeReason,mriMagnetFieldStrength,mriManufacturer,mriModel,mriScanningSequence,mriSequenceVariant,mriSliceThickness,mriRepititionTimes,mriEchoTime,mriPercentSampling,mriPixelBandwidth,mriProtocolName,mriFlipAngle,mriAvailableT1PreTreatment,rnaAvailableT1PreTreatment,mittendorfBioScore,segT5aID,segT5aWk,segT5aLD,segT5aVol,segT5ID,segT5Wk,segT5LD,segT5Vol,segT4aID,segT4aWk,segT4aLD,segT4aVol,segT4ID,segT4Wk,segT4LD,segT4Vol,segT3bID,segT3bWk,segT3bLD,segT3bVol,segT3aID,segT3aWk,segT3aLD,segT3aVol,segT3ID,segT3Wk,segT3LD,segT3Vol,segT2bID,segT2bWk,segT2bLD,segT2bVol,segT2aID,segT2aWk,segT2aLD,segT2aVol,segT2ID,segT2Wk,segT2LD,segT2Vol,segT1aID,segT1aWk,segT1aLD,segT1aVol,segSurgeryID,segSurgeryWk,segSurgeryLD,segSurgeryVol,segT1ID,segT1Wk,segT1LD,segT1Vol
ISPY1_1137_MVvalFull,ISPY1,ISPY1_1137_MVvalFull,ISPY1_1137,ISPY1_1137,ISPY1_1137-T1,ISPY1_1137-T1,Yes,Yes,Unblinded,29,Caucasian,NA,Female,Pre-menopausal,1.638,64.506,65.771,145,24.5,Healthy Weight,Invasive Ductal Carcinoma,Right,NA,2,NA,NA,+,NA,+,3+,NA,NA,NA,HR+,HER2+,HR+/HER2+,T3,N0,M0,IIb,Luminal A,Luminal,9.2 x 9 x 3.4,9.2,9,3.4,NA,NA,NA,NA,NA,NA,NA,3,Area enhancement with irregular margins –with nodularity,No,2,Partially Irregular,Yes,Yes,Yes,AC-wTH,AC-wTH,Doxorubicin+Cyclophosphamide+Paclitaxel+Trastuzumab,H/P,Yes,Yes,Yes,No,Yes,No,No,No,No,NA,NA,NA,32,Standard,ISPY - Guessed Regiemns based on dates,NA,NA,NA,NA,NA,NA,0,NA,NA,NA,NA,NA,NA,NA,2.5,2.5,NA,Residual,RCB-I,ypTx,NA,NA,No,NA,Yes,NA,sim-mwK49wPMLr,17.916625,86.118192,depiction-kt8V,19353600,study-DmFkmk4sve,0,NA,TreeNGF,mv4,1393,199,3.816,Yes,NA,Alive,NA,1708,9/3/09,NA,NA,1.5T,GE,GENESIS_SIGNA,RM,OSP,2,8.9,4.2,100,244.140625,Dynamic-Unilateral 3dfgre,20,Yes,Yes - Microarray,3,NA,NA,NA,NA,NA,NA,NA,NA,NA,NA,NA,NA,NA,30,2.166180306,0.393,NA,NA,NA,NA,NA,NA,NA,NA,NA,NA,NA,NA,NA,NA,NA,NA,NA,NA,NA,NA,NA,NA,NA,NA,NA,NA,NA,NA,NA,NA,NA,NA,NA,0,8.707763663,17.877
ISPY1_1157_MVvalFull,ISPY1,ISPY1_1157_MVvalFull,ISPY1_1157,ISPY1_1157,ISPY1_1157-T1,ISPY1_1157-T1,Yes,Yes,Unblinded,41,Caucasian,NA,Female,Pre-menopausal,1.639,64.51,86.183,190.001,32.1,Obese,Invasive Ductal Carcinoma,Right,NA,1,NA,0,-,0,-,3+,NA,NA,NA,HR-,HER2+,HR-/HER2+,T3,N0,M0,IIb,Her2-enriched,HER2 Enriched,6.1 x 6.3 x 3.3,6.1,6.3,3.3,NA,NA,NA,NA,NA,1.162791,NA,2,Multi-lobulated mass,No,1,Clean,No,No,No,AC-3TH,AC-3TH,Doxorubicin+Cyclophosphamide+Paclitaxel+Trastuzumab,H/P,Yes,Yes,Yes,No,Yes,No,No,No,No,NA,NA,NA,28,Standard,AC+TH,NA,NA,NA,NA,NA,NA,13,13,NA,NA,NA,NA,NA,NA,3.3,3.3,NA,Residual,RCB-I,ypTx,NA,NA,No,NA,No,NA,sim-EUtsbM8k9N,7.769,60.914739,depiction-yLHs,16934400,study-DmFkmk4sve,1123200,NA,TreeNGF,mv4,1521,217.29,4.167,No,NA,Alive,NA,1521,9/3/09,NA,NA,1.5T,GE,GENESIS_SIGNA,RM,OSP,2.8,8.9,4.2,100,244.141,Dynamic-Unilateral 3dfgre,20,Yes,Yes - Microarray,4,NA,NA,NA,NA,NA,NA,NA,NA,NA,NA,NA,NA,NA,27,10.13005248,2.741,NA,NA,NA,NA,NA,NA,NA,NA,NA,NA,NA,NA,NA,NA,NA,NA,NA,NA,NA,NA,NA,NA,NA,NA,NA,NA,NA,NA,NA,NA,NA,NA,NA,0,6.169655162,7.763
ISPY2_0004,ISPY2,ISPY2_0004-R,ACRIN-6698-107700,ISPY2_0004-R,ISPY2_0004-T1,ISPY2_0004-R-T1,Yes,Yes,Unblinded,68,Asian,NA,Female,NA,NA,NA,NA,NA,NA,NA,Invasive Ductal Carcinoma,Right,NA,3,NA,NA,+,NA,+,+,NA,NA,NA,HR+,HER2+,HR+/HER2+,NA,NA,M0,NA,NA,NA,NA,NA,NA,NA,NA,NA,High,NA,NA,NA,NA,NA,NA,NA,NA,NA,NA,NA,NA,wTH-ddAC,wTH(MK2206)-ddAC,Docetaxel+Trastuzumab+Doxorubicin+Cyclophosphamide+MK2206,H/P,Yes,Yes,No,Yes,Yes,No,No,Yes,Yes,MK2206,NA,NA,20,ClinicalTrial+Experimental,NA,3/15/01,0,3/15/01,0,NA,NA,14,14,T1,NA,NA,NA,NA,NA,NA,NA,NA,Residual,NA,ypTx,NA,NA,NA,NA,NA,NA,NA,NA,NA,depiction-zvDJ,NA,NA,NA,NA,NA,NA,NA,NA,NA,NA,NA,NA,NA,NA,NA,NA,NA,NA,NA,NA,NA,NA,NA,NA,NA,NA,NA,NA,NA,NA,NA,NA,NA,NA,NA,NA,NA,NA,NA,NA,NA,NA,NA,NA,NA,24.28571429,NA,NA,NA,NA,NA,NA,NA,NA,NA,NA,NA,16.28571429,NA,NA,NA,NA,NA,NA,NA,NA,NA,NA,NA,5,NA,NA,NA,NA,NA,NA,NA,26.28571429,NA,NA,NA,NA,NA,NA
ISPY2_0015,ISPY2,ISPY2_0015-L,ACRIN-6698-220471,ISPY2_0015-L,ISPY2_0015-T1,ISPY2_0015-L-T1,Yes,Yes,Unblinded,50,Caucasian,NA,Female,NA,NA,NA,NA,NA,NA,NA,Invasive Ductal Carcinoma,Left,NA,3,NA,NA,+,NA,-,+,NA,NA,NA,HR+,HER2+,HR+/HER2+,NA,NA,M0,NA,NA,NA,NA,NA,NA,NA,NA,NA,High,NA,NA,NA,NA,NA,NA,NA,NA,NA,NA,NA,NA,wTH-ddAC,wTH-ddAC,Docetaxel+Trastuzumab+Doxorubicin+Cyclophosphamide,H/P,Yes,Yes,No,Yes,Yes,No,No,No,No,NA,NA,NA,20,ClinicalTrial,NA,7/4/01,0,7/4/01,0,NA,NA,11,11,T1,NA,NA,NA,NA,NA,NA,NA,NA,Residual,NA,ypTx,NA,NA,NA,NA,NA,NA,NA,NA,NA,depiction-hfRJ,NA,NA,NA,NA,NA,NA,NA,NA,NA,NA,NA,NA,NA,NA,NA,NA,NA,NA,NA,NA,NA,NA,NA,NA,NA,NA,NA,NA,NA,NA,NA,NA,NA,NA,NA,NA,NA,NA,NA,NA,NA,NA,NA,NA,NA,21.28571429,NA,NA,NA,NA,NA,NA,NA,NA,NA,NA,NA,13.28571429,NA,NA,NA,NA,NA,NA,NA,NA,NA,NA,NA,4.571428571,NA,NA,NA,NA,NA,NA,NA,23.28571429,NA,NA,NA,NA,NA,NA
NCH_0016,NCH,NCH_0016-L,Tushar-Pandey_NCH_16-NCH_16_09082020_36279372,NCH_0016-L,NCH_0016-T1,NCH_0016-L-T1,Yes,Yes,Unblinded,68,Asian,NA,Female,NA,NA,NA,NA,NA,NA,NA,Invasive Ductal Carcinoma,Left,UOQ,2,NA,51,+,1,-,2+,2.43,NA,NA,HR+,HER2+,HR+/HER2+,T2,N0,NA,Ib,NA,NA,2.5x2.3x2.2,2.5,2.3,2.2,NA,NA,NA,NA,NA,NA,NA,NA,NA,NA,NA,NA,NA,NA,NA,TH,TH,Paclitaxel+Trastuzumab,H/P,No,No,Yes,No,Yes,No,No,No,No,NA,NA,NA,15,NA,NA,2/19/19,0,3/5/19,14,4/6/19,46,32,32,T1,NA,NA,NA,7/18/19,149,NA,NA,NA,Residual,NA,ypTx,NA,NA,NA,NA,NA,NA,sim-SLJ5BVna7A,9.63625,NA,depiction-x5ZB,NA,NA,NA,NA,NA,NA,469,67,1.285,No,NA,Alive,NA,NA,NA,NA,NA,1.5T,TOSHIBA,Titan,GR,NONE,1.25,5.5,2.5,NA,488,AX DYN BREAST,10,NA,NA,NA,NA,NA,NA,NA,NA,NA,NA,NA,NA,NA,NA,NA,NA,NA,NA,NA,NA,NA,NA,NA,NA,NA,NA,NA,NA,NA,NA,NA,NA,NA,NA,NA,NA,NA,NA,NA,NA,NA,NA,NA,NA,NA,NA,NA,NA,NA,NA,NA,NA,0,5.068270427,9.605
NCH_0022,NCH,NCH_0022-R,Tushar-Pandey_NCH_22-NCH_22_09082020_36280567,NCH_0022-R,NCH_0022-T1,NCH_0022-R-T1,Yes,Yes,Unblinded,45,African American,NA,Female,NA,NA,NA,NA,NA,NA,NA,Invasive Ductal Carcinoma,Right,UOQ,1,NA,91,+,51,+,2+,2.18,NA,NA,HR+,HER2+,HR+/HER2+,T2,N2,NA,IIIa,NA,NA,3.3x1.5,3.3,1.5,NA,NA,NA,NA,NA,NA,NA,NA,NA,NA,NA,NA,NA,NA,NA,NA,ddAC-wTHP,ddAC-wTHP,Doxorubicin+Cyclophosphamide+Paclitaxel+Trastuzumab+Pertuzumab,H/P,Yes,Yes,Yes,No,Yes,Yes,No,No,No,NA,NA,NA,23,NA,NA,9/11/18,0,9/28/18,17,10/15/18,34,17,17,T1,NA,NA,NA,3/20/19,190,3,NA,NA,Residual,NA,ypTx,NA,NA,NA,NA,NA,NA,sim-3a3DFS2eSw,22.140875,NA,depiction-tpH6,NA,NA,NA,NA,NA,NA,673,96.143,1.844,No,NA,Alive,NA,NA,NA,NA,NA,1.5T,TOSHIBA,Titan,GR,NONE,2.25,5.5,2.5,NA,488,AX DYN BREAST,10,NA,NA,NA,NA,NA,NA,NA,NA,NA,NA,NA,NA,NA,NA,NA,NA,NA,NA,NA,NA,NA,NA,NA,NA,NA,NA,NA,NA,NA,NA,NA,NA,NA,NA,NA,NA,NA,NA,NA,NA,NA,NA,NA,NA,NA,NA,NA,NA,NA,NA,NA,NA,0,17.47778121,22.079
SPFD_0006,SPFD,SPFD_0006-L,6,SPFD_0006-L,SPFD_0006-T1,SPFD_0006-L-T1,Yes,Yes,Blinded,39,Caucasian,No,Female,Pre-menopausal,1.664,65.5,75.682,166.85,27.343,Overweight,Invasive Ductal Carcinoma,Left,NA,3,NA,3.5,-,3.5,-,+,NA,NA,NA,HR-,HER2+,HR-/HER2+,T3,N1,M0,IIIa,NA,NA,7.0x3.9x4.7,7,NA,NA,NA,NA,NA,NA,NA,NA,NA,1,Single uni-centric mass,No,1,Clean,No,No,No,THP,THP,Docetaxel+Trastuzumab+Pertuzumab,H/P,No,No,No,Yes,Yes,Yes,No,No,No,NA,NA,NA,24,NA,NA,NA,NA,NA,NA,NA,NA,14,14,T1,NA,NA,NA,NA,NA,NA,NA,NA,Residual,NA,ypTx,NA,NA,NA,NA,NA,NA,sim-RWK2w2gpyv,12.498625,66.104736,depiction-3B1g,14515200,study-bEhJSBTQ7A,1209600,NA,TreeNGF,mv6,NA,NA,NA,NA,NA,NA,NA,NA,NA,NA,NA,3T,GE,DISCOVERY MR750,RM,NONE,1.6,5.397,2.176,71.5385,325.508,BIL AXIAL ASPIRE,10,Yes,No,5,NA,NA,NA,NA,NA,NA,NA,NA,NA,NA,NA,NA,NA,NA,NA,NA,NA,NA,NA,NA,NA,NA,NA,NA,NA,NA,NA,NA,NA,NA,NA,NA,NA,NA,NA,NA,NA,NA,NA,NA,NA,NA,NA,NA,NA,NA,NA,NA,NA,0,5.10938212,12.481
UC_0063,UC,UC_0063-R,UC-063,UC_0063-R,UC_0063-T1,UC_0063-R-T1,Yes,Yes,Unblinded,56,Caucasian,NA,Female,NA,1.6,62.992,71,156.528,27.734,Overweight,Invasive Ductal Carcinoma,Right,NA,2,NA,80,+,40,-,3+,NA,NA,NA,HR+,HER2+,HR+/HER2+,T2,N1,M0,IIb,NA,NA,2.5 x 1.5 x 2,2.5,NA,NA,NA,NA,NA,Intermediate,10,NA,NA,NA,NA,NA,NA,NA,NA,NA,NA,TCarbo,TCarbo,Paclitaxel+Carboplatin,TC,No,No,Yes,No,No,No,Yes,No,No,NA,NA,NA,20,NA,NA,7/23/14,0,7/31/14,8,8/19/14,27,19,19,T1,NA,12/18/14,148,12/29/14,159,NA,NA,NA,Residual,NA,ypTis,N1mi,NA,NA,NA,NA,NA,sim-GZVKTBLAX5,1.716,NA,depiction-KJ5a,11491200,study-DmFkmk4sve,1641600,NA,TreeNGF,mv4,2157,308.14,5.91,No,NA,NA,NA,NA,NA,NA,NA,1.5T,GE,Signa HDxt,GR,SS,1.4,3.78,1.44,64.2857,325.547,Vanguard Breasts/4,7,Yes,No,3,NA,NA,NA,NA,NA,NA,NA,NA,NA,NA,NA,NA,NA,NA,NA,NA,NA,NA,NA,NA,NA,NA,NA,NA,NA,NA,NA,NA,NA,NA,NA,NA,NA,NA,NA,NA,NA,NA,NA,NA,NA,NA,NA,NA,NA,NA,NA,NA,NA,0,5.936118763,1.765
UC_0076,UC,UC_0076-R,UC-076,UC_0076-R,UC_0076-T1,UC_0076-R-T1,Yes,Yes,Unblinded,42.6,Caucasian,NA,Female,NA,1.651,65,100.7,222.005,36.943,Extremely Obese,Invasive Ductal Carcinoma,Right,Retroaleolar,2,NA,75,+,100,+,3+,NA,NA,NA,HR+,HER2+,HR+/HER2+,T2,N0,M0,IIa,NA,NA,1.3 x 1.4 x 1.3,1.3,NA,NA,NA,NA,NA,High,20,NA,NA,1,Single uni-centric mass,No,1,Clean,No,No,No,TCH,TCH,Docetaxel+Carboplatin+Trastuzumab,H/P,No,No,No,Yes,Yes,No,Yes,No,No,NA,NA,NA,14,NA,NA,5/19/15,0,5/14/15,-5,5/22/15,3,8,8,T1,NA,8/18/15,91,9/25/15,129,NA,NA,NA,Residual,NA,ypT1c,N0,NA,NA,NA,NA,NA,sim-WNU7A49zxY,0.662375,NA,depiction-MW9K,10886400,study-bEhJSBTQ7A,691200,NA,TreeNGF,mv6,1887,269.57,5.17,No,NA,NA,NA,NA,NA,NA,NA,1.5T,GE,Signa HDxt,GR,SS,1.4,3.852,1.48,64.2857,325.547,Vanguard Breasts/4,7,Yes,No,2,NA,NA,NA,NA,NA,NA,NA,NA,NA,NA,NA,NA,NA,NA,NA,NA,NA,NA,NA,NA,NA,NA,NA,NA,NA,NA,NA,NA,NA,NA,NA,NA,NA,NA,NA,NA,NA,NA,NA,NA,NA,NA,NA,NA,NA,NA,NA,NA,NA,0,1.464795581,0.675
UCHI_1022,UCHI,UCHI_1022-R,1022,UCHI_1022-R,UCHI_1022-T1,UCHI_1022-R-T1,Yes,Yes,Unblinded,68,African American,Yes,Female,NA,1.638,64.5,82,180.779,30.551,Obese,Invasive Ductal Carcinoma,Right,UOQ,2,NA,95,+,0,-,+,13.9,NA,NA,HR+,HER2+,HR+/HER2+,T2,N0,M0,IIa,NA,NA,7.1x3.7x3.0,7.1,3.7,3,NA,NA,NA,Intermediate,10,NA,NA,NA,NA,NA,NA,NA,NA,NA,NA,THP,THP,Docetaxel+Trastuzumab+Pertuzumab,H/P,No,No,No,Yes,Yes,Yes,No,No,No,NA,NA,NA,22,Modified(Only 4 T cycles),"4 cycles of docetaxel_TP,pertuzumab_TP,trastuzumab_TP every 3 weeks
1 cycles of trastuzumab_TP every 3 weeks
1 cycles of pertuzumab_TP,trastuzumab_TP every 3 weeks
2 cycles of trastuzumab_TP every 3 weeks",3/2/16,0,3/14/16,12,4/11/16,40,28,28,T1,NA,NA,NA,9/9/16,191,NA,NA,NA,Residual,NA,ypT1,NA,NA,NA,NA,NA,NA,sim-npesvxC2Gc,47.491625,78.56129,depiction-YAzW,13046400,study-tgH6pYAwAK,2419200,NA,TreeNGF,NA,1537,219.57,4.211,No,NA,Alive,NA,NA,NA,No,NA,1.5T,Philips,Achieva,GR,SP,2,5.368700027,2.68,94.86607361,360,WIP DYN_eTHRIVE HR SENSE,12,Yes,No,2,NA,NA,NA,NA,NA,NA,NA,NA,NA,NA,NA,NA,NA,NA,NA,NA,NA,NA,NA,NA,NA,NA,NA,NA,NA,19,NA,0,NA,NA,NA,NA,NA,NA,NA,NA,NA,NA,NA,NA,NA,NA,NA,NA,NA,NA,NA,NA,NA,0,7.902162292,47.216
UCHI_1028,UCHI,UCHI_1028-L,1028,UCHI_1028-L,UCHI_1028-T1,UCHI_1028-L-T1,Yes,Yes,Unblinded,63,African American,No,Female,NA,1.638,64.5,115,253.531,42.846,Extremely Obese,Invasive Ductal Carcinoma,Left,UIQ,2,NA,90,+,50,+,+,2.44,NA,NA,HR+,HER2+,HR+/HER2+,T1,N0,M0,Ia,NA,NA,2.1x2.0x1.4,2.1,2,1.4,NA,NA,NA,NA,NA,NA,NA,NA,NA,NA,NA,NA,NA,NA,NA,ddAC-THCarbo,TCH-ddAC,Docetaxel+Carboplatin+Trastuzumab+Doxorubicin+Cyclophosphamide,H/P,Yes,Yes,No,Yes,Yes,No,Yes,Yes,No,NA,NA,NA,27,Modified,"2 cycles of carboplatin,docetaxel,trastuzumab every 3 weeks
4 cycles of cyclophosphamide,doxorubicin every 2 weeks",10/27/10,0,11/15/10,19,1/5/11,70,51,51,T1,NA,NA,NA,7/13/11,259,NA,NA,NA,Residual,NA,ypT2,NA,NA,NA,NA,NA,NA,sim-ndWzn9kmFC,28.31225,97.111869,depiction-MN4P,16329600,study-MSPa1cAFba,4406400,NA,TreeNGF,NA,3422,488.86,9.375,No,NA,Alive,NA,NA,NA,No,NA,3T,Philips,Achieva,GR,SP,1.6,5.062600136,2.525,94.11764526,418,dyn_eTHRIVE SENSE,10,Yes,No,0,NA,NA,NA,NA,NA,NA,NA,NA,NA,NA,NA,NA,NA,NA,NA,NA,NA,NA,NA,NA,NA,NA,NA,NA,NA,NA,NA,NA,NA,NA,NA,NA,NA,13,11.00512824,20.047,NA,17,9.683,11.761,NA,NA,NA,NA,NA,NA,NA,NA,NA,0,9.726414853,28.125
UNC_0007,UNC,UNC_0007-R,7,UNC_0007-R,UNC_0007-T1,UNC_0007-R-T1,Yes,Yes,Unblinded,49,Caucasian,NA,Female,NA,1.549,61,97.273,214.449,40.519,Extremely Obese,Invasive Ductal Carcinoma,Right,NA,2,NA,0,-,0,-,2+,4,NA,NA,HR-,HER2+,HR-/HER2+,T3,N1,M0,IIIa,NA,NA,10,10,NA,NA,NA,NA,NA,NA,NA,NA,NA,NA,NA,NA,NA,NA,NA,NA,NA,AC-wTH,AC-wTH,Doxorubicin+Cyclophosphamide+Paclitaxel+Trastuzumab,H/P,Yes,Yes,Yes,No,Yes,No,No,No,No,NA,NA,NA,22,standard,NA,2/5/10,0,2/5/10,0,2/15/10,10,10,10,T1,5/10/10,NA,NA,7/19/10,164,NA,NA,NA,Residual,NA,ypTx,NA,NA,NA,NA,NA,NA,sim-K7y4zmM3aa,30.145625,NA,depiction-pfeK,NA,NA,NA,NA,NA,NA,NA,NA,NA,NA,NA,NA,NA,NA,NA,NA,NA,1.5T,SIEMENS,Symphony,GR,SP,1.300000072,4.41,1.44,69.96527778,315,AX DYN 1PRE 4 POST,12,Yes,No,5,NA,NA,NA,NA,NA,NA,NA,NA,NA,NA,NA,NA,NA,NA,NA,NA,NA,NA,NA,NA,NA,NA,NA,NA,NA,NA,NA,NA,NA,NA,NA,NA,NA,NA,NA,NA,NA,NA,NA,NA,NA,NA,NA,NA,NA,NA,NA,NA,NA,0,7.676072589,30.272
UNC_0036,UNC,UNC_0036-L,36,UNC_0036-L,UNC_0036-T1,UNC_0036-L-T1,Yes,Yes,Unblinded,52,African American,NA,Female,NA,1.676,66,68.039,150,24.21,Healthy Weight,Invasive Ductal Carcinoma,Left,NA,3,NA,10,-,10,-,3+,NA,NA,NA,HR-,HER2+,HR-/HER2+,T2,N0,M0,IIa,NA,NA,3.6x1.5,3.6,1.5,NA,NA,NA,NA,NA,NA,NA,NA,NA,NA,NA,NA,NA,NA,NA,NA,ddAC-TH,ddAC-TH,Doxorubicin+Cyclophosphamide+Paclitaxel+Trastuzumab,H/P,Yes,Yes,Yes,No,Yes,No,No,No,No,NA,NA,NA,18.14,standard,NA,10/1/12,0,10/1/12,0,10/18/12,17,17,17,T1,12/13/12,NA,NA,2/22/13,144,NA,NA,NA,Residual,NA,ypTx,NA,NA,NA,NA,NA,NA,sim-bGrKgZs1UH,5.27925,NA,depiction-S3Fv,NA,NA,NA,NA,NA,NA,NA,NA,NA,NA,NA,NA,NA,NA,NA,NA,NA,1.5T,SIEMENS,Aera,GR,SP,1.5,4.55,1.84,90,385,AX T1 FS 1 PRE 2 POST,12,Yes,No,3,NA,NA,NA,NA,NA,NA,NA,NA,NA,NA,NA,NA,NA,NA,NA,NA,NA,NA,NA,NA,NA,NA,NA,NA,NA,NA,NA,NA,NA,NA,NA,NA,NA,NA,NA,NA,NA,NA,NA,NA,NA,NA,NA,NA,NA,NA,NA,NA,NA,0,4.070592332,10.263