"","regimen_ACTUAL_4","initial_volume_ACTUAL_4","final_volume_ACTUAL_4","percent_decrease_ACTUAL_4","percent_decrease_PCR_ACTUAL_4","final_volume_PCR_ACTUAL_4","combined_PCR_ACTUAL_4"
"ISPY1_1137_MVvalFull","ACTUAL_4",17.9585,0.57669,96.788762981318,FALSE,FALSE,FALSE
"ISPY1_1157_MVvalFull","ACTUAL_4",7.7715,0.32295,95.8444315769157,FALSE,FALSE,FALSE
"ISPY1_1167_MVvalFull","ACTUAL_4",11.1553,0.0193137,99.8268652568734,FALSE,FALSE,FALSE
"ISPY1_1221_MVvalFull","ACTUAL_4",78.8099,1.7748,97.7479986651423,FALSE,FALSE,FALSE
"ISPY1_1222_MVvalFull","ACTUAL_4",19.6996,0.000246375,99.9987493400881,TRUE,TRUE,TRUE
"ISPY1_1237_MVvalFull","ACTUAL_4",6.93612,0.00377843,99.9455253080973,TRUE,TRUE,TRUE
"ISPY2_0004-R","ACTUAL_4",2.59262,0.051114,98.028480841774,FALSE,FALSE,FALSE
"ISPY2_0015-L","ACTUAL_4",7.58488,0.348428,95.4062819715012,FALSE,FALSE,FALSE
"ISPY2_0016-L","ACTUAL_4",42.9695,0.00492103,99.988547620987,TRUE,TRUE,TRUE
"ISPY2_0030-R","ACTUAL_4",11.4929,0.224947,98.0427307294068,FALSE,FALSE,FALSE
"ISPY2_0043-L","ACTUAL_4",62.6698,5.3036,91.5372316490558,FALSE,FALSE,FALSE
"ISPY2_0048-L","ACTUAL_4",24.962,4.01196,83.9277301498277,FALSE,FALSE,FALSE
"ISPY2_0069-L","ACTUAL_4",3.52213,0.0916307,97.3984293595069,FALSE,FALSE,FALSE
"ISPY2_0092-R","ACTUAL_4",39.7798,0.187076,99.5297211147366,FALSE,FALSE,FALSE
"ISPY2_0097-L","ACTUAL_4",80.8362,0.803805,99.0056373258515,FALSE,FALSE,FALSE
"ISPY2_0099-R","ACTUAL_4",1.682,0.00224277,99.8666605231867,FALSE,TRUE,FALSE
"ISPY2_0104-R","ACTUAL_4",62.4111,9.72368,84.4199509382145,FALSE,FALSE,FALSE
"ISPY2_0117-R","ACTUAL_4",58.5796,0.217077,99.6294324304024,FALSE,FALSE,FALSE
"ISPY2_0129-L","ACTUAL_4",37.1395,1.04698,97.1809528938193,FALSE,FALSE,FALSE
"ISPY2_0141-R","ACTUAL_4",7.92525,6.54209,17.4525724740544,FALSE,FALSE,FALSE
"ISPY2_0167-R","ACTUAL_4",52.0709,19.8667,61.846828074798,FALSE,FALSE,FALSE
"ISPY2_0185-R","ACTUAL_4",6.45175,0.11999,98.1401945208664,FALSE,FALSE,FALSE
"NCH_0016-L","ACTUAL_4",9.63625,2.6967,72.0150473472565,FALSE,FALSE,FALSE
"NCH_0022-R","ACTUAL_4",22.1409,7.7547,64.9756784954541,FALSE,FALSE,FALSE
"SPFD_0006-L","ACTUAL_4",12.471,0.0212321,99.8297482158608,FALSE,FALSE,FALSE
"UCHI_1022-R","ACTUAL_4",47.4269,0.433687,99.0855674733116,FALSE,FALSE,FALSE
"UCHI_1024-R","ACTUAL_4",21.3837,0.282681,98.6780538447509,FALSE,FALSE,FALSE
"UCHI_1025-R","ACTUAL_4",20.7655,0.80902,96.1040186848378,FALSE,FALSE,FALSE
"UCHI_1039-R","ACTUAL_4",2.7385,0.000159613,99.994171517254,TRUE,TRUE,TRUE
"UCHI_1105-L","ACTUAL_4",41.0335,0.247456,99.3969415233894,FALSE,FALSE,FALSE
"UCHI_1106-L","ACTUAL_4",54.8511,4.22304e-05,99.999923009019,TRUE,TRUE,TRUE
"UCHI_1125-L","ACTUAL_4",2.17713,0.00208345,99.90430291255,TRUE,TRUE,TRUE
"UCHI_1126-L","ACTUAL_4",4.09375,4.66914e-06,99.9998859446717,TRUE,TRUE,TRUE
"UCHI_1127-R","ACTUAL_4",5.21763,0.0543876,98.957618688945,FALSE,FALSE,FALSE
"UCHI_1157-R","ACTUAL_4",41.3946,1.78997,95.6758369449155,FALSE,FALSE,FALSE
"UCHI_1173-R","ACTUAL_4",8.98775,0.558948,93.781001919279,FALSE,FALSE,FALSE
"UCHI_1176-R","ACTUAL_4",4.689,0.116318,97.5193431435274,FALSE,FALSE,FALSE
"UCHI_1188-R","ACTUAL_4",5.426,0.0241618,99.5547032805013,FALSE,FALSE,FALSE
"UCHI_1222-L","ACTUAL_4",41.8538,9.55599e-05,99.9997716816633,TRUE,TRUE,TRUE
"UC_0008-R","ACTUAL_4",2.3285,0.00758286,99.6743457161263,FALSE,TRUE,FALSE
"UC_0029-L","ACTUAL_4",1.36137,0.70411,48.2793068746924,FALSE,FALSE,FALSE
"UC_0063-R","ACTUAL_4",1.716,0.249054,85.4863636363636,FALSE,FALSE,FALSE
"UC_0076-R","ACTUAL_4",0.662375,0.0179471,97.2904925457634,FALSE,FALSE,FALSE
"UNC_0007-R","ACTUAL_4",30.1456,6.30205e-05,99.9997909462741,TRUE,TRUE,TRUE
"UNC_0036-L","ACTUAL_4",5.27925,0.174443,96.6956859402377,FALSE,FALSE,FALSE
"UNC_0047-L","ACTUAL_4",38.211,0.0675014,99.8233456334563,FALSE,FALSE,FALSE
