adhoc_key,case,time,volume,ld
sim-P2EKthatdV,DU_0005-R,0,17.4726,46.9593
sim-P2EKthatdV,DU_0005-R,1,16.163,46.9539
sim-P2EKthatdV,DU_0005-R,2,13.7759,45.9806
sim-P2EKthatdV,DU_0005-R,3,11.749,44.511
sim-P2EKthatdV,DU_0005-R,4,10.021,43.5303
sim-P2EKthatdV,DU_0005-R,5,8.55177,41.629
sim-P2EKthatdV,DU_0005-R,6,7.29878,40.655
sim-P2EKthatdV,DU_0005-R,7,6.23149,39.054
sim-P2EKthatdV,DU_0005-R,8,5.32048,38.172
sim-P2EKthatdV,DU_0005-R,9,4.54373,36.9908
sim-P2EKthatdV,DU_0005-R,10,3.87945,36.0645
sim-P2EKthatdV,DU_0005-R,11,3.31321,35.5367
sim-P2EKthatdV,DU_0005-R,12,2.82826,35.0989
sim-P2EKthatdV,DU_0005-R,13,2.4148,33.0118
sim-P2EKthatdV,DU_0005-R,14,2.05981,33.6415
sim-P2EKthatdV,DU_0005-R,15,1.75767,31.5747
sim-P2EKthatdV,DU_0005-R,16,1.49786,31.5118
sim-P2EKthatdV,DU_0005-R,17,1.27709,29.886
sim-P2EKthatdV,DU_0005-R,18,1.08663,31.3363
sim-P2EKthatdV,DU_0005-R,18.4286,1.01459,29.236
sim-MTGmRfF4LR,DU_0090-R,0,135.152,104.875
sim-MTGmRfF4LR,DU_0090-R,1,125.171,104.847
sim-MTGmRfF4LR,DU_0090-R,2,107.086,104.064
sim-MTGmRfF4LR,DU_0090-R,3,92.3321,102.934
sim-MTGmRfF4LR,DU_0090-R,4,79.8874,101.4
sim-MTGmRfF4LR,DU_0090-R,5,69.4445,100.142
sim-MTGmRfF4LR,DU_0090-R,6,60.4826,98.3872
sim-MTGmRfF4LR,DU_0090-R,7,52.8199,96.6531
sim-MTGmRfF4LR,DU_0090-R,8,46.1564,95.3406
sim-MTGmRfF4LR,DU_0090-R,9,40.3833,93.8207
sim-MTGmRfF4LR,DU_0090-R,10,35.3159,92.7688
sim-MTGmRfF4LR,DU_0090-R,11,30.8966,80.0435
sim-MTGmRfF4LR,DU_0090-R,12,26.9929,78.8776
sim-MTGmRfF4LR,DU_0090-R,13,23.5815,78.4306
sim-MTGmRfF4LR,DU_0090-R,14,20.5533,76.6028
sim-MTGmRfF4LR,DU_0090-R,15,17.9097,75.6909
sim-MTGmRfF4LR,DU_0090-R,16,15.552,74.0533
sim-MTGmRfF4LR,DU_0090-R,17,13.4946,72.6161
sim-MTGmRfF4LR,DU_0090-R,18,11.6567,71.4513
sim-MTGmRfF4LR,DU_0090-R,18.4286,10.9605,70.4237
sim-e73UNnXe9X,DU_0116-R,0,11.2785,59.16
sim-e73UNnXe9X,DU_0116-R,1,10.3897,59.1622
sim-e73UNnXe9X,DU_0116-R,2,8.77567,58.1876
sim-e73UNnXe9X,DU_0116-R,3,7.41081,57.1563
sim-e73UNnXe9X,DU_0116-R,4,6.25522,56.1801
sim-e73UNnXe9X,DU_0116-R,5,5.28053,54.6995
sim-e73UNnXe9X,DU_0116-R,6,4.45625,53.7255
sim-e73UNnXe9X,DU_0116-R,7,3.76143,52.1962
sim-e73UNnXe9X,DU_0116-R,8,3.17364,51.5169
sim-e73UNnXe9X,DU_0116-R,9,2.67773,50.1862
sim-e73UNnXe9X,DU_0116-R,10,2.25807,49.3995
sim-e73UNnXe9X,DU_0116-R,11,1.90391,48.6609
sim-e73UNnXe9X,DU_0116-R,12,1.604,48.0526
sim-e73UNnXe9X,DU_0116-R,13,1.35092,46.799
sim-e73UNnXe9X,DU_0116-R,14,1.13668,45.9069
sim-e73UNnXe9X,DU_0116-R,15,0.955991,45.7545
sim-e73UNnXe9X,DU_0116-R,16,0.803109,44.7826
sim-e73UNnXe9X,DU_0116-R,17,0.674496,45.1888
sim-e73UNnXe9X,DU_0116-R,18,0.565942,44.7288
sim-e73UNnXe9X,DU_0116-R,18.4286,0.524988,43.1672
sim-zhURzZZwPk,DU_0144-R,0,1.233,46.0226
sim-zhURzZZwPk,DU_0144-R,1,1.06067,46.0233
sim-zhURzZZwPk,DU_0144-R,2,0.766835,46.0259
sim-zhURzZZwPk,DU_0144-R,3,0.553422,45.4002
sim-zhURzZZwPk,DU_0144-R,4,0.398925,44.7705
sim-zhURzZZwPk,DU_0144-R,5,0.287493,43.9759
sim-zhURzZZwPk,DU_0144-R,6,0.207123,43.3461
sim-zhURzZZwPk,DU_0144-R,7,0.149197,43.2035
sim-zhURzZZwPk,DU_0144-R,8,0.107443,43.102
sim-zhURzZZwPk,DU_0144-R,9,0.0773589,42.0951
sim-zhURzZZwPk,DU_0144-R,10,0.0556923,42.096
sim-zhURzZZwPk,DU_0144-R,11,0.0400915,41.1006
sim-zhURzZZwPk,DU_0144-R,12,0.0288588,41.101
sim-zhURzZZwPk,DU_0144-R,13,0.0207716,40.1858
sim-zhURzZZwPk,DU_0144-R,14,0.0149501,40.1856
sim-zhURzZZwPk,DU_0144-R,15,0.0107595,38.4582
sim-zhURzZZwPk,DU_0144-R,16,0.00774348,38.4597
sim-zhURzZZwPk,DU_0144-R,17,0.00557289,39.8695
sim-zhURzZZwPk,DU_0144-R,18,0.00401087,39.8696
sim-zhURzZZwPk,DU_0144-R,18.4286,0.00348357,40.2894
sim-UfUtKWQXHX,DU_0183-L,0,7.295,45.3418
sim-UfUtKWQXHX,DU_0183-L,1,6.75284,45.3419
sim-UfUtKWQXHX,DU_0183-L,2,5.77531,45.3379
sim-UfUtKWQXHX,DU_0183-L,3,4.93828,44.3742
sim-UfUtKWQXHX,DU_0183-L,4,4.22225,43.1668
sim-UfUtKWQXHX,DU_0183-L,5,3.60992,42.7963
sim-UfUtKWQXHX,DU_0183-L,6,3.08623,42.7998
sim-UfUtKWQXHX,DU_0183-L,7,2.63856,42.9267
sim-UfUtKWQXHX,DU_0183-L,8,2.25572,41.8175
sim-UfUtKWQXHX,DU_0183-L,9,1.92842,40.2593
sim-UfUtKWQXHX,DU_0183-L,10,1.64847,40.2554
sim-UfUtKWQXHX,DU_0183-L,11,1.40915,41.0763
sim-UfUtKWQXHX,DU_0183-L,12,1.20451,41.0765
sim-UfUtKWQXHX,DU_0183-L,13,1.02958,38.6691
sim-UfUtKWQXHX,DU_0183-L,14,0.880068,38.62
sim-UfUtKWQXHX,DU_0183-L,15,0.752275,38.8976
sim-UfUtKWQXHX,DU_0183-L,16,0.64304,40.0792
sim-UfUtKWQXHX,DU_0183-L,17,0.549673,35.9571
sim-UfUtKWQXHX,DU_0183-L,18,0.469864,35.9545
sim-UfUtKWQXHX,DU_0183-L,18.4286,0.439315,34.9582
sim-cThzTXMNkC,DU_0202-L,0,35.4269,102.446
sim-cThzTXMNkC,DU_0202-L,1,31.4346,102.449
sim-cThzTXMNkC,DU_0202-L,2,24.3757,101.296
sim-cThzTXMNkC,DU_0202-L,3,18.9653,98.9831
sim-cThzTXMNkC,DU_0202-L,4,14.785,97.4404
sim-cThzTXMNkC,DU_0202-L,5,11.5468,95.3731
sim-cThzTXMNkC,DU_0202-L,6,9.02858,93.8183
sim-cThzTXMNkC,DU_0202-L,7,7.06511,92.3071
sim-cThzTXMNkC,DU_0202-L,8,5.52787,91.1433
sim-cThzTXMNkC,DU_0202-L,9,4.32632,89.2039
sim-cThzTXMNkC,DU_0202-L,10,3.37905,89.0098
sim-cThzTXMNkC,DU_0202-L,11,2.63752,87.4316
sim-cThzTXMNkC,DU_0202-L,12,2.04857,86.3437
sim-cThzTXMNkC,DU_0202-L,13,1.58771,86.1205
sim-cThzTXMNkC,DU_0202-L,14,1.22077,85.4788
sim-cThzTXMNkC,DU_0202-L,15,0.936165,84.4913
sim-cThzTXMNkC,DU_0202-L,16,0.712304,84.3642
sim-cThzTXMNkC,DU_0202-L,17,0.541677,83.1656
sim-cThzTXMNkC,DU_0202-L,18,0.409672,82.8932
sim-cThzTXMNkC,DU_0202-L,18.4286,0.363672,70.4408
sim-LXAcdvyZt8,DU_0253-R,0,7.26663,47.6136
sim-LXAcdvyZt8,DU_0253-R,1,6.66646,47.6147
sim-LXAcdvyZt8,DU_0253-R,2,5.5857,47.102
sim-LXAcdvyZt8,DU_0253-R,3,4.67899,46.1278
sim-LXAcdvyZt8,DU_0253-R,4,3.91923,45.1388
sim-LXAcdvyZt8,DU_0253-R,5,3.28269,43.9616
sim-LXAcdvyZt8,DU_0253-R,6,2.74968,42.9875
sim-LXAcdvyZt8,DU_0253-R,7,2.30311,41.9987
sim-LXAcdvyZt8,DU_0253-R,8,1.92935,41.009
sim-LXAcdvyZt8,DU_0253-R,9,1.6161,40.8562
sim-LXAcdvyZt8,DU_0253-R,10,1.35403,39.8689
sim-LXAcdvyZt8,DU_0253-R,11,1.13429,39.8639
sim-LXAcdvyZt8,DU_0253-R,12,0.950477,38.865
sim-LXAcdvyZt8,DU_0253-R,13,0.796318,38.8632
sim-LXAcdvyZt8,DU_0253-R,14,0.667244,38.8627
sim-LXAcdvyZt8,DU_0253-R,15,0.558982,37.8705
sim-LXAcdvyZt8,DU_0253-R,16,0.468246,37.8619
sim-LXAcdvyZt8,DU_0253-R,17,0.392181,36.885
sim-LXAcdvyZt8,DU_0253-R,18,0.328409,36.8839
sim-LXAcdvyZt8,DU_0253-R,18.4286,0.304346,36.8602
sim-2RGrFw7SKN,DU_0255-R,0,43.0406,64.7786
sim-2RGrFw7SKN,DU_0255-R,1,39.5689,64.7926
sim-2RGrFw7SKN,DU_0255-R,2,33.2731,64.003
sim-2RGrFw7SKN,DU_0255-R,3,27.9594,62.6614
sim-2RGrFw7SKN,DU_0255-R,4,23.4735,61.3747
sim-2RGrFw7SKN,DU_0255-R,5,19.6987,60.0652
sim-2RGrFw7SKN,DU_0255-R,6,16.5189,59.0007
sim-2RGrFw7SKN,DU_0255-R,7,13.8479,57.4288
sim-2RGrFw7SKN,DU_0255-R,8,11.6011,56.7748
sim-2RGrFw7SKN,DU_0255-R,9,9.71625,55.6613
sim-2RGrFw7SKN,DU_0255-R,10,8.13309,55.0017
sim-2RGrFw7SKN,DU_0255-R,11,6.80623,54.2261
sim-2RGrFw7SKN,DU_0255-R,12,5.69392,53.5711
sim-2RGrFw7SKN,DU_0255-R,13,4.76299,52.9002
sim-2RGrFw7SKN,DU_0255-R,14,3.98393,52.9101
sim-2RGrFw7SKN,DU_0255-R,15,3.33232,52.2333
sim-2RGrFw7SKN,DU_0255-R,16,2.78738,52.254
sim-2RGrFw7SKN,DU_0255-R,17,2.33166,52.1686
sim-2RGrFw7SKN,DU_0255-R,18,1.95052,52.052
sim-2RGrFw7SKN,DU_0255-R,18.4286,1.80688,49.3509
sim-8kybZWVLm3,DU_0260-R,0,85.0298,96.7658
sim-8kybZWVLm3,DU_0260-R,1,79.2709,96.8138
sim-8kybZWVLm3,DU_0260-R,2,68.7093,96.9205
sim-8kybZWVLm3,DU_0260-R,3,59.5418,96.099
sim-8kybZWVLm3,DU_0260-R,4,51.5124,95.6297
sim-8kybZWVLm3,DU_0260-R,5,44.5676,94.7949
sim-8kybZWVLm3,DU_0260-R,6,38.5123,93.8129
sim-8kybZWVLm3,DU_0260-R,7,33.2818,92.8738
sim-8kybZWVLm3,DU_0260-R,8,28.7309,92.5179
sim-8kybZWVLm3,DU_0260-R,9,24.8086,91.564
sim-8kybZWVLm3,DU_0260-R,10,21.4004,91.1493
sim-8kybZWVLm3,DU_0260-R,11,18.4697,90.1998
sim-8kybZWVLm3,DU_0260-R,12,15.9232,89.7743
sim-8kybZWVLm3,DU_0260-R,13,13.7375,89.028
sim-8kybZWVLm3,DU_0260-R,14,11.8345,88.6262
sim-8kybZWVLm3,DU_0260-R,15,10.203,87.8778
sim-8kybZWVLm3,DU_0260-R,16,8.78048,87.9375
sim-8kybZWVLm3,DU_0260-R,17,7.56137,87.2759
sim-8kybZWVLm3,DU_0260-R,18,6.4973,87.1318
sim-8kybZWVLm3,DU_0260-R,18.4286,6.09213,86.7617
sim-XKFxNtyP1k,DU_0328-L,0,8.0505,39.5879
sim-XKFxNtyP1k,DU_0328-L,1,7.66912,39.5852
sim-XKFxNtyP1k,DU_0328-L,2,6.97939,39.579
sim-XKFxNtyP1k,DU_0328-L,3,6.36097,38.9998
sim-XKFxNtyP1k,DU_0328-L,4,5.79437,38.9651
sim-XKFxNtyP1k,DU_0328-L,5,5.28839,38.019
sim-XKFxNtyP1k,DU_0328-L,6,4.8241,37.527
sim-XKFxNtyP1k,DU_0328-L,7,4.40854,37.0403
sim-XKFxNtyP1k,DU_0328-L,8,4.02597,36.5513
sim-XKFxNtyP1k,DU_0328-L,9,3.6831,35.9854
sim-XKFxNtyP1k,DU_0328-L,10,3.36647,35.503
sim-XKFxNtyP1k,DU_0328-L,11,3.08231,30.0832
sim-XKFxNtyP1k,DU_0328-L,12,2.8192,30.0938
sim-XKFxNtyP1k,DU_0328-L,13,2.58277,28.9561
sim-XKFxNtyP1k,DU_0328-L,14,2.36349,28.4823
sim-XKFxNtyP1k,DU_0328-L,15,2.16616,27.65
sim-XKFxNtyP1k,DU_0328-L,16,1.98299,27.1724
sim-XKFxNtyP1k,DU_0328-L,17,1.81785,26.9762
sim-XKFxNtyP1k,DU_0328-L,18,1.66458,26.5612
sim-XKFxNtyP1k,DU_0328-L,18.4286,1.60418,25.9625
sim-UCQkN276pQ,DU_0386-L,0,12.2522,51.453
sim-UCQkN276pQ,DU_0386-L,1,10.6621,51.3894
sim-UCQkN276pQ,DU_0386-L,2,7.90721,49.6123
sim-UCQkN276pQ,DU_0386-L,3,5.87649,47.3376
sim-UCQkN276pQ,DU_0386-L,4,4.37283,45.3175
sim-UCQkN276pQ,DU_0386-L,5,3.25972,43.3647
sim-UCQkN276pQ,DU_0386-L,6,2.43217,41.3786
sim-UCQkN276pQ,DU_0386-L,7,1.81546,39.3767
sim-UCQkN276pQ,DU_0386-L,8,1.35461,38.4432
sim-UCQkN276pQ,DU_0386-L,9,1.00956,37.3449
sim-UCQkN276pQ,DU_0386-L,10,0.749895,36.8899
sim-UCQkN276pQ,DU_0386-L,11,0.555344,36.0325
sim-UCQkN276pQ,DU_0386-L,12,0.408635,36.3628
sim-UCQkN276pQ,DU_0386-L,13,0.29924,34.6162
sim-UCQkN276pQ,DU_0386-L,14,0.217422,34.5871
sim-UCQkN276pQ,DU_0386-L,15,0.157223,32.4463
sim-UCQkN276pQ,DU_0386-L,16,0.113321,32.4632
sim-UCQkN276pQ,DU_0386-L,17,0.0816034,29.7315
sim-UCQkN276pQ,DU_0386-L,18,0.0587778,29.7378
sim-UCQkN276pQ,DU_0386-L,18.4286,0.0510637,23.4199
sim-72amCVFy95,DU_0431-L,0,1.78887,26.4487
sim-72amCVFy95,DU_0431-L,1,1.67751,26.4468
sim-72amCVFy95,DU_0431-L,2,1.46901,26.442
sim-72amCVFy95,DU_0431-L,3,1.29549,26.1709
sim-72amCVFy95,DU_0431-L,4,1.1459,26.0194
sim-72amCVFy95,DU_0431-L,5,1.02133,25.3245
sim-72amCVFy95,DU_0431-L,6,0.911186,25.322
sim-72amCVFy95,DU_0431-L,7,0.817962,24.4902
sim-72amCVFy95,DU_0431-L,8,0.733922,24.1038
sim-72amCVFy95,DU_0431-L,9,0.66212,23.8167
sim-72amCVFy95,DU_0431-L,10,0.596787,23.8139
sim-72amCVFy95,DU_0431-L,11,0.540179,23.3758
sim-72amCVFy95,DU_0431-L,12,0.488436,23.3745
sim-72amCVFy95,DU_0431-L,13,0.443518,21.7616
sim-72amCVFy95,DU_0431-L,14,0.40224,22.6971
sim-72amCVFy95,DU_0431-L,15,0.366027,21.3252
sim-72amCVFy95,DU_0431-L,16,0.332686,21.3229
sim-72amCVFy95,DU_0431-L,17,0.303535,20.5069
sim-72amCVFy95,DU_0431-L,18,0.276617,20.4799
sim-72amCVFy95,DU_0431-L,18.4286,0.266211,20.4778
sim-nvyc1dF2Zh,DU_0431-R,0,0.924625,111.772
sim-nvyc1dF2Zh,DU_0431-R,1,0.831666,111.733
sim-nvyc1dF2Zh,DU_0431-R,2,0.660431,111.649
sim-nvyc1dF2Zh,DU_0431-R,3,0.524816,111.116
sim-nvyc1dF2Zh,DU_0431-R,4,0.414254,111.047
sim-nvyc1dF2Zh,DU_0431-R,5,0.32833,109.688
sim-nvyc1dF2Zh,DU_0431-R,6,0.258463,109.63
sim-nvyc1dF2Zh,DU_0431-R,7,0.203729,108.493
sim-nvyc1dF2Zh,DU_0431-R,8,0.159663,108.523
sim-nvyc1dF2Zh,DU_0431-R,9,0.12537,107.844
sim-nvyc1dF2Zh,DU_0431-R,10,0.0977859,107.637
sim-nvyc1dF2Zh,DU_0431-R,11,0.0764237,107.512
sim-nvyc1dF2Zh,DU_0431-R,12,0.0594137,107.378
sim-nvyc1dF2Zh,DU_0431-R,13,0.0463458,90.9967
sim-nvyc1dF2Zh,DU_0431-R,14,0.0361157,90.9955
sim-nvyc1dF2Zh,DU_0431-R,15,0.0283129,89.618
sim-nvyc1dF2Zh,DU_0431-R,16,0.0221108,89.5796
sim-nvyc1dF2Zh,DU_0431-R,17,0.0173107,9.797
sim-nvyc1dF2Zh,DU_0431-R,18,0.0134538,9.80299
sim-nvyc1dF2Zh,DU_0431-R,18.4286,0.012094,9.81409
sim-xkKW2HAkfn,DU_0444-R,0,106.836,92.5281
sim-xkKW2HAkfn,DU_0444-R,1,94.0796,92.5307
sim-xkKW2HAkfn,DU_0444-R,2,71.7873,90.8778
sim-xkKW2HAkfn,DU_0444-R,3,54.7838,88.3353
sim-xkKW2HAkfn,DU_0444-R,4,41.8452,86.1263
sim-xkKW2HAkfn,DU_0444-R,5,31.9742,84.3646
sim-xkKW2HAkfn,DU_0444-R,6,24.4587,82.6449
sim-xkKW2HAkfn,DU_0444-R,7,18.7229,80.913
sim-xkKW2HAkfn,DU_0444-R,8,14.3501,79.1774
sim-xkKW2HAkfn,DU_0444-R,9,11.0087,78.7555
sim-xkKW2HAkfn,DU_0444-R,10,8.4554,77.4233
sim-xkKW2HAkfn,DU_0444-R,11,6.49942,77.8136
sim-xkKW2HAkfn,DU_0444-R,12,5.00058,76.2559
sim-xkKW2HAkfn,DU_0444-R,13,3.849,72.835
sim-xkKW2HAkfn,DU_0444-R,14,2.9642,71.5746
sim-xkKW2HAkfn,DU_0444-R,15,2.28213,69.6321
sim-xkKW2HAkfn,DU_0444-R,16,1.75573,69.6157
sim-xkKW2HAkfn,DU_0444-R,17,1.35108,63.6042
sim-xkKW2HAkfn,DU_0444-R,18,1.03777,65.5474
sim-xkKW2HAkfn,DU_0444-R,18.4286,0.92731,63.0882
sim-QUDVw4tX1Q,DU_0468-R,0,9.06325,57.4973
sim-QUDVw4tX1Q,DU_0468-R,1,7.80189,57.4929
sim-QUDVw4tX1Q,DU_0468-R,2,5.64807,56.5945
sim-QUDVw4tX1Q,DU_0468-R,3,4.08313,54.8007
sim-QUDVw4tX1Q,DU_0468-R,4,2.94902,53.5646
sim-QUDVw4tX1Q,DU_0468-R,5,2.12873,52.3763
sim-QUDVw4tX1Q,DU_0468-R,6,1.53575,50.9865
sim-QUDVw4tX1Q,DU_0468-R,7,1.10752,50.105
sim-QUDVw4tX1Q,DU_0468-R,8,0.798488,49.2608
sim-QUDVw4tX1Q,DU_0468-R,9,0.575637,48.3964
sim-QUDVw4tX1Q,DU_0468-R,10,0.414932,47.8334
sim-QUDVw4tX1Q,DU_0468-R,11,0.299079,47.5847
sim-QUDVw4tX1Q,DU_0468-R,12,0.215562,46.6811
sim-QUDVw4tX1Q,DU_0468-R,13,0.155367,44.4691
sim-QUDVw4tX1Q,DU_0468-R,14,0.11198,44.9992
sim-QUDVw4tX1Q,DU_0468-R,15,0.0807113,43.5707
sim-QUDVw4tX1Q,DU_0468-R,16,0.0581749,43.5751
sim-QUDVw4tX1Q,DU_0468-R,17,0.0419328,43.0411
sim-QUDVw4tX1Q,DU_0468-R,18,0.0302264,43.041
sim-QUDVw4tX1Q,DU_0468-R,18.4286,0.0262701,42.7256
sim-xySfGakv24,DU_0470-R,0,11.9066,54.9878
sim-xySfGakv24,DU_0470-R,1,10.9913,55.007
sim-xySfGakv24,DU_0470-R,2,9.32795,54.6814
sim-xySfGakv24,DU_0470-R,3,7.97884,53.4511
sim-xySfGakv24,DU_0470-R,4,6.84169,52.4126
sim-xySfGakv24,DU_0470-R,5,5.90495,51.3694
sim-xySfGakv24,DU_0470-R,6,5.10453,50.6124
sim-xySfGakv24,DU_0470-R,7,4.43988,49.8011
sim-xySfGakv24,DU_0470-R,8,3.86297,49.1829
sim-xySfGakv24,DU_0470-R,9,3.38034,47.914
sim-xySfGakv24,DU_0470-R,10,2.95556,47.9079
sim-xySfGakv24,DU_0470-R,11,2.59924,47.4267
sim-xySfGakv24,DU_0470-R,12,2.28098,46.847
sim-xySfGakv24,DU_0470-R,13,2.01361,46.3817
sim-xySfGakv24,DU_0470-R,14,1.77119,46.3787
sim-xySfGakv24,DU_0470-R,15,1.5656,44.5675
sim-xySfGakv24,DU_0470-R,16,1.37698,44.2677
sim-xySfGakv24,DU_0470-R,17,1.21776,43.3252
sim-xySfGakv24,DU_0470-R,18,1.07071,43.3136
sim-xySfGakv24,DU_0470-R,18.4286,1.01615,43.3875
sim-fP2EDtKNH1,DU_0525-L,0,7.94,30.8418
sim-fP2EDtKNH1,DU_0525-L,1,7.48438,30.8322
sim-fP2EDtKNH1,DU_0525-L,2,6.66836,30.4956
sim-fP2EDtKNH1,DU_0525-L,3,5.98769,29.5983
sim-fP2EDtKNH1,DU_0525-L,4,5.3904,28.8533
sim-fP2EDtKNH1,DU_0525-L,5,4.87747,28.6
sim-fP2EDtKNH1,DU_0525-L,6,4.42166,27.5398
sim-fP2EDtKNH1,DU_0525-L,7,4.02295,27.2625
sim-fP2EDtKNH1,DU_0525-L,8,3.66235,26.4322
sim-fP2EDtKNH1,DU_0525-L,9,3.34503,24.9703
sim-fP2EDtKNH1,DU_0525-L,10,3.05394,24.242
sim-fP2EDtKNH1,DU_0525-L,11,2.79667,23.7987
sim-fP2EDtKNH1,DU_0525-L,12,2.55767,23.2837
sim-fP2EDtKNH1,DU_0525-L,13,2.3463,22.5864
sim-fP2EDtKNH1,DU_0525-L,14,2.14893,22.5281
sim-fP2EDtKNH1,DU_0525-L,15,1.97266,21.6809
sim-fP2EDtKNH1,DU_0525-L,16,1.80741,21.6369
sim-fP2EDtKNH1,DU_0525-L,17,1.66097,20.7275
sim-fP2EDtKNH1,DU_0525-L,18,1.52297,20.7471
sim-fP2EDtKNH1,DU_0525-L,18.4286,1.46954,20.0141
sim-x5YBQUA5LB,DU_0539-R,0,43.6311,91.7984
sim-x5YBQUA5LB,DU_0539-R,1,40.3411,91.7982
sim-x5YBQUA5LB,DU_0539-R,2,34.3232,91.7999
sim-x5YBQUA5LB,DU_0539-R,3,29.1942,91.2587
sim-x5YBQUA5LB,DU_0539-R,4,24.815,90.9169
sim-x5YBQUA5LB,DU_0539-R,5,21.0941,89.3309
sim-x5YBQUA5LB,DU_0539-R,6,17.9264,89.1482
sim-x5YBQUA5LB,DU_0539-R,7,15.2358,88.0083
sim-x5YBQUA5LB,DU_0539-R,8,12.9469,87.5732
sim-x5YBQUA5LB,DU_0539-R,9,11.0034,86.6761
sim-x5YBQUA5LB,DU_0539-R,10,9.35032,86.2123
sim-x5YBQUA5LB,DU_0539-R,11,7.94773,85.4588
sim-x5YBQUA5LB,DU_0539-R,12,6.75423,85.0444
sim-x5YBQUA5LB,DU_0539-R,13,5.74322,84.5046
sim-x5YBQUA5LB,DU_0539-R,14,4.88236,84.3448
sim-x5YBQUA5LB,DU_0539-R,15,4.1537,83.6498
sim-x5YBQUA5LB,DU_0539-R,16,3.53326,83.6576
sim-x5YBQUA5LB,DU_0539-R,17,3.00866,83.6552
sim-x5YBQUA5LB,DU_0539-R,18,2.56152,83.6617
sim-x5YBQUA5LB,DU_0539-R,18.4286,2.39211,83.7487
sim-Un5M3CxCD8,DU_0552-L,0,2.67537,23.3396
sim-Un5M3CxCD8,DU_0552-L,1,2.45332,23.3375
sim-Un5M3CxCD8,DU_0552-L,2,2.05369,23.1094
sim-Un5M3CxCD8,DU_0552-L,3,1.71852,22.2472
sim-Un5M3CxCD8,DU_0552-L,4,1.43739,21.4217
sim-Un5M3CxCD8,DU_0552-L,5,1.20202,20.5819
sim-Un5M3CxCD8,DU_0552-L,6,1.00479,19.8572
sim-Un5M3CxCD8,DU_0552-L,7,0.839797,19.1418
sim-Un5M3CxCD8,DU_0552-L,8,0.701625,18.4702
sim-Un5M3CxCD8,DU_0552-L,9,0.58605,18.08
sim-Un5M3CxCD8,DU_0552-L,10,0.489337,17.7103
sim-Un5M3CxCD8,DU_0552-L,11,0.408458,16.9984
sim-Un5M3CxCD8,DU_0552-L,12,0.340861,16.816
sim-Un5M3CxCD8,DU_0552-L,13,0.284437,15.8803
sim-Un5M3CxCD8,DU_0552-L,14,0.237357,15.7747
sim-Un5M3CxCD8,DU_0552-L,15,0.198077,15.2877
sim-Un5M3CxCD8,DU_0552-L,16,0.165304,15.2977
sim-Un5M3CxCD8,DU_0552-L,17,0.137958,14.5924
sim-Un5M3CxCD8,DU_0552-L,18,0.115138,14.6023
sim-Un5M3CxCD8,DU_0552-L,18.4286,0.106555,14.3006
sim-k3AphP7PxN,DU_0559-R,0,26.1344,74.7693
sim-k3AphP7PxN,DU_0559-R,1,22.7755,74.7836
sim-k3AphP7PxN,DU_0559-R,2,16.9826,74.3651
sim-k3AphP7PxN,DU_0559-R,3,12.6998,73.0633
sim-k3AphP7PxN,DU_0559-R,4,9.52627,72.2906
sim-k3AphP7PxN,DU_0559-R,5,7.17022,71.4653
sim-k3AphP7PxN,DU_0559-R,6,5.41723,70.6832
sim-k3AphP7PxN,DU_0559-R,7,4.10615,70.3578
sim-k3AphP7PxN,DU_0559-R,8,3.12337,69.549
sim-k3AphP7PxN,DU_0559-R,9,2.38292,68.9484
sim-k3AphP7PxN,DU_0559-R,10,1.82228,67.919
sim-k3AphP7PxN,DU_0559-R,11,1.39812,67.9502
sim-k3AphP7PxN,DU_0559-R,12,1.07377,67.5612
sim-k3AphP7PxN,DU_0559-R,13,0.827379,65.9316
sim-k3AphP7PxN,DU_0559-R,14,0.637641,65.9816
sim-k3AphP7PxN,DU_0559-R,15,0.492974,46.0536
sim-k3AphP7PxN,DU_0559-R,16,0.381268,46.0962
sim-k3AphP7PxN,DU_0559-R,17,0.296338,40.9463
sim-k3AphP7PxN,DU_0559-R,18,0.230216,40.5405
sim-k3AphP7PxN,DU_0559-R,18.4286,0.207077,22.4992
sim-Wxe17RAac4,DU_0693-R,0,22.7319,73.6386
sim-Wxe17RAac4,DU_0693-R,1,20.8947,73.6229
sim-Wxe17RAac4,DU_0693-R,2,17.5721,73.1813
sim-Wxe17RAac4,DU_0693-R,3,14.7717,72.3466
sim-Wxe17RAac4,DU_0693-R,4,12.4092,71.5188
sim-Wxe17RAac4,DU_0693-R,5,10.4217,70.4564
sim-Wxe17RAac4,DU_0693-R,6,8.74741,69.6483
sim-Wxe17RAac4,DU_0693-R,7,7.33986,68.501
sim-Wxe17RAac4,DU_0693-R,8,6.15541,67.8221
sim-Wxe17RAac4,DU_0693-R,9,5.16131,66.9738
sim-Wxe17RAac4,DU_0693-R,10,4.32584,66.8137
sim-Wxe17RAac4,DU_0693-R,11,3.6253,65.8681
sim-Wxe17RAac4,DU_0693-R,12,3.0376,65.479
sim-Wxe17RAac4,DU_0693-R,13,2.54539,65.0889
sim-Wxe17RAac4,DU_0693-R,14,2.13306,64.7062
sim-Wxe17RAac4,DU_0693-R,15,1.7879,64.3195
sim-Wxe17RAac4,DU_0693-R,16,1.49886,64.0717
sim-Wxe17RAac4,DU_0693-R,17,1.25685,63.8352
sim-Wxe17RAac4,DU_0693-R,18,1.05413,63.5399
sim-Wxe17RAac4,DU_0693-R,18.4286,0.977675,63.446
sim-DxxwQmdDKf,DU_0735-R,0,18.3334,52.1147
sim-DxxwQmdDKf,DU_0735-R,1,16.8728,52.1037
sim-DxxwQmdDKf,DU_0735-R,2,14.2241,51.2517
sim-DxxwQmdDKf,DU_0735-R,3,11.9917,50.1024
sim-DxxwQmdDKf,DU_0735-R,4,10.1047,49.1613
sim-DxxwQmdDKf,DU_0735-R,5,8.51425,47.4181
sim-DxxwQmdDKf,DU_0735-R,6,7.17106,46.4774
sim-DxxwQmdDKf,DU_0735-R,7,6.03832,45.4147
sim-DxxwQmdDKf,DU_0735-R,8,5.08145,44.4863
sim-DxxwQmdDKf,DU_0735-R,9,4.27468,43.8043
sim-DxxwQmdDKf,DU_0735-R,10,3.5928,42.7669
sim-DxxwQmdDKf,DU_0735-R,11,3.01859,41.1427
sim-DxxwQmdDKf,DU_0735-R,12,2.53368,40.5757
sim-DxxwQmdDKf,DU_0735-R,13,2.12576,41.043
sim-DxxwQmdDKf,DU_0735-R,14,1.7818,39.5338
sim-DxxwQmdDKf,DU_0735-R,15,1.49301,40.371
sim-DxxwQmdDKf,DU_0735-R,16,1.25015,38.1758
sim-DxxwQmdDKf,DU_0735-R,17,1.04656,38.9661
sim-DxxwQmdDKf,DU_0735-R,18,0.875683,37.4687
sim-DxxwQmdDKf,DU_0735-R,18.4286,0.811276,36.9971
sim-Z2tQMWeD7c,DU_0775-L,0,20.3934,80.8678
sim-Z2tQMWeD7c,DU_0775-L,1,18.6004,80.9478
sim-Z2tQMWeD7c,DU_0775-L,2,15.3149,81.1285
sim-Z2tQMWeD7c,DU_0775-L,3,12.6434,80.5408
sim-Z2tQMWeD7c,DU_0775-L,4,10.4233,80.1244
sim-Z2tQMWeD7c,DU_0775-L,5,8.62282,79.7161
sim-Z2tQMWeD7c,DU_0775-L,6,7.12675,79.3708
sim-Z2tQMWeD7c,DU_0775-L,7,5.91106,78.8156
sim-Z2tQMWeD7c,DU_0775-L,8,4.8988,77.9879
sim-Z2tQMWeD7c,DU_0775-L,9,4.07923,77.8484
sim-Z2tQMWeD7c,DU_0775-L,10,3.39605,76.8006
sim-Z2tQMWeD7c,DU_0775-L,11,2.84543,63.5454
sim-Z2tQMWeD7c,DU_0775-L,12,2.3842,62.7945
sim-Z2tQMWeD7c,DU_0775-L,13,2.01326,62.4872
sim-Z2tQMWeD7c,DU_0775-L,14,1.70036,62.5566
sim-Z2tQMWeD7c,DU_0775-L,15,1.44773,61.1651
sim-Z2tQMWeD7c,DU_0775-L,16,1.23307,61.178
sim-Z2tQMWeD7c,DU_0775-L,17,1.05869,60.5808
sim-Z2tQMWeD7c,DU_0775-L,18,0.909901,60.5125
sim-Z2tQMWeD7c,DU_0775-L,18.4286,0.8555,53.9392
sim-ZDFdQbCGvT,ISPY2_0026-L,0,20.2812,78.778
sim-ZDFdQbCGvT,ISPY2_0026-L,1,18.829,78.8119
sim-ZDFdQbCGvT,ISPY2_0026-L,2,16.2072,78.6071
sim-ZDFdQbCGvT,ISPY2_0026-L,3,14.0853,78.0993
sim-ZDFdQbCGvT,ISPY2_0026-L,4,12.2829,77.7979
sim-ZDFdQbCGvT,ISPY2_0026-L,5,10.8053,76.6152
sim-ZDFdQbCGvT,ISPY2_0026-L,6,9.52583,76.4113
sim-ZDFdQbCGvT,ISPY2_0026-L,7,8.45864,75.6304
sim-ZDFdQbCGvT,ISPY2_0026-L,8,7.51818,75.1956
sim-ZDFdQbCGvT,ISPY2_0026-L,9,6.72426,62.2592
sim-ZDFdQbCGvT,ISPY2_0026-L,10,6.01476,62.0188
sim-ZDFdQbCGvT,ISPY2_0026-L,11,5.40651,60.4776
sim-ZDFdQbCGvT,ISPY2_0026-L,12,4.8576,61.2563
sim-ZDFdQbCGvT,ISPY2_0026-L,13,4.37999,59.1089
sim-ZDFdQbCGvT,ISPY2_0026-L,14,3.94807,58.7098
sim-ZDFdQbCGvT,ISPY2_0026-L,15,3.56964,57.8966
sim-ZDFdQbCGvT,ISPY2_0026-L,16,3.22485,57.4364
sim-ZDFdQbCGvT,ISPY2_0026-L,17,2.9232,54.1693
sim-ZDFdQbCGvT,ISPY2_0026-L,18,2.64787,53.4356
sim-ZDFdQbCGvT,ISPY2_0026-L,18.4286,2.54013,42.1687
sim-cvKQPxfrLH,ISPY2_0026-R,0,17.9236,59.8493
sim-cvKQPxfrLH,ISPY2_0026-R,1,15.7049,59.8365
sim-cvKQPxfrLH,ISPY2_0026-R,2,11.833,58.6208
sim-cvKQPxfrLH,ISPY2_0026-R,3,8.92107,57.2115
sim-cvKQPxfrLH,ISPY2_0026-R,4,6.71855,55.5417
sim-cvKQPxfrLH,ISPY2_0026-R,5,5.04645,53.9241
sim-cvKQPxfrLH,ISPY2_0026-R,6,3.77902,52.8885
sim-cvKQPxfrLH,ISPY2_0026-R,7,2.81644,51.4606
sim-cvKQPxfrLH,ISPY2_0026-R,8,2.08971,50.2359
sim-cvKQPxfrLH,ISPY2_0026-R,9,1.54284,49.5799
sim-cvKQPxfrLH,ISPY2_0026-R,10,1.13295,48.7934
sim-cvKQPxfrLH,ISPY2_0026-R,11,0.827427,46.6452
sim-cvKQPxfrLH,ISPY2_0026-R,12,0.601477,46.4292
sim-cvKQPxfrLH,ISPY2_0026-R,13,0.43659,45.5081
sim-cvKQPxfrLH,ISPY2_0026-R,14,0.316865,45.0535
sim-cvKQPxfrLH,ISPY2_0026-R,15,0.229951,25.0305
sim-cvKQPxfrLH,ISPY2_0026-R,16,0.16688,24.6022
sim-cvKQPxfrLH,ISPY2_0026-R,17,0.121096,23.0498
sim-cvKQPxfrLH,ISPY2_0026-R,18,0.0878764,23.0916
sim-cvKQPxfrLH,ISPY2_0026-R,18.4286,0.0765905,21.9691
sim-JGUtDgP8Qr,ISPY2_0055-L,0,57.9178,99.8157
sim-JGUtDgP8Qr,ISPY2_0055-L,1,53.3776,99.8251
sim-JGUtDgP8Qr,ISPY2_0055-L,2,45.1243,99.8435
sim-JGUtDgP8Qr,ISPY2_0055-L,3,38.4019,98.9522
sim-JGUtDgP8Qr,ISPY2_0055-L,4,32.7698,98.1877
sim-JGUtDgP8Qr,ISPY2_0055-L,5,28.1004,97.8623
sim-JGUtDgP8Qr,ISPY2_0055-L,6,24.1489,97.4802
sim-JGUtDgP8Qr,ISPY2_0055-L,7,20.8333,97.4496
sim-JGUtDgP8Qr,ISPY2_0055-L,8,18.0015,97.2439
sim-JGUtDgP8Qr,ISPY2_0055-L,9,15.6107,97.4459
sim-JGUtDgP8Qr,ISPY2_0055-L,10,13.5546,98.0428
sim-JGUtDgP8Qr,ISPY2_0055-L,11,11.8163,91.8845
sim-JGUtDgP8Qr,ISPY2_0055-L,12,10.3072,89.6892
sim-JGUtDgP8Qr,ISPY2_0055-L,13,9.02964,88.1221
sim-JGUtDgP8Qr,ISPY2_0055-L,14,7.91174,87.4623
sim-JGUtDgP8Qr,ISPY2_0055-L,15,6.96389,81.0359
sim-JGUtDgP8Qr,ISPY2_0055-L,16,6.12614,80.9325
sim-JGUtDgP8Qr,ISPY2_0055-L,17,5.4166,66.7697
sim-JGUtDgP8Qr,ISPY2_0055-L,18,4.78322,67.2423
sim-JGUtDgP8Qr,ISPY2_0055-L,18.4286,4.54553,63.5835
sim-8Td7c1HnX7,ISPY2_0055-R,0,3.54025,57.6403
sim-8Td7c1HnX7,ISPY2_0055-R,1,3.14449,57.6413
sim-8Td7c1HnX7,ISPY2_0055-R,2,2.41992,57.6401
sim-8Td7c1HnX7,ISPY2_0055-R,3,1.84639,56.5214
sim-8Td7c1HnX7,ISPY2_0055-R,4,1.39194,55.6588
sim-8Td7c1HnX7,ISPY2_0055-R,5,1.04554,55.1162
sim-8Td7c1HnX7,ISPY2_0055-R,6,0.778126,54.2642
sim-8Td7c1HnX7,ISPY2_0055-R,7,0.577696,53.7238
sim-8Td7c1HnX7,ISPY2_0055-R,8,0.425676,53.2833
sim-8Td7c1HnX7,ISPY2_0055-R,9,0.312784,52.7963
sim-8Td7c1HnX7,ISPY2_0055-R,10,0.228879,52.6028
sim-8Td7c1HnX7,ISPY2_0055-R,11,0.167379,51.7239
sim-8Td7c1HnX7,ISPY2_0055-R,12,0.122637,51.6898
sim-8Td7c1HnX7,ISPY2_0055-R,13,0.0898975,51.2581
sim-8Td7c1HnX7,ISPY2_0055-R,14,0.0660839,51.2643
sim-8Td7c1HnX7,ISPY2_0055-R,15,0.0485975,49.3835
sim-8Td7c1HnX7,ISPY2_0055-R,16,0.0358395,48.4234
sim-8Td7c1HnX7,ISPY2_0055-R,17,0.0264308,48.6212
sim-8Td7c1HnX7,ISPY2_0055-R,18,0.0195411,48.6271
sim-8Td7c1HnX7,ISPY2_0055-R,18.4286,0.0171644,44.76
sim-QHcepMWz74,ISPY2_0087-R,0,5.097,27.6443
sim-QHcepMWz74,ISPY2_0087-R,1,4.83728,27.6165
sim-QHcepMWz74,ISPY2_0087-R,2,4.35693,27.5735
sim-QHcepMWz74,ISPY2_0087-R,3,3.92842,26.9309
sim-QHcepMWz74,ISPY2_0087-R,4,3.53322,26.5329
sim-QHcepMWz74,ISPY2_0087-R,5,3.18453,25.583
sim-QHcepMWz74,ISPY2_0087-R,6,2.86275,25.0383
sim-QHcepMWz74,ISPY2_0087-R,7,2.57976,24.1318
sim-QHcepMWz74,ISPY2_0087-R,8,2.31776,23.6198
sim-QHcepMWz74,ISPY2_0087-R,9,2.08685,23.2567
sim-QHcepMWz74,ISPY2_0087-R,10,1.87293,22.6465
sim-QHcepMWz74,ISPY2_0087-R,11,1.68453,21.7455
sim-QHcepMWz74,ISPY2_0087-R,12,1.50965,20.7679
sim-QHcepMWz74,ISPY2_0087-R,13,1.35555,20.1342
sim-QHcepMWz74,ISPY2_0087-R,14,1.21247,19.8723
sim-QHcepMWz74,ISPY2_0087-R,15,1.08634,19.156
sim-QHcepMWz74,ISPY2_0087-R,16,0.969433,18.7902
sim-QHcepMWz74,ISPY2_0087-R,17,0.866456,18.3141
sim-QHcepMWz74,ISPY2_0087-R,18,0.771063,17.5436
sim-QHcepMWz74,ISPY2_0087-R,18.4286,0.734346,16.1043
sim-hQ9kv9FSSQ,ISPY2_0115-L,0,2.58338,22.1849
sim-hQ9kv9FSSQ,ISPY2_0115-L,1,2.30188,22.1829
sim-hQ9kv9FSSQ,ISPY2_0115-L,2,1.80033,21.5328
sim-hQ9kv9FSSQ,ISPY2_0115-L,3,1.41846,19.9574
sim-hQ9kv9FSSQ,ISPY2_0115-L,4,1.12231,19.0336
sim-hQ9kv9FSSQ,ISPY2_0115-L,5,0.89381,17.7425
sim-hQ9kv9FSSQ,ISPY2_0115-L,6,0.713889,17.1758
sim-hQ9kv9FSSQ,ISPY2_0115-L,7,0.573647,15.2085
sim-hQ9kv9FSSQ,ISPY2_0115-L,8,0.461213,14.7811
sim-hQ9kv9FSSQ,ISPY2_0115-L,9,0.372882,13.4238
sim-hQ9kv9FSSQ,ISPY2_0115-L,10,0.300858,10.9487
sim-hQ9kv9FSSQ,ISPY2_0115-L,11,0.243949,10.5905
sim-hQ9kv9FSSQ,ISPY2_0115-L,12,0.196948,9.71237
sim-hQ9kv9FSSQ,ISPY2_0115-L,13,0.159474,10.6494
sim-hQ9kv9FSSQ,ISPY2_0115-L,14,0.128243,10.5221
sim-hQ9kv9FSSQ,ISPY2_0115-L,15,0.103262,9.42024
sim-hQ9kv9FSSQ,ISPY2_0115-L,16,0.082409,9.2293
sim-hQ9kv9FSSQ,ISPY2_0115-L,17,0.0656738,8.8347
sim-hQ9kv9FSSQ,ISPY2_0115-L,18,0.0517739,8.85277
sim-hQ9kv9FSSQ,ISPY2_0115-L,18.4286,0.046639,7.18058
sim-JYfTW1GTxQ,ISPY2_0136-R,0,4.509,29.1307
sim-JYfTW1GTxQ,ISPY2_0136-R,1,4.26808,29.1433
sim-JYfTW1GTxQ,ISPY2_0136-R,2,3.82753,29.1746
sim-JYfTW1GTxQ,ISPY2_0136-R,3,3.43804,28.7642
sim-JYfTW1GTxQ,ISPY2_0136-R,4,3.08361,28.5077
sim-JYfTW1GTxQ,ISPY2_0136-R,5,2.77184,27.7727
sim-JYfTW1GTxQ,ISPY2_0136-R,6,2.48744,27.7643
sim-JYfTW1GTxQ,ISPY2_0136-R,7,2.23716,26.701
sim-JYfTW1GTxQ,ISPY2_0136-R,8,2.00804,26.4378
sim-JYfTW1GTxQ,ISPY2_0136-R,9,1.80623,25.6578
sim-JYfTW1GTxQ,ISPY2_0136-R,10,1.62118,25.6661
sim-JYfTW1GTxQ,ISPY2_0136-R,11,1.45787,24.7907
sim-JYfTW1GTxQ,ISPY2_0136-R,12,1.30757,24.8074
sim-JYfTW1GTxQ,ISPY2_0136-R,13,1.17471,24.4197
sim-JYfTW1GTxQ,ISPY2_0136-R,14,1.05265,24.4391
sim-JYfTW1GTxQ,ISPY2_0136-R,15,0.944739,23.2314
sim-JYfTW1GTxQ,ISPY2_0136-R,16,0.845297,23.2465
sim-JYfTW1GTxQ,ISPY2_0136-R,17,0.757612,22.7632
sim-JYfTW1GTxQ,ISPY2_0136-R,18,0.676988,22.7758
sim-JYfTW1GTxQ,ISPY2_0136-R,18.4286,0.645746,22.0783
sim-sn2AyXG7Z1,ISPY2_0175-R,0,18.1757,38.4495
sim-sn2AyXG7Z1,ISPY2_0175-R,1,17.1665,38.4503
sim-sn2AyXG7Z1,ISPY2_0175-R,2,15.3244,38.0718
sim-sn2AyXG7Z1,ISPY2_0175-R,3,13.7028,37.2785
sim-sn2AyXG7Z1,ISPY2_0175-R,4,12.2565,36.6534
sim-sn2AyXG7Z1,ISPY2_0175-R,5,10.9743,35.6854
sim-sn2AyXG7Z1,ISPY2_0175-R,6,9.82852,35.065
sim-sn2AyXG7Z1,ISPY2_0175-R,7,8.80811,34.0871
sim-sn2AyXG7Z1,ISPY2_0175-R,8,7.89381,33.0732
sim-sn2AyXG7Z1,ISPY2_0175-R,9,7.07681,32.4132
sim-sn2AyXG7Z1,ISPY2_0175-R,10,6.34303,31.8315
sim-sn2AyXG7Z1,ISPY2_0175-R,11,5.6865,31.2533
sim-sn2AyXG7Z1,ISPY2_0175-R,12,5.09466,30.9436
sim-sn2AyXG7Z1,ISPY2_0175-R,13,4.56562,29.244
sim-sn2AyXG7Z1,ISPY2_0175-R,14,4.08639,29.8186
sim-sn2AyXG7Z1,ISPY2_0175-R,15,3.65909,28.3448
sim-sn2AyXG7Z1,ISPY2_0175-R,16,3.26997,32.0544
sim-sn2AyXG7Z1,ISPY2_0175-R,17,2.92394,31.4997
sim-sn2AyXG7Z1,ISPY2_0175-R,18,2.60744,30.6319
sim-sn2AyXG7Z1,ISPY2_0175-R,18.4286,2.48516,28.3862
sim-mMrW36YgRr,ISPY2_0176-L,0,11.3689,61.558
sim-mMrW36YgRr,ISPY2_0176-L,1,10.9444,61.5514
sim-mMrW36YgRr,ISPY2_0176-L,2,10.1734,61.529
sim-mMrW36YgRr,ISPY2_0176-L,3,9.4483,61.4943
sim-mMrW36YgRr,ISPY2_0176-L,4,8.7645,61.4565
sim-mMrW36YgRr,ISPY2_0176-L,5,8.13379,60.8499
sim-mMrW36YgRr,ISPY2_0176-L,6,7.53841,60.7942
sim-mMrW36YgRr,ISPY2_0176-L,7,6.99106,60.3004
sim-mMrW36YgRr,ISPY2_0176-L,8,6.47412,60.251
sim-mMrW36YgRr,ISPY2_0176-L,9,6.00118,60.082
sim-mMrW36YgRr,ISPY2_0176-L,10,5.55424,60.0121
sim-mMrW36YgRr,ISPY2_0176-L,11,5.14508,59.0867
sim-mMrW36YgRr,ISPY2_0176-L,12,4.75834,59.0262
sim-mMrW36YgRr,ISPY2_0176-L,13,4.40546,57.8296
sim-mMrW36YgRr,ISPY2_0176-L,14,4.07204,57.7454
sim-mMrW36YgRr,ISPY2_0176-L,15,3.76729,57.8345
sim-mMrW36YgRr,ISPY2_0176-L,16,3.47948,57.7721
sim-mMrW36YgRr,ISPY2_0176-L,17,3.21723,57.6966
sim-mMrW36YgRr,ISPY2_0176-L,18,2.9697,57.6502
sim-mMrW36YgRr,ISPY2_0176-L,18.4286,2.87138,56.3065
sim-XvkNhMc9cp,ISPY2_0176-R,0,8.74562,87.5927
sim-XvkNhMc9cp,ISPY2_0176-R,1,8.18099,87.5937
sim-XvkNhMc9cp,ISPY2_0176-R,2,7.1451,87.5969
sim-XvkNhMc9cp,ISPY2_0176-R,3,6.24134,87.1763
sim-XvkNhMc9cp,ISPY2_0176-R,4,5.44096,86.493
sim-XvkNhMc9cp,ISPY2_0176-R,5,4.74757,85.648
sim-XvkNhMc9cp,ISPY2_0176-R,6,4.13492,85.6524
sim-XvkNhMc9cp,ISPY2_0176-R,7,3.60488,84.807
sim-XvkNhMc9cp,ISPY2_0176-R,8,3.13645,84.387
sim-XvkNhMc9cp,ISPY2_0176-R,9,2.73195,83.5399
sim-XvkNhMc9cp,ISPY2_0176-R,10,2.37441,83.5424
sim-XvkNhMc9cp,ISPY2_0176-R,11,2.06629,83.1116
sim-XvkNhMc9cp,ISPY2_0176-R,12,1.79429,82.688
sim-XvkNhMc9cp,ISPY2_0176-R,13,1.56028,81.8753
sim-XvkNhMc9cp,ISPY2_0176-R,14,1.35399,81.8799
sim-XvkNhMc9cp,ISPY2_0176-R,15,1.17656,81.0304
sim-XvkNhMc9cp,ISPY2_0176-R,16,1.02033,79.5889
sim-XvkNhMc9cp,ISPY2_0176-R,17,0.886253,80.6052
sim-XvkNhMc9cp,ISPY2_0176-R,18,0.768638,80.6062
sim-XvkNhMc9cp,ISPY2_0176-R,18.4286,0.723764,78.2485
sim-WLQFdxnTZA,NCH_0001-R,0,6.23762,66.885
sim-WLQFdxnTZA,NCH_0001-R,1,5.59649,66.904
sim-WLQFdxnTZA,NCH_0001-R,2,4.39174,66.1719
sim-WLQFdxnTZA,NCH_0001-R,3,3.45036,64.7527
sim-WLQFdxnTZA,NCH_0001-R,4,2.71012,63.9856
sim-WLQFdxnTZA,NCH_0001-R,5,2.13061,62.5658
sim-WLQFdxnTZA,NCH_0001-R,6,1.67347,62.1813
sim-WLQFdxnTZA,NCH_0001-R,7,1.31522,60.7962
sim-WLQFdxnTZA,NCH_0001-R,8,1.03158,60.2172
sim-WLQFdxnTZA,NCH_0001-R,9,0.810119,59.6632
sim-WLQFdxnTZA,NCH_0001-R,10,0.633927,58.7513
sim-WLQFdxnTZA,NCH_0001-R,11,0.496669,58.4781
sim-WLQFdxnTZA,NCH_0001-R,12,0.387458,57.9542
sim-WLQFdxnTZA,NCH_0001-R,13,0.302758,57.1099
sim-WLQFdxnTZA,NCH_0001-R,14,0.235491,57.0355
sim-WLQFdxnTZA,NCH_0001-R,15,0.183454,56.1639
sim-WLQFdxnTZA,NCH_0001-R,16,0.142215,56.1713
sim-WLQFdxnTZA,NCH_0001-R,17,0.110247,55.6437
sim-WLQFdxnTZA,NCH_0001-R,18,0.0850294,55.6464
sim-WLQFdxnTZA,NCH_0001-R,18.4286,0.076097,55.4972
sim-k4KAThxV2Z,NCH_0013-R,0,4.1375,35.1425
sim-k4KAThxV2Z,NCH_0013-R,1,3.88012,35.1405
sim-k4KAThxV2Z,NCH_0013-R,2,3.41694,35.1327
sim-k4KAThxV2Z,NCH_0013-R,3,3.01186,34.3675
sim-k4KAThxV2Z,NCH_0013-R,4,2.64866,34.279
sim-k4KAThxV2Z,NCH_0013-R,5,2.33331,32.8818
sim-k4KAThxV2Z,NCH_0013-R,6,2.0506,32.8107
sim-k4KAThxV2Z,NCH_0013-R,7,1.8053,31.6888
sim-k4KAThxV2Z,NCH_0013-R,8,1.58495,31.3282
sim-k4KAThxV2Z,NCH_0013-R,9,1.39397,30.8868
sim-k4KAThxV2Z,NCH_0013-R,10,1.22238,30.4529
sim-k4KAThxV2Z,NCH_0013-R,11,1.07384,29.8647
sim-k4KAThxV2Z,NCH_0013-R,12,0.940387,29.6722
sim-k4KAThxV2Z,NCH_0013-R,13,0.824889,28.8417
sim-k4KAThxV2Z,NCH_0013-R,14,0.721367,28.7899
sim-k4KAThxV2Z,NCH_0013-R,15,0.631669,26.04
sim-k4KAThxV2Z,NCH_0013-R,16,0.551353,25.9547
sim-k4KAThxV2Z,NCH_0013-R,17,0.481961,25.6493
sim-k4KAThxV2Z,NCH_0013-R,18,0.41997,24.9367
sim-k4KAThxV2Z,NCH_0013-R,18.4286,0.396368,22.9397
sim-fEYtM6RwQF,NCH_0015-R,0,4.60238,23.8083
sim-fEYtM6RwQF,NCH_0015-R,1,4.09881,23.7687
sim-fEYtM6RwQF,NCH_0015-R,2,3.16395,22.5704
sim-fEYtM6RwQF,NCH_0015-R,3,2.44011,21.0043
sim-fEYtM6RwQF,NCH_0015-R,4,1.88014,19.7183
sim-fEYtM6RwQF,NCH_0015-R,5,1.44806,18.4281
sim-fEYtM6RwQF,NCH_0015-R,6,1.11423,17.6103
sim-fEYtM6RwQF,NCH_0015-R,7,0.856921,16.1797
sim-fEYtM6RwQF,NCH_0015-R,8,0.658318,16.134
sim-fEYtM6RwQF,NCH_0015-R,9,0.505501,15.2378
sim-fEYtM6RwQF,NCH_0015-R,10,0.387943,14.5876
sim-fEYtM6RwQF,NCH_0015-R,11,0.297686,14.4553
sim-fEYtM6RwQF,NCH_0015-R,12,0.228437,13.9649
sim-fEYtM6RwQF,NCH_0015-R,13,0.175313,13.5453
sim-fEYtM6RwQF,NCH_0015-R,14,0.134559,13.1212
sim-fEYtM6RwQF,NCH_0015-R,15,0.103291,11.7148
sim-fEYtM6RwQF,NCH_0015-R,16,0.0793012,11.7235
sim-fEYtM6RwQF,NCH_0015-R,17,0.0608951,11.4448
sim-fEYtM6RwQF,NCH_0015-R,18,0.0467732,11.1391
sim-fEYtM6RwQF,NCH_0015-R,18.4286,0.0417757,10.4229
sim-gwCZyL9vx7,NCH_0021-R,0,12.9597,44.6862
sim-gwCZyL9vx7,NCH_0021-R,1,11.6062,44.6817
sim-gwCZyL9vx7,NCH_0021-R,2,9.08215,43.7477
sim-gwCZyL9vx7,NCH_0021-R,3,7.12071,42.0911
sim-gwCZyL9vx7,NCH_0021-R,4,5.58982,40.7636
sim-gwCZyL9vx7,NCH_0021-R,5,4.39692,39.3612
sim-gwCZyL9vx7,NCH_0021-R,6,3.46242,38.1816
sim-gwCZyL9vx7,NCH_0021-R,7,2.73135,36.8223
sim-gwCZyL9vx7,NCH_0021-R,8,2.15548,36.227
sim-gwCZyL9vx7,NCH_0021-R,9,1.70295,35.8443
sim-gwCZyL9vx7,NCH_0021-R,10,1.34511,35.4025
sim-gwCZyL9vx7,NCH_0021-R,11,1.06246,32.939
sim-gwCZyL9vx7,NCH_0021-R,12,0.838236,33.0214
sim-gwCZyL9vx7,NCH_0021-R,13,0.660365,31.2866
sim-gwCZyL9vx7,NCH_0021-R,14,0.518927,31.8779
sim-gwCZyL9vx7,NCH_0021-R,15,0.406612,30.1183
sim-gwCZyL9vx7,NCH_0021-R,16,0.317349,30.0796
sim-gwCZyL9vx7,NCH_0021-R,17,0.246973,26.4353
sim-gwCZyL9vx7,NCH_0021-R,18,0.19172,26.4568
sim-gwCZyL9vx7,NCH_0021-R,18.4286,0.172078,24.1352
sim-CwE32HatU2,NCH_0027-L,0,23.8031,58.2948
sim-CwE32HatU2,NCH_0027-L,1,22.7773,58.2961
sim-CwE32HatU2,NCH_0027-L,2,20.6995,57.8403
sim-CwE32HatU2,NCH_0027-L,3,18.8038,56.9242
sim-CwE32HatU2,NCH_0027-L,4,17.0674,56.2869
sim-CwE32HatU2,NCH_0027-L,5,15.4935,55.1899
sim-CwE32HatU2,NCH_0027-L,6,14.0566,54.132
sim-CwE32HatU2,NCH_0027-L,7,12.7557,53.2527
sim-CwE32HatU2,NCH_0027-L,8,11.5681,52.7126
sim-CwE32HatU2,NCH_0027-L,9,10.4933,51.6145
sim-CwE32HatU2,NCH_0027-L,10,9.51228,51.0171
sim-CwE32HatU2,NCH_0027-L,11,8.62568,50.432
sim-CwE32HatU2,NCH_0027-L,12,7.81594,49.7719
sim-CwE32HatU2,NCH_0027-L,13,7.08516,48.7349
sim-CwE32HatU2,NCH_0027-L,14,6.41701,48.5312
sim-CwE32HatU2,NCH_0027-L,15,5.81513,47.9405
sim-CwE32HatU2,NCH_0027-L,16,5.26469,47.1179
sim-CwE32HatU2,NCH_0027-L,17,4.76939,45.9534
sim-CwE32HatU2,NCH_0027-L,18,4.31556,45.0117
sim-CwE32HatU2,NCH_0027-L,18.4286,4.13753,44.1169
sim-MtEc8w3veE,NCH_0028-L,0,14.7709,32.9801
sim-MtEc8w3veE,NCH_0028-L,1,13.7906,32.9806
sim-MtEc8w3veE,NCH_0028-L,2,11.8916,32.3016
sim-MtEc8w3veE,NCH_0028-L,3,10.3671,31.1873
sim-MtEc8w3veE,NCH_0028-L,4,9.11031,30.1891
sim-MtEc8w3veE,NCH_0028-L,5,8.07827,32.6866
sim-MtEc8w3veE,NCH_0028-L,6,7.21157,32.0723
sim-MtEc8w3veE,NCH_0028-L,7,6.48981,30.9242
sim-MtEc8w3veE,NCH_0028-L,8,5.86697,30.1476
sim-MtEc8w3veE,NCH_0028-L,9,5.34054,29.4531
sim-MtEc8w3veE,NCH_0028-L,10,4.87435,29.0336
sim-MtEc8w3veE,NCH_0028-L,11,4.47487,28.1145
sim-MtEc8w3veE,NCH_0028-L,12,4.11331,27.5573
sim-MtEc8w3veE,NCH_0028-L,13,3.79848,26.7215
sim-MtEc8w3veE,NCH_0028-L,14,3.50804,26.2809
sim-MtEc8w3veE,NCH_0028-L,15,3.252,25.8466
sim-MtEc8w3veE,NCH_0028-L,16,3.01204,25.4032
sim-MtEc8w3veE,NCH_0028-L,17,2.79839,24.6799
sim-MtEc8w3veE,NCH_0028-L,18,2.59573,24.6221
sim-MtEc8w3veE,NCH_0028-L,18.4286,2.51677,23.7391
sim-7A2gLUk3ax,NCH_0031-L,0,5.3785,49.4881
sim-7A2gLUk3ax,NCH_0031-L,1,5.18004,49.4826
sim-7A2gLUk3ax,NCH_0031-L,2,4.72204,49.4673
sim-7A2gLUk3ax,NCH_0031-L,3,4.28884,49.1752
sim-7A2gLUk3ax,NCH_0031-L,4,3.89008,49.0398
sim-7A2gLUk3ax,NCH_0031-L,5,3.53258,48.1453
sim-7A2gLUk3ax,NCH_0031-L,6,3.20405,48.0881
sim-7A2gLUk3ax,NCH_0031-L,7,2.90859,47.5328
sim-7A2gLUk3ax,NCH_0031-L,8,2.63715,47.5127
sim-7A2gLUk3ax,NCH_0031-L,9,2.39443,46.7641
sim-7A2gLUk3ax,NCH_0031-L,10,2.17109,46.5244
sim-7A2gLUk3ax,NCH_0031-L,11,1.97083,46.2681
sim-7A2gLUk3ax,NCH_0031-L,12,1.78664,46.1226
sim-7A2gLUk3ax,NCH_0031-L,13,1.6219,45.5048
sim-7A2gLUk3ax,NCH_0031-L,14,1.47059,45.5072
sim-7A2gLUk3ax,NCH_0031-L,15,1.33475,44.7889
sim-7A2gLUk3ax,NCH_0031-L,16,1.20981,44.7899
sim-7A2gLUk3ax,NCH_0031-L,17,1.09837,44.7472
sim-7A2gLUk3ax,NCH_0031-L,18,0.996095,44.7476
sim-7A2gLUk3ax,NCH_0031-L,18.4286,0.955762,44.3997
sim-NyXMc5brWU,NCH_0034-L,0,2.88962,30.2599
sim-NyXMc5brWU,NCH_0034-L,1,2.61247,30.2659
sim-NyXMc5brWU,NCH_0034-L,2,2.13222,30.2842
sim-NyXMc5brWU,NCH_0034-L,3,1.73967,29.371
sim-NyXMc5brWU,NCH_0034-L,4,1.41917,28.4534
sim-NyXMc5brWU,NCH_0034-L,5,1.15771,28.2039
sim-NyXMc5brWU,NCH_0034-L,6,0.944409,27.2844
sim-NyXMc5brWU,NCH_0034-L,7,0.770456,26.5775
sim-NyXMc5brWU,NCH_0034-L,8,0.628577,25.6601
sim-NyXMc5brWU,NCH_0034-L,9,0.512883,25.0652
sim-NyXMc5brWU,NCH_0034-L,10,0.41852,25.073
sim-NyXMc5brWU,NCH_0034-L,11,0.341566,23.887
sim-NyXMc5brWU,NCH_0034-L,12,0.278793,23.9068
sim-NyXMc5brWU,NCH_0034-L,13,0.227594,23.9001
sim-NyXMc5brWU,NCH_0034-L,14,0.185817,23.9159
sim-NyXMc5brWU,NCH_0034-L,15,0.151735,22.244
sim-NyXMc5brWU,NCH_0034-L,16,0.123916,22.2491
sim-NyXMc5brWU,NCH_0034-L,17,0.101214,20.3084
sim-NyXMc5brWU,NCH_0034-L,18,0.0826778,21.0571
sim-NyXMc5brWU,NCH_0034-L,18.4286,0.0758171,19.9834
sim-mhwr6G9N7V,NCH_0037-L,0,6.04238,42.8047
sim-mhwr6G9N7V,NCH_0037-L,1,5.42112,42.8058
sim-mhwr6G9N7V,NCH_0037-L,2,4.24747,42.5083
sim-mhwr6G9N7V,NCH_0037-L,3,3.32674,41.6446
sim-mhwr6G9N7V,NCH_0037-L,4,2.60186,40.7601
sim-mhwr6G9N7V,NCH_0037-L,5,2.03088,40.2037
sim-mhwr6G9N7V,NCH_0037-L,6,1.58172,39.029
sim-mhwr6G9N7V,NCH_0037-L,7,1.22853,39.0247
sim-mhwr6G9N7V,NCH_0037-L,8,0.95154,37.3042
sim-mhwr6G9N7V,NCH_0037-L,9,0.73502,36.7901
sim-mhwr6G9N7V,NCH_0037-L,10,0.566337,36.4434
sim-mhwr6G9N7V,NCH_0037-L,11,0.435606,34.991
sim-mhwr6G9N7V,NCH_0037-L,12,0.334605,34.992
sim-mhwr6G9N7V,NCH_0037-L,13,0.256843,33.538
sim-mhwr6G9N7V,NCH_0037-L,14,0.197109,34.7276
sim-mhwr6G9N7V,NCH_0037-L,15,0.151268,31.1071
sim-mhwr6G9N7V,NCH_0037-L,16,0.116094,31.1027
sim-mhwr6G9N7V,NCH_0037-L,17,0.0891,30.0834
sim-mhwr6G9N7V,NCH_0037-L,18,0.0683882,30.0819
sim-mhwr6G9N7V,NCH_0037-L,18.4286,0.0610568,29.5212
sim-VBFRDeCkcS,NCH_0057-R,0,13.9895,63.9855
sim-VBFRDeCkcS,NCH_0057-R,1,12.906,63.9745
sim-VBFRDeCkcS,NCH_0057-R,2,10.9247,63.013
sim-VBFRDeCkcS,NCH_0057-R,3,9.2695,62.8655
sim-VBFRDeCkcS,NCH_0057-R,4,7.84693,61.5467
sim-VBFRDeCkcS,NCH_0057-R,5,6.65646,60.4809
sim-VBFRDeCkcS,NCH_0057-R,6,5.6308,59.4865
sim-VBFRDeCkcS,NCH_0057-R,7,4.76814,58.9091
sim-VBFRDeCkcS,NCH_0057-R,8,4.02128,57.9868
sim-VBFRDeCkcS,NCH_0057-R,9,3.39578,57.2703
sim-VBFRDeCkcS,NCH_0057-R,10,2.85264,56.8358
sim-VBFRDeCkcS,NCH_0057-R,11,2.39914,55.3537
sim-VBFRDeCkcS,NCH_0057-R,12,2.00604,55.9223
sim-VBFRDeCkcS,NCH_0057-R,13,1.68121,52.7352
sim-VBFRDeCkcS,NCH_0057-R,14,1.40176,52.313
sim-VBFRDeCkcS,NCH_0057-R,15,1.17305,52.2299
sim-VBFRDeCkcS,NCH_0057-R,16,0.978094,50.4346
sim-VBFRDeCkcS,NCH_0057-R,17,0.819839,50.0381
sim-VBFRDeCkcS,NCH_0057-R,18,0.685473,49.5176
sim-VBFRDeCkcS,NCH_0057-R,18.4286,0.636719,48.9198
sim-5fJHDnyhdm,SPFD_0009-L,0,0.98,40.0964
sim-5fJHDnyhdm,SPFD_0009-L,1,0.862534,40.0948
sim-5fJHDnyhdm,SPFD_0009-L,2,0.656942,39.8056
sim-5fJHDnyhdm,SPFD_0009-L,3,0.500568,39.1835
sim-5fJHDnyhdm,SPFD_0009-L,4,0.379241,38.4181
sim-5fJHDnyhdm,SPFD_0009-L,5,0.28751,37.7676
sim-5fJHDnyhdm,SPFD_0009-L,6,0.216762,36.936
sim-5fJHDnyhdm,SPFD_0009-L,7,0.163906,36.5357
sim-5fJHDnyhdm,SPFD_0009-L,8,0.123566,35.9535
sim-5fJHDnyhdm,SPFD_0009-L,9,0.0936005,35.704
sim-5fJHDnyhdm,SPFD_0009-L,10,0.070704,35.2911
sim-5fJHDnyhdm,SPFD_0009-L,11,0.0536356,34.1626
sim-5fJHDnyhdm,SPFD_0009-L,12,0.0405724,34.161
sim-5fJHDnyhdm,SPFD_0009-L,13,0.0308045,33.5702
sim-5fJHDnyhdm,SPFD_0009-L,14,0.0232623,33.572
sim-5fJHDnyhdm,SPFD_0009-L,15,0.0175936,33.475
sim-5fJHDnyhdm,SPFD_0009-L,16,0.0131902,33.4726
sim-5fJHDnyhdm,SPFD_0009-L,17,0.00991119,31.7774
sim-5fJHDnyhdm,SPFD_0009-L,18,0.00733089,31.7798
sim-5fJHDnyhdm,SPFD_0009-L,18.4286,0.00640836,29.8112
sim-Y2CmE78rHv,SPFD_0012-L,0,1.449,16.9983
sim-Y2CmE78rHv,SPFD_0012-L,1,1.35121,16.9957
sim-Y2CmE78rHv,SPFD_0012-L,2,1.17367,17.5635
sim-Y2CmE78rHv,SPFD_0012-L,3,1.02062,16.8758
sim-Y2CmE78rHv,SPFD_0012-L,4,0.884791,16.5089
sim-Y2CmE78rHv,SPFD_0012-L,5,0.768888,15.8473
sim-Y2CmE78rHv,SPFD_0012-L,6,0.666194,15.5039
sim-Y2CmE78rHv,SPFD_0012-L,7,0.578896,15.3276
sim-Y2CmE78rHv,SPFD_0012-L,8,0.50107,15.4023
sim-Y2CmE78rHv,SPFD_0012-L,9,0.434788,14.0768
sim-Y2CmE78rHv,SPFD_0012-L,10,0.375728,14.5448
sim-Y2CmE78rHv,SPFD_0012-L,11,0.325307,13.2248
sim-Y2CmE78rHv,SPFD_0012-L,12,0.28022,13.0677
sim-Y2CmE78rHv,SPFD_0012-L,13,0.241737,12.485
sim-Y2CmE78rHv,SPFD_0012-L,14,0.207247,12.5541
sim-Y2CmE78rHv,SPFD_0012-L,15,0.177893,12.0574
sim-Y2CmE78rHv,SPFD_0012-L,16,0.151627,11.5796
sim-Y2CmE78rHv,SPFD_0012-L,17,0.129231,11.029
sim-Y2CmE78rHv,SPFD_0012-L,18,0.10942,11.0098
sim-Y2CmE78rHv,SPFD_0012-L,18.4286,0.101999,10.7265
sim-NBadcZHJUm,SPFD_0015-L,0,39.5384,79.3148
sim-NBadcZHJUm,SPFD_0015-L,1,35.9423,79.3457
sim-NBadcZHJUm,SPFD_0015-L,2,29.6167,78.9689
sim-NBadcZHJUm,SPFD_0015-L,3,24.3878,78.4376
sim-NBadcZHJUm,SPFD_0015-L,4,20.0631,77.4905
sim-NBadcZHJUm,SPFD_0015-L,5,16.4966,76.6542
sim-NBadcZHJUm,SPFD_0015-L,6,13.5543,76.139
sim-NBadcZHJUm,SPFD_0015-L,7,11.1324,75.1287
sim-NBadcZHJUm,SPFD_0015-L,8,9.13742,74.6724
sim-NBadcZHJUm,SPFD_0015-L,9,7.49808,73.6446
sim-NBadcZHJUm,SPFD_0015-L,10,6.14969,73.2083
sim-NBadcZHJUm,SPFD_0015-L,11,5.04287,72.1893
sim-NBadcZHJUm,SPFD_0015-L,12,4.13336,72.0856
sim-NBadcZHJUm,SPFD_0015-L,13,3.38726,71.4697
sim-NBadcZHJUm,SPFD_0015-L,14,2.77463,71.07
sim-NBadcZHJUm,SPFD_0015-L,15,2.2723,69.4711
sim-NBadcZHJUm,SPFD_0015-L,16,1.86017,69.7484
sim-NBadcZHJUm,SPFD_0015-L,17,1.52236,69.2145
sim-NBadcZHJUm,SPFD_0015-L,18,1.24559,69.1948
sim-NBadcZHJUm,SPFD_0015-L,18.4286,1.1429,68.3143
sim-ac9YFWE83w,SPFD_0017-L,0,3.27962,49.6107
sim-ac9YFWE83w,SPFD_0017-L,1,3.02897,49.5968
sim-ac9YFWE83w,SPFD_0017-L,2,2.57785,49.564
sim-ac9YFWE83w,SPFD_0017-L,3,2.1937,48.7025
sim-ac9YFWE83w,SPFD_0017-L,4,1.86149,48.6701
sim-ac9YFWE83w,SPFD_0017-L,5,1.58184,48.0221
sim-ac9YFWE83w,SPFD_0017-L,6,1.3401,47.783
sim-ac9YFWE83w,SPFD_0017-L,7,1.13654,47.1298
sim-ac9YFWE83w,SPFD_0017-L,8,0.96083,46.8284
sim-ac9YFWE83w,SPFD_0017-L,9,0.812724,45.6003
sim-ac9YFWE83w,SPFD_0017-L,10,0.68513,45.2966
sim-ac9YFWE83w,SPFD_0017-L,11,0.5777,44.7104
sim-ac9YFWE83w,SPFD_0017-L,12,0.485488,44.56
sim-ac9YFWE83w,SPFD_0017-L,13,0.407954,44.0646
sim-ac9YFWE83w,SPFD_0017-L,14,0.341807,43.84
sim-ac9YFWE83w,SPFD_0017-L,15,0.286256,43.4467
sim-ac9YFWE83w,SPFD_0017-L,16,0.239072,43.4304
sim-ac9YFWE83w,SPFD_0017-L,17,0.199571,42.6549
sim-ac9YFWE83w,SPFD_0017-L,18,0.16617,42.641
sim-ac9YFWE83w,SPFD_0017-L,18.4286,0.153559,42.6176
sim-KAApG12kF3,SPFD_0022-R,0,4.02325,57.041
sim-KAApG12kF3,SPFD_0022-R,1,3.54909,57.0471
sim-KAApG12kF3,SPFD_0022-R,2,2.72479,56.8928
sim-KAApG12kF3,SPFD_0022-R,3,2.10555,55.8825
sim-KAApG12kF3,SPFD_0022-R,4,1.62906,89.6655
sim-KAApG12kF3,SPFD_0022-R,5,1.26373,54.4545
sim-KAApG12kF3,SPFD_0022-R,6,0.980367,88.4486
sim-KAApG12kF3,SPFD_0022-R,7,0.76087,88.2155
sim-KAApG12kF3,SPFD_0022-R,8,0.588456,87.4336
sim-KAApG12kF3,SPFD_0022-R,9,0.455476,87.1538
sim-KAApG12kF3,SPFD_0022-R,10,0.350038,86.798
sim-KAApG12kF3,SPFD_0022-R,11,0.268782,86.4583
sim-KAApG12kF3,SPFD_0022-R,12,0.204013,86.0181
sim-KAApG12kF3,SPFD_0022-R,13,0.154237,85.5585
sim-KAApG12kF3,SPFD_0022-R,14,0.114895,85.4529
sim-KAApG12kF3,SPFD_0022-R,15,0.084957,85.2859
sim-KAApG12kF3,SPFD_0022-R,16,0.0620522,85.2739
sim-KAApG12kF3,SPFD_0022-R,17,0.0453504,83.5601
sim-KAApG12kF3,SPFD_0022-R,18,0.0331932,82.7092
sim-KAApG12kF3,SPFD_0022-R,18.4286,0.0290981,81.9516
sim-zQMz4K8RpA,SPFD_0031-R,0,2.58112,36.7864
sim-zQMz4K8RpA,SPFD_0031-R,1,2.38013,36.7839
sim-zQMz4K8RpA,SPFD_0031-R,2,2.0213,36.7785
sim-zQMz4K8RpA,SPFD_0031-R,3,1.71773,36.2871
sim-zQMz4K8RpA,SPFD_0031-R,4,1.45967,35.677
sim-zQMz4K8RpA,SPFD_0031-R,5,1.24188,34.8218
sim-zQMz4K8RpA,SPFD_0031-R,6,1.05661,34.5756
sim-zQMz4K8RpA,SPFD_0031-R,7,0.900269,33.7214
sim-zQMz4K8RpA,SPFD_0031-R,8,0.766973,33.1106
sim-zQMz4K8RpA,SPFD_0031-R,9,0.654455,32.6219
sim-zQMz4K8RpA,SPFD_0031-R,10,0.558338,32.1312
sim-zQMz4K8RpA,SPFD_0031-R,11,0.477054,31.8845
sim-zQMz4K8RpA,SPFD_0031-R,12,0.40743,31.3941
sim-zQMz4K8RpA,SPFD_0031-R,13,0.348536,16.9455
sim-zQMz4K8RpA,SPFD_0031-R,14,0.297954,16.6305
sim-zQMz4K8RpA,SPFD_0031-R,15,0.255062,16.0176
sim-zQMz4K8RpA,SPFD_0031-R,16,0.218114,15.6557
sim-zQMz4K8RpA,SPFD_0031-R,17,0.18672,15.131
sim-zQMz4K8RpA,SPFD_0031-R,18,0.159666,15.1303
sim-zQMz4K8RpA,SPFD_0031-R,18.4286,0.14943,14.6148
sim-9aHDVRWYRx,SPFD_0036-R,0,1.54675,22.107
sim-9aHDVRWYRx,SPFD_0036-R,1,1.43916,22.0403
sim-9aHDVRWYRx,SPFD_0036-R,2,1.24598,21.9139
sim-9aHDVRWYRx,SPFD_0036-R,3,1.07899,21.003
sim-9aHDVRWYRx,SPFD_0036-R,4,0.931612,20.2675
sim-9aHDVRWYRx,SPFD_0036-R,5,0.805517,19.7378
sim-9aHDVRWYRx,SPFD_0036-R,6,0.694319,18.9959
sim-9aHDVRWYRx,SPFD_0036-R,7,0.599136,18.3777
sim-9aHDVRWYRx,SPFD_0036-R,8,0.515252,17.6597
sim-9aHDVRWYRx,SPFD_0036-R,9,0.44367,17.3441
sim-9aHDVRWYRx,SPFD_0036-R,10,0.380512,16.8123
sim-9aHDVRWYRx,SPFD_0036-R,11,0.326451,16.1593
sim-9aHDVRWYRx,SPFD_0036-R,12,0.2788,15.7724
sim-9aHDVRWYRx,SPFD_0036-R,13,0.238084,15.3709
sim-9aHDVRWYRx,SPFD_0036-R,14,0.202324,15.0859
sim-9aHDVRWYRx,SPFD_0036-R,15,0.171963,14.7806
sim-9aHDVRWYRx,SPFD_0036-R,16,0.145425,14.7375
sim-9aHDVRWYRx,SPFD_0036-R,17,0.122829,14.3644
sim-9aHDVRWYRx,SPFD_0036-R,18,0.103182,14.3026
sim-9aHDVRWYRx,SPFD_0036-R,18.4286,0.0957469,13.5329
sim-Xg2gZkrZXx,SPFD_0040-L,0,0.73625,49.2099
sim-Xg2gZkrZXx,SPFD_0040-L,1,0.67231,49.149
sim-Xg2gZkrZXx,SPFD_0040-L,2,0.557965,49.0573
sim-Xg2gZkrZXx,SPFD_0040-L,3,0.462345,48.5813
sim-Xg2gZkrZXx,SPFD_0040-L,4,0.38246,48.3808
sim-Xg2gZkrZXx,SPFD_0040-L,5,0.316328,47.309
sim-Xg2gZkrZXx,SPFD_0040-L,6,0.261224,47.3027
sim-Xg2gZkrZXx,SPFD_0040-L,7,0.21552,46.8261
sim-Xg2gZkrZXx,SPFD_0040-L,8,0.177522,46.9232
sim-Xg2gZkrZXx,SPFD_0040-L,9,0.146095,46.1275
sim-Xg2gZkrZXx,SPFD_0040-L,10,0.120052,46.2205
sim-Xg2gZkrZXx,SPFD_0040-L,11,0.0985265,46.001
sim-Xg2gZkrZXx,SPFD_0040-L,12,0.080823,46.048
sim-Xg2gZkrZXx,SPFD_0040-L,13,0.0662969,45.1915
sim-Xg2gZkrZXx,SPFD_0040-L,14,0.0543948,45.2333
sim-Xg2gZkrZXx,SPFD_0040-L,15,0.0446183,45.1755
sim-Xg2gZkrZXx,SPFD_0040-L,16,0.0366095,45.2306
sim-Xg2gZkrZXx,SPFD_0040-L,17,0.0300365,44.771
sim-Xg2gZkrZXx,SPFD_0040-L,18,0.0246499,44.8274
sim-Xg2gZkrZXx,SPFD_0040-L,18.4286,0.0226454,44.7741
sim-n2KM41WvsQ,SPFD_0044-R,0,29.1956,74.065
sim-n2KM41WvsQ,SPFD_0044-R,1,27.0075,74.0266
sim-n2KM41WvsQ,SPFD_0044-R,2,23.1336,72.992
sim-n2KM41WvsQ,SPFD_0044-R,3,19.833,71.8777
sim-n2KM41WvsQ,SPFD_0044-R,4,17.0042,70.8601
sim-n2KM41WvsQ,SPFD_0044-R,5,14.5878,69.2428
sim-n2KM41WvsQ,SPFD_0044-R,6,12.5156,68.2038
sim-n2KM41WvsQ,SPFD_0044-R,7,10.7406,66.6732
sim-n2KM41WvsQ,SPFD_0044-R,8,9.21687,65.5565
sim-n2KM41WvsQ,SPFD_0044-R,9,7.90986,64.0817
sim-n2KM41WvsQ,SPFD_0044-R,10,6.78674,62.9937
sim-n2KM41WvsQ,SPFD_0044-R,11,5.82351,62.1452
sim-n2KM41WvsQ,SPFD_0044-R,12,4.99476,60.9443
sim-n2KM41WvsQ,SPFD_0044-R,13,4.28522,61.2619
sim-n2KM41WvsQ,SPFD_0044-R,14,3.67354,58.8592
sim-n2KM41WvsQ,SPFD_0044-R,15,3.15082,58.9596
sim-n2KM41WvsQ,SPFD_0044-R,16,2.69966,58.329
sim-n2KM41WvsQ,SPFD_0044-R,17,2.31517,54.461
sim-n2KM41WvsQ,SPFD_0044-R,18,1.98288,54.287
sim-n2KM41WvsQ,SPFD_0044-R,18.4286,1.85685,54.0579
sim-g9z36RWhE9,SPFD_0045-L,0,1.29037,22.1951
sim-g9z36RWhE9,SPFD_0045-L,1,1.17795,22.1959
sim-g9z36RWhE9,SPFD_0045-L,2,0.978147,22.2005
sim-g9z36RWhE9,SPFD_0045-L,3,0.810998,21.3443
sim-g9z36RWhE9,SPFD_0045-L,4,0.670348,21.2831
sim-g9z36RWhE9,SPFD_0045-L,5,0.553535,20.3748
sim-g9z36RWhE9,SPFD_0045-L,6,0.45603,20.3838
sim-g9z36RWhE9,SPFD_0045-L,7,0.3754,19.2162
sim-g9z36RWhE9,SPFD_0045-L,8,0.308423,19.2212
sim-g9z36RWhE9,SPFD_0045-L,9,0.253158,18.9139
sim-g9z36RWhE9,SPFD_0045-L,10,0.207433,18.9197
sim-g9z36RWhE9,SPFD_0045-L,11,0.169801,16.2136
sim-g9z36RWhE9,SPFD_0045-L,12,0.138861,16.143
sim-g9z36RWhE9,SPFD_0045-L,13,0.113473,16.1398
sim-g9z36RWhE9,SPFD_0045-L,14,0.0927022,16.1358
sim-g9z36RWhE9,SPFD_0045-L,15,0.0757274,15.8874
sim-g9z36RWhE9,SPFD_0045-L,16,0.0618649,15.8844
sim-g9z36RWhE9,SPFD_0045-L,17,0.0505351,14.2683
sim-g9z36RWhE9,SPFD_0045-L,18,0.0412813,14.2559
sim-g9z36RWhE9,SPFD_0045-L,18.4286,0.0378539,14.0668
sim-EJMcXrSe4p,SPFD_0061-L,0,9.8335,44.9584
sim-EJMcXrSe4p,SPFD_0061-L,1,8.82123,44.9878
sim-EJMcXrSe4p,SPFD_0061-L,2,7.05174,44.477
sim-EJMcXrSe4p,SPFD_0061-L,3,5.67035,43.7098
sim-EJMcXrSe4p,SPFD_0061-L,4,4.57786,43.0399
sim-EJMcXrSe4p,SPFD_0061-L,5,3.70577,41.4351
sim-EJMcXrSe4p,SPFD_0061-L,6,3.00535,41.3024
sim-EJMcXrSe4p,SPFD_0061-L,7,2.43997,40.3589
sim-EJMcXrSe4p,SPFD_0061-L,8,1.97953,39.7026
sim-EJMcXrSe4p,SPFD_0061-L,9,1.60779,33.3825
sim-EJMcXrSe4p,SPFD_0061-L,10,1.30152,33.0413
sim-EJMcXrSe4p,SPFD_0061-L,11,1.05513,29.3129
sim-EJMcXrSe4p,SPFD_0061-L,12,0.850816,29.1689
sim-EJMcXrSe4p,SPFD_0061-L,13,0.686489,23.653
sim-EJMcXrSe4p,SPFD_0061-L,14,0.549807,28.3455
sim-EJMcXrSe4p,SPFD_0061-L,15,0.440761,21.0845
sim-EJMcXrSe4p,SPFD_0061-L,16,0.349694,20.7822
sim-EJMcXrSe4p,SPFD_0061-L,17,0.27769,17.8211
sim-EJMcXrSe4p,SPFD_0061-L,18,0.217958,17.7691
sim-EJMcXrSe4p,SPFD_0061-L,18.4286,0.196685,13.1915
sim-kwZpgZVeSN,SPFD_0080-L,0,1.36438,33.1674
sim-kwZpgZVeSN,SPFD_0080-L,1,1.31938,33.1674
sim-kwZpgZVeSN,SPFD_0080-L,2,1.23025,33.1674
sim-kwZpgZVeSN,SPFD_0080-L,3,1.14847,33.1666
sim-kwZpgZVeSN,SPFD_0080-L,4,1.07301,33.1653
sim-kwZpgZVeSN,SPFD_0080-L,5,1.00539,32.6633
sim-kwZpgZVeSN,SPFD_0080-L,6,0.942704,32.6589
sim-kwZpgZVeSN,SPFD_0080-L,7,0.886053,32.2015
sim-kwZpgZVeSN,SPFD_0080-L,8,0.833374,32.1966
sim-kwZpgZVeSN,SPFD_0080-L,9,0.785798,31.5321
sim-kwZpgZVeSN,SPFD_0080-L,10,0.741335,31.5262
sim-kwZpgZVeSN,SPFD_0080-L,11,0.700803,31.0697
sim-kwZpgZVeSN,SPFD_0080-L,12,0.66285,31.0632
sim-kwZpgZVeSN,SPFD_0080-L,13,0.628166,30.6755
sim-kwZpgZVeSN,SPFD_0080-L,14,0.595609,30.6
sim-kwZpgZVeSN,SPFD_0080-L,15,0.565627,30.352
sim-kwZpgZVeSN,SPFD_0080-L,16,0.537392,30.3436
sim-kwZpgZVeSN,SPFD_0080-L,17,0.511272,29.6798
sim-kwZpgZVeSN,SPFD_0080-L,18,0.48672,29.671
sim-kwZpgZVeSN,SPFD_0080-L,18.4286,0.476784,29.2203
sim-sba7M8P5gG,SPFD_0082-R,0,1.61688,24.7887
sim-sba7M8P5gG,SPFD_0082-R,1,1.46266,24.7888
sim-sba7M8P5gG,SPFD_0082-R,2,1.19445,24.788
sim-sba7M8P5gG,SPFD_0082-R,3,0.974925,39.5162
sim-sba7M8P5gG,SPFD_0082-R,4,0.795536,39.5174
sim-sba7M8P5gG,SPFD_0082-R,5,0.649133,23.2227
sim-sba7M8P5gG,SPFD_0082-R,6,0.529661,38.2394
sim-sba7M8P5gG,SPFD_0082-R,7,0.432199,22.2809
sim-sba7M8P5gG,SPFD_0082-R,8,0.352682,35.8717
sim-sba7M8P5gG,SPFD_0082-R,9,0.287818,35.2937
sim-sba7M8P5gG,SPFD_0082-R,10,0.234894,35.2988
sim-sba7M8P5gG,SPFD_0082-R,11,0.19172,20.1421
sim-sba7M8P5gG,SPFD_0082-R,12,0.15649,20.137
sim-sba7M8P5gG,SPFD_0082-R,13,0.127749,34.3126
sim-sba7M8P5gG,SPFD_0082-R,14,0.104292,34.3178
sim-sba7M8P5gG,SPFD_0082-R,15,0.0851521,34.0888
sim-sba7M8P5gG,SPFD_0082-R,16,0.0695283,18.9922
sim-sba7M8P5gG,SPFD_0082-R,17,0.0567771,32.4171
sim-sba7M8P5gG,SPFD_0082-R,18,0.0463666,32.4131
sim-sba7M8P5gG,SPFD_0082-R,18.4286,0.0425133,31.8895
sim-vrCMYhsBgm,UCHI_1023-R,0,110.92,74.8594
sim-vrCMYhsBgm,UCHI_1023-R,1,101.622,74.8676
sim-vrCMYhsBgm,UCHI_1023-R,2,85.3551,72.7962
sim-vrCMYhsBgm,UCHI_1023-R,3,71.8218,70.063
sim-vrCMYhsBgm,UCHI_1023-R,4,60.4888,67.2084
sim-vrCMYhsBgm,UCHI_1023-R,5,51.0089,64.2216
sim-vrCMYhsBgm,UCHI_1023-R,6,43.0542,61.7988
sim-vrCMYhsBgm,UCHI_1023-R,7,36.3802,59.1345
sim-vrCMYhsBgm,UCHI_1023-R,8,30.7678,57.4593
sim-vrCMYhsBgm,UCHI_1023-R,9,26.0466,55.2822
sim-vrCMYhsBgm,UCHI_1023-R,10,22.0681,54.0866
sim-vrCMYhsBgm,UCHI_1023-R,11,18.7139,52.4918
sim-vrCMYhsBgm,UCHI_1023-R,12,15.8817,51.0101
sim-vrCMYhsBgm,UCHI_1023-R,13,13.4882,50.0756
sim-vrCMYhsBgm,UCHI_1023-R,14,11.464,48.8722
sim-vrCMYhsBgm,UCHI_1023-R,15,9.74927,47.0282
sim-vrCMYhsBgm,UCHI_1023-R,16,8.29595,45.9554
sim-vrCMYhsBgm,UCHI_1023-R,17,7.06237,45.2879
sim-vrCMYhsBgm,UCHI_1023-R,18,6.01489,44.8376
sim-vrCMYhsBgm,UCHI_1023-R,18.4286,5.61582,44.8114
sim-Bnr9NLgdFX,UCHI_1036-L,0,6.36963,29.9672
sim-Bnr9NLgdFX,UCHI_1036-L,1,5.59832,29.9649
sim-Bnr9NLgdFX,UCHI_1036-L,2,4.24757,42.5404
sim-Bnr9NLgdFX,UCHI_1036-L,3,3.22144,41.7765
sim-Bnr9NLgdFX,UCHI_1036-L,4,2.44484,40.8784
sim-Bnr9NLgdFX,UCHI_1036-L,5,1.85666,39.5282
sim-Bnr9NLgdFX,UCHI_1036-L,6,1.41142,39.0752
sim-Bnr9NLgdFX,UCHI_1036-L,7,1.07395,38.2862
sim-Bnr9NLgdFX,UCHI_1036-L,8,0.817839,37.5448
sim-Bnr9NLgdFX,UCHI_1036-L,9,0.623086,37.3322
sim-Bnr9NLgdFX,UCHI_1036-L,10,0.474758,36.8572
sim-Bnr9NLgdFX,UCHI_1036-L,11,0.361737,21.2002
sim-Bnr9NLgdFX,UCHI_1036-L,12,0.27562,36.2877
sim-Bnr9NLgdFX,UCHI_1036-L,13,0.210002,17.9556
sim-Bnr9NLgdFX,UCHI_1036-L,14,0.160005,32.1037
sim-Bnr9NLgdFX,UCHI_1036-L,15,0.121912,27.0657
sim-Bnr9NLgdFX,UCHI_1036-L,16,0.0928878,27.0467
sim-Bnr9NLgdFX,UCHI_1036-L,17,0.0707749,11.6855
sim-Bnr9NLgdFX,UCHI_1036-L,18,0.0539265,12.0416
sim-Bnr9NLgdFX,UCHI_1036-L,18.4286,0.0479954,24.4523
sim-1AZfeGv7nA,UCHI_1067-L,0,24.1753,61.8427
sim-1AZfeGv7nA,UCHI_1067-L,1,21.8337,61.7646
sim-1AZfeGv7nA,UCHI_1067-L,2,17.4362,60.8156
sim-1AZfeGv7nA,UCHI_1067-L,3,14.0032,59.4822
sim-1AZfeGv7nA,UCHI_1067-L,4,11.2896,58.3145
sim-1AZfeGv7nA,UCHI_1067-L,5,9.14272,56.9531
sim-1AZfeGv7nA,UCHI_1067-L,6,7.429,55.3445
sim-1AZfeGv7nA,UCHI_1067-L,7,6.05523,53.8848
sim-1AZfeGv7nA,UCHI_1067-L,8,4.94944,53.0256
sim-1AZfeGv7nA,UCHI_1067-L,9,4.05169,51.9256
sim-1AZfeGv7nA,UCHI_1067-L,10,3.32173,51.2173
sim-1AZfeGv7nA,UCHI_1067-L,11,2.72273,50.2368
sim-1AZfeGv7nA,UCHI_1067-L,12,2.23029,48.961
sim-1AZfeGv7nA,UCHI_1067-L,13,1.82426,47.888
sim-1AZfeGv7nA,UCHI_1067-L,14,1.48678,47.3629
sim-1AZfeGv7nA,UCHI_1067-L,15,1.20889,43.5138
sim-1AZfeGv7nA,UCHI_1067-L,16,0.976541,43.4504
sim-1AZfeGv7nA,UCHI_1067-L,17,0.786359,39.1102
sim-1AZfeGv7nA,UCHI_1067-L,18,0.627213,38.7679
sim-1AZfeGv7nA,UCHI_1067-L,18.4286,0.569482,26.565
sim-YnGUZQxaBW,UCHI_1068-R,0,3.83325,24.4335
sim-YnGUZQxaBW,UCHI_1068-R,1,3.28104,24.379
sim-YnGUZQxaBW,UCHI_1068-R,2,2.35118,22.9199
sim-YnGUZQxaBW,UCHI_1068-R,3,1.68122,21.4487
sim-YnGUZQxaBW,UCHI_1068-R,4,1.19988,20.041
sim-YnGUZQxaBW,UCHI_1068-R,5,0.855115,18.5388
sim-YnGUZQxaBW,UCHI_1068-R,6,0.608301,17.6098
sim-YnGUZQxaBW,UCHI_1068-R,7,0.432251,16.3283
sim-YnGUZQxaBW,UCHI_1068-R,8,0.30661,15.5706
sim-YnGUZQxaBW,UCHI_1068-R,9,0.21728,14.7213
sim-YnGUZQxaBW,UCHI_1068-R,10,0.153922,14.0245
sim-YnGUZQxaBW,UCHI_1068-R,11,0.109051,13.2175
sim-YnGUZQxaBW,UCHI_1068-R,12,0.0772575,12.8644
sim-YnGUZQxaBW,UCHI_1068-R,13,0.0547319,12.3633
sim-YnGUZQxaBW,UCHI_1068-R,14,0.0387688,12.3621
sim-YnGUZQxaBW,UCHI_1068-R,15,0.027462,10.4283
sim-YnGUZQxaBW,UCHI_1068-R,16,0.0194544,10.4278
sim-YnGUZQxaBW,UCHI_1068-R,17,0.0137828,10.0282
sim-YnGUZQxaBW,UCHI_1068-R,18,0.00976484,10.0306
sim-YnGUZQxaBW,UCHI_1068-R,18.4286,0.00842429,7.48921
sim-rpVkyzdFWv,UCHI_1077-L,0,7.95737,41.9363
sim-rpVkyzdFWv,UCHI_1077-L,1,6.78875,41.9219
sim-rpVkyzdFWv,UCHI_1077-L,2,4.84025,41.5168
sim-rpVkyzdFWv,UCHI_1077-L,3,3.44563,40.1228
sim-rpVkyzdFWv,UCHI_1077-L,4,2.44971,39.0758
sim-rpVkyzdFWv,UCHI_1077-L,5,1.73916,38.2027
sim-rpVkyzdFWv,UCHI_1077-L,6,1.23333,37.534
sim-rpVkyzdFWv,UCHI_1077-L,7,0.873637,36.8431
sim-rpVkyzdFWv,UCHI_1077-L,8,0.61837,36.7093
sim-rpVkyzdFWv,UCHI_1077-L,9,0.437374,35.2608
sim-rpVkyzdFWv,UCHI_1077-L,10,0.309266,35.2849
sim-rpVkyzdFWv,UCHI_1077-L,11,0.218637,30.4482
sim-rpVkyzdFWv,UCHI_1077-L,12,0.154538,30.556
sim-rpVkyzdFWv,UCHI_1077-L,13,0.109208,26.6191
sim-rpVkyzdFWv,UCHI_1077-L,14,0.0771677,24.2955
sim-rpVkyzdFWv,UCHI_1077-L,15,0.05452,22.2744
sim-rpVkyzdFWv,UCHI_1077-L,16,0.0385201,22.2688
sim-rpVkyzdFWv,UCHI_1077-L,17,0.0272138,15.5749
sim-rpVkyzdFWv,UCHI_1077-L,18,0.0192306,15.5217
sim-rpVkyzdFWv,UCHI_1077-L,18.4286,0.0165726,15.5729
sim-LH4LcsH1c9,UCHI_1093-L,0,1.86038,24.562
sim-LH4LcsH1c9,UCHI_1093-L,1,1.61469,24.5428
sim-LH4LcsH1c9,UCHI_1093-L,2,1.18752,23.7606
sim-LH4LcsH1c9,UCHI_1093-L,3,0.871545,22.5694
sim-LH4LcsH1c9,UCHI_1093-L,4,0.637499,21.6745
sim-LH4LcsH1c9,UCHI_1093-L,5,0.465502,20.5628
sim-LH4LcsH1c9,UCHI_1093-L,6,0.3388,19.6671
sim-LH4LcsH1c9,UCHI_1093-L,7,0.246253,18.7366
sim-LH4LcsH1c9,UCHI_1093-L,8,0.178612,18.6895
sim-LH4LcsH1c9,UCHI_1093-L,9,0.129496,18.0674
sim-LH4LcsH1c9,UCHI_1093-L,10,0.0938663,17.0039
sim-LH4LcsH1c9,UCHI_1093-L,11,0.0680275,16.4823
sim-LH4LcsH1c9,UCHI_1093-L,12,0.0493047,16.3933
sim-LH4LcsH1c9,UCHI_1093-L,13,0.0357223,14.483
sim-LH4LcsH1c9,UCHI_1093-L,14,0.0258802,14.4824
sim-LH4LcsH1c9,UCHI_1093-L,15,0.018745,13.6045
sim-LH4LcsH1c9,UCHI_1093-L,16,0.0135768,13.6047
sim-LH4LcsH1c9,UCHI_1093-L,17,0.00983396,13.082
sim-LH4LcsH1c9,UCHI_1093-L,18,0.0071231,13.0807
sim-LH4LcsH1c9,UCHI_1093-L,18.4286,0.00620413,12.5946
sim-MyHe1FaGAS,UCHI_1111-R,0,1.736,20.2683
sim-MyHe1FaGAS,UCHI_1111-R,1,1.49288,20.2846
sim-MyHe1FaGAS,UCHI_1111-R,2,1.08399,19.3169
sim-MyHe1FaGAS,UCHI_1111-R,3,0.786231,17.8131
sim-MyHe1FaGAS,UCHI_1111-R,4,0.568827,16.8247
sim-MyHe1FaGAS,UCHI_1111-R,5,0.410782,15.7312
sim-MyHe1FaGAS,UCHI_1111-R,6,0.295675,14.7929
sim-MyHe1FaGAS,UCHI_1111-R,7,0.212279,13.9081
sim-MyHe1FaGAS,UCHI_1111-R,8,0.151904,13.22
sim-MyHe1FaGAS,UCHI_1111-R,9,0.10859,12.6186
sim-MyHe1FaGAS,UCHI_1111-R,10,0.0776196,12.506
sim-MyHe1FaGAS,UCHI_1111-R,11,0.0554834,11.029
sim-MyHe1FaGAS,UCHI_1111-R,12,0.039657,11.051
sim-MyHe1FaGAS,UCHI_1111-R,13,0.0283433,8.87093
sim-MyHe1FaGAS,UCHI_1111-R,14,0.0202561,8.34387
sim-MyHe1FaGAS,UCHI_1111-R,15,0.0144761,7.80025
sim-MyHe1FaGAS,UCHI_1111-R,16,0.0103447,7.79991
sim-MyHe1FaGAS,UCHI_1111-R,17,0.00739224,6.69729
sim-MyHe1FaGAS,UCHI_1111-R,18,0.00528208,6.70581
sim-MyHe1FaGAS,UCHI_1111-R,18.4286,0.00457348,5.1317
sim-CR7cf3G9m7,UCHI_1123-R,0,3.62012,38.8353
sim-CR7cf3G9m7,UCHI_1123-R,1,3.28912,38.8377
sim-CR7cf3G9m7,UCHI_1123-R,2,2.69522,38.3583
sim-CR7cf3G9m7,UCHI_1123-R,3,2.22662,37.4448
sim-CR7cf3G9m7,UCHI_1123-R,4,1.84379,36.8698
sim-CR7cf3G9m7,UCHI_1123-R,5,1.53839,35.7678
sim-CR7cf3G9m7,UCHI_1123-R,6,1.28584,35.3037
sim-CR7cf3G9m7,UCHI_1123-R,7,1.08143,34.2515
sim-CR7cf3G9m7,UCHI_1123-R,8,0.909768,33.7871
sim-CR7cf3G9m7,UCHI_1123-R,9,0.769542,33.3249
sim-CR7cf3G9m7,UCHI_1123-R,10,0.650124,32.8651
sim-CR7cf3G9m7,UCHI_1123-R,11,0.551786,31.4183
sim-CR7cf3G9m7,UCHI_1123-R,12,0.467164,29.5885
sim-CR7cf3G9m7,UCHI_1123-R,13,0.396865,27.2949
sim-CR7cf3G9m7,UCHI_1123-R,14,0.336029,28.344
sim-CR7cf3G9m7,UCHI_1123-R,15,0.285295,24.4074
sim-CR7cf3G9m7,UCHI_1123-R,16,0.240726,24.4048
sim-CR7cf3G9m7,UCHI_1123-R,17,0.204036,23.9813
sim-CR7cf3G9m7,UCHI_1123-R,18,0.172197,22.4494
sim-CR7cf3G9m7,UCHI_1123-R,18.4286,0.160527,20.8038
sim-AzGvVbPGVa,UCHI_1186-R,0,10.2434,83.0652
sim-AzGvVbPGVa,UCHI_1186-R,1,9.13697,83.1152
sim-AzGvVbPGVa,UCHI_1186-R,2,7.1907,83.2133
sim-AzGvVbPGVa,UCHI_1186-R,3,5.68473,82.566
sim-AzGvVbPGVa,UCHI_1186-R,4,4.49305,81.7456
sim-AzGvVbPGVa,UCHI_1186-R,5,3.5702,81.3267
sim-AzGvVbPGVa,UCHI_1186-R,6,2.83361,80.4924
sim-AzGvVbPGVa,UCHI_1186-R,7,2.26162,80.7516
sim-AzGvVbPGVa,UCHI_1186-R,8,1.80247,80.3273
sim-AzGvVbPGVa,UCHI_1186-R,9,1.44733,78.0078
sim-AzGvVbPGVa,UCHI_1186-R,10,1.16107,78.1365
sim-AzGvVbPGVa,UCHI_1186-R,11,0.939295,77.0711
sim-AzGvVbPGVa,UCHI_1186-R,12,0.75946,77.1943
sim-AzGvVbPGVa,UCHI_1186-R,13,0.619177,75.8655
sim-AzGvVbPGVa,UCHI_1186-R,14,0.504288,76.018
sim-AzGvVbPGVa,UCHI_1186-R,15,0.413913,73.6932
sim-AzGvVbPGVa,UCHI_1186-R,16,0.339054,73.752
sim-AzGvVbPGVa,UCHI_1186-R,17,0.279569,68.003
sim-AzGvVbPGVa,UCHI_1186-R,18,0.22995,67.2788
sim-AzGvVbPGVa,UCHI_1186-R,18.4286,0.212124,39.3537
sim-LByBbVwQyh,UCHI_1202-L,0,9.4515,59.8004
sim-LByBbVwQyh,UCHI_1202-L,1,8.03317,59.8088
sim-LByBbVwQyh,UCHI_1202-L,2,5.69069,59.4435
sim-LByBbVwQyh,UCHI_1202-L,3,4.02694,58.1291
sim-LByBbVwQyh,UCHI_1202-L,4,2.84756,56.9526
sim-LByBbVwQyh,UCHI_1202-L,5,2.01315,56.0407
sim-LByBbVwQyh,UCHI_1202-L,6,1.42294,54.9022
sim-LByBbVwQyh,UCHI_1202-L,7,1.00564,54.5368
sim-LByBbVwQyh,UCHI_1202-L,8,0.7106,53.8506
sim-LByBbVwQyh,UCHI_1202-L,9,0.502051,53.0252
sim-LByBbVwQyh,UCHI_1202-L,10,0.354663,53.3432
sim-LByBbVwQyh,UCHI_1202-L,11,0.250525,49.96
sim-LByBbVwQyh,UCHI_1202-L,12,0.176945,49.7885
sim-LByBbVwQyh,UCHI_1202-L,13,0.124972,48.8721
sim-LByBbVwQyh,UCHI_1202-L,14,0.0882606,48.8603
sim-LByBbVwQyh,UCHI_1202-L,15,0.0623315,43.5151
sim-LByBbVwQyh,UCHI_1202-L,16,0.0440184,43.517
sim-LByBbVwQyh,UCHI_1202-L,17,0.0310861,36.5594
sim-LByBbVwQyh,UCHI_1202-L,18,0.0219539,36.5595
sim-LByBbVwQyh,UCHI_1202-L,18.4286,0.0189133,39.2324
sim-518w288ATS,UCHI_1203-R,0,66.3664,72.5714
sim-518w288ATS,UCHI_1203-R,1,62.3719,72.4792
sim-518w288ATS,UCHI_1203-R,2,54.9004,71.9998
sim-518w288ATS,UCHI_1203-R,3,48.5698,71.1986
sim-518w288ATS,UCHI_1203-R,4,43.0465,70.1026
sim-518w288ATS,UCHI_1203-R,5,38.2706,69.123
sim-518w288ATS,UCHI_1203-R,6,34.0523,68.6459
sim-518w288ATS,UCHI_1203-R,7,30.3604,67.8458
sim-518w288ATS,UCHI_1203-R,8,27.0618,67.1512
sim-518w288ATS,UCHI_1203-R,9,24.1587,66.4135
sim-518w288ATS,UCHI_1203-R,10,21.5325,66.0284
sim-518w288ATS,UCHI_1203-R,11,19.224,64.5803
sim-518w288ATS,UCHI_1203-R,12,17.1084,65.6536
sim-518w288ATS,UCHI_1203-R,13,15.2618,60.3654
sim-518w288ATS,UCHI_1203-R,14,13.5469,59.9639
sim-518w288ATS,UCHI_1203-R,15,12.0622,59.4032
sim-518w288ATS,UCHI_1203-R,16,10.6731,59.0805
sim-518w288ATS,UCHI_1203-R,17,9.48024,54.5696
sim-518w288ATS,UCHI_1203-R,18,8.35871,54.2389
sim-518w288ATS,UCHI_1203-R,18.4286,7.94385,53.113
sim-Nv29VHzn17,UC_0011-L,0,7.7725,31.5265
sim-Nv29VHzn17,UC_0011-L,1,6.85146,31.5071
sim-Nv29VHzn17,UC_0011-L,2,5.25034,30.838
sim-Nv29VHzn17,UC_0011-L,3,4.03679,29.3261
sim-Nv29VHzn17,UC_0011-L,4,3.11771,28.1842
sim-Nv29VHzn17,UC_0011-L,5,2.41622,26.8531
sim-Nv29VHzn17,UC_0011-L,6,1.88272,25.9704
sim-Nv29VHzn17,UC_0011-L,7,1.47303,24.616
sim-Nv29VHzn17,UC_0011-L,8,1.1589,23.7858
sim-Nv29VHzn17,UC_0011-L,9,0.91564,23.5554
sim-Nv29VHzn17,UC_0011-L,10,0.726455,22.7802
sim-Nv29VHzn17,UC_0011-L,11,0.578867,21.5167
sim-Nv29VHzn17,UC_0011-L,12,0.462152,21.3677
sim-Nv29VHzn17,UC_0011-L,13,0.370759,20.8349
sim-Nv29VHzn17,UC_0011-L,14,0.297745,20.3301
sim-Nv29VHzn17,UC_0011-L,15,0.240121,19.8201
sim-Nv29VHzn17,UC_0011-L,16,0.193375,19.4318
sim-Nv29VHzn17,UC_0011-L,17,0.156397,16.4981
sim-Nv29VHzn17,UC_0011-L,18,0.125907,16.4253
sim-Nv29VHzn17,UC_0011-L,18.4286,0.115052,15.5854
sim-8MfCwSUzrU,UC_0012-L,0,8.80138,40.3549
sim-8MfCwSUzrU,UC_0012-L,1,8.01413,40.3532
sim-8MfCwSUzrU,UC_0012-L,2,6.62747,39.8997
sim-8MfCwSUzrU,UC_0012-L,3,5.47631,39.2996
sim-8MfCwSUzrU,UC_0012-L,4,4.52232,38.5458
sim-8MfCwSUzrU,UC_0012-L,5,3.73218,37.6267
sim-8MfCwSUzrU,UC_0012-L,6,3.07909,37.0003
sim-8MfCwSUzrU,UC_0012-L,7,2.53873,36.1031
sim-8MfCwSUzrU,UC_0012-L,8,2.09252,36.0545
sim-8MfCwSUzrU,UC_0012-L,9,1.72357,34.8971
sim-8MfCwSUzrU,UC_0012-L,10,1.41904,34.7701
sim-8MfCwSUzrU,UC_0012-L,11,1.16759,34.3831
sim-8MfCwSUzrU,UC_0012-L,12,0.960247,33.9698
sim-8MfCwSUzrU,UC_0012-L,13,0.789267,33.8949
sim-8MfCwSUzrU,UC_0012-L,14,0.648526,33.9421
sim-8MfCwSUzrU,UC_0012-L,15,0.532699,33.6541
sim-8MfCwSUzrU,UC_0012-L,16,0.437429,33.6412
sim-8MfCwSUzrU,UC_0012-L,17,0.359146,33.2047
sim-8MfCwSUzrU,UC_0012-L,18,0.29485,33.7275
sim-8MfCwSUzrU,UC_0012-L,18.4286,0.270945,31.7213
sim-FbmM41DJg2,UC_0027-L,0,4.92212,113.006
sim-FbmM41DJg2,UC_0027-L,1,4.53031,113.003
sim-FbmM41DJg2,UC_0027-L,2,3.8375,112.999
sim-FbmM41DJg2,UC_0027-L,3,3.25686,112.387
sim-FbmM41DJg2,UC_0027-L,4,2.76393,112.091
sim-FbmM41DJg2,UC_0027-L,5,2.35102,111.65
sim-FbmM41DJg2,UC_0027-L,6,1.99959,111.223
sim-FbmM41DJg2,UC_0027-L,7,1.70467,110.302
sim-FbmM41DJg2,UC_0027-L,8,1.45245,109.879
sim-FbmM41DJg2,UC_0027-L,9,1.24022,109.205
sim-FbmM41DJg2,UC_0027-L,10,1.0581,108.784
sim-FbmM41DJg2,UC_0027-L,11,0.904612,108.589
sim-FbmM41DJg2,UC_0027-L,12,0.772376,108.445
sim-FbmM41DJg2,UC_0027-L,13,0.660749,107.971
sim-FbmM41DJg2,UC_0027-L,14,0.564454,107.966
sim-FbmM41DJg2,UC_0027-L,15,0.48298,106.992
sim-FbmM41DJg2,UC_0027-L,16,0.412566,106.991
sim-FbmM41DJg2,UC_0027-L,17,0.353008,91.3972
sim-FbmM41DJg2,UC_0027-L,18,0.301574,91.4003
sim-FbmM41DJg2,UC_0027-L,18.4286,0.282147,26.3523
sim-WhJU7wbBgP,UC_0044-R,0,2.96475,39.0959
sim-WhJU7wbBgP,UC_0044-R,1,2.67853,39.098
sim-WhJU7wbBgP,UC_0044-R,2,2.15928,38.9358
sim-WhJU7wbBgP,UC_0044-R,3,1.7492,37.9728
sim-WhJU7wbBgP,UC_0044-R,4,1.41132,37.1261
sim-WhJU7wbBgP,UC_0044-R,5,1.14363,36.4911
sim-WhJU7wbBgP,UC_0044-R,6,0.92317,35.9803
sim-WhJU7wbBgP,UC_0044-R,7,0.747952,34.9691
sim-WhJU7wbBgP,UC_0044-R,8,0.602203,33.9402
sim-WhJU7wbBgP,UC_0044-R,9,0.486754,33.3965
sim-WhJU7wbBgP,UC_0044-R,10,0.389944,33.3355
sim-WhJU7wbBgP,UC_0044-R,11,0.313283,32.2669
sim-WhJU7wbBgP,UC_0044-R,12,0.248771,31.7024
sim-WhJU7wbBgP,UC_0044-R,13,0.197864,27.1527
sim-WhJU7wbBgP,UC_0044-R,14,0.154709,27.1496
sim-WhJU7wbBgP,UC_0044-R,15,0.120499,25.2806
sim-WhJU7wbBgP,UC_0044-R,16,0.0922374,25.2352
sim-WhJU7wbBgP,UC_0044-R,17,0.0702914,20.0493
sim-WhJU7wbBgP,UC_0044-R,18,0.0527918,20.0614
sim-WhJU7wbBgP,UC_0044-R,18.4286,0.0467233,17.6859
sim-1wP1MJPvVh,UC_0048-R,0,11.0034,60.8868
sim-1wP1MJPvVh,UC_0048-R,1,9.668,60.8126
sim-1wP1MJPvVh,UC_0048-R,2,7.33551,60.3658
sim-1wP1MJPvVh,UC_0048-R,3,5.57473,58.9734
sim-1wP1MJPvVh,UC_0048-R,4,4.23206,57.4692
sim-1wP1MJPvVh,UC_0048-R,5,3.20907,56.5295
sim-1wP1MJPvVh,UC_0048-R,6,2.42691,55.5031
sim-1wP1MJPvVh,UC_0048-R,7,1.82991,54.4426
sim-1wP1MJPvVh,UC_0048-R,8,1.37424,53.7273
sim-1wP1MJPvVh,UC_0048-R,9,1.02798,52.2222
sim-1wP1MJPvVh,UC_0048-R,10,0.764195,52.8865
sim-1wP1MJPvVh,UC_0048-R,11,0.565849,51.107
sim-1wP1MJPvVh,UC_0048-R,12,0.416074,50.7245
sim-1wP1MJPvVh,UC_0048-R,13,0.305073,49.958
sim-1wP1MJPvVh,UC_0048-R,14,0.222571,50.5955
sim-1wP1MJPvVh,UC_0048-R,15,0.162416,50.2564
sim-1wP1MJPvVh,UC_0048-R,16,0.118402,50.2334
sim-1wP1MJPvVh,UC_0048-R,17,0.0865486,49.3164
sim-1wP1MJPvVh,UC_0048-R,18,0.0633799,49.2932
sim-1wP1MJPvVh,UC_0048-R,18.4286,0.0554979,46.0567
sim-MpyzsGhxwA,UC_0051-R,0,3.43163,53.5562
sim-MpyzsGhxwA,UC_0051-R,1,3.10876,53.5609
sim-MpyzsGhxwA,UC_0051-R,2,2.54369,53.5719
sim-MpyzsGhxwA,UC_0051-R,3,2.07985,53.1775
sim-MpyzsGhxwA,UC_0051-R,4,1.69956,52.9927
sim-MpyzsGhxwA,UC_0051-R,5,1.38841,52.1453
sim-MpyzsGhxwA,UC_0051-R,6,1.13399,52.1525
sim-MpyzsGhxwA,UC_0051-R,7,0.926061,51.108
sim-MpyzsGhxwA,UC_0051-R,8,0.756211,51.1132
sim-MpyzsGhxwA,UC_0051-R,9,0.617477,50.5185
sim-MpyzsGhxwA,UC_0051-R,10,0.504182,50.5204
sim-MpyzsGhxwA,UC_0051-R,11,0.411688,50.0532
sim-MpyzsGhxwA,UC_0051-R,12,0.336165,50.0537
sim-MpyzsGhxwA,UC_0051-R,13,0.274508,49.2955
sim-MpyzsGhxwA,UC_0051-R,14,0.224163,49.2963
sim-MpyzsGhxwA,UC_0051-R,15,0.183054,48.8663
sim-MpyzsGhxwA,UC_0051-R,16,0.14948,48.8707
sim-MpyzsGhxwA,UC_0051-R,17,0.122059,43.182
sim-MpyzsGhxwA,UC_0051-R,18,0.099667,43.1812
sim-MpyzsGhxwA,UC_0051-R,18.4286,0.0913751,42.738
sim-AD7UTxkcyS,UC_0052-L,0,2.94613,22.9924
sim-AD7UTxkcyS,UC_0052-L,1,2.68089,22.9855
sim-AD7UTxkcyS,UC_0052-L,2,2.21208,22.5096
sim-AD7UTxkcyS,UC_0052-L,3,1.82327,21.645
sim-AD7UTxkcyS,UC_0052-L,4,1.49977,21.1122
sim-AD7UTxkcyS,UC_0052-L,5,1.23236,19.6507
sim-AD7UTxkcyS,UC_0052-L,6,1.01097,19.3138
sim-AD7UTxkcyS,UC_0052-L,7,0.828603,18.3685
sim-AD7UTxkcyS,UC_0052-L,8,0.678284,17.7122
sim-AD7UTxkcyS,UC_0052-L,9,0.554987,17.6207
sim-AD7UTxkcyS,UC_0052-L,10,0.45399,16.1749
sim-AD7UTxkcyS,UC_0052-L,11,0.371372,15.6345
sim-AD7UTxkcyS,UC_0052-L,12,0.303788,14.9119
sim-AD7UTxkcyS,UC_0052-L,13,0.248512,14.5311
sim-AD7UTxkcyS,UC_0052-L,14,0.203292,14.168
sim-AD7UTxkcyS,UC_0052-L,15,0.166305,13.5909
sim-AD7UTxkcyS,UC_0052-L,16,0.136046,13.6675
sim-AD7UTxkcyS,UC_0052-L,17,0.111297,13.508
sim-AD7UTxkcyS,UC_0052-L,18,0.0910531,13.492
sim-AD7UTxkcyS,UC_0052-L,18.4286,0.0835488,11.7316
sim-EVY8BLkA6N,UC_0053-R,0,3.13687,30.5879
sim-EVY8BLkA6N,UC_0053-R,1,2.84797,30.5741
sim-EVY8BLkA6N,UC_0053-R,2,2.33791,30.5682
sim-EVY8BLkA6N,UC_0053-R,3,1.91687,29.7642
sim-EVY8BLkA6N,UC_0053-R,4,1.56933,28.9698
sim-EVY8BLkA6N,UC_0053-R,5,1.28369,28.5557
sim-EVY8BLkA6N,UC_0053-R,6,1.049,27.7622
sim-EVY8BLkA6N,UC_0053-R,7,0.856785,27.1645
sim-EVY8BLkA6N,UC_0053-R,8,0.699381,26.5512
sim-EVY8BLkA6N,UC_0053-R,9,0.570784,25.98
sim-EVY8BLkA6N,UC_0053-R,10,0.46573,25.8078
sim-EVY8BLkA6N,UC_0053-R,11,0.38001,25.5908
sim-EVY8BLkA6N,UC_0053-R,12,0.310073,25.5996
sim-EVY8BLkA6N,UC_0053-R,13,0.253016,23.8061
sim-EVY8BLkA6N,UC_0053-R,14,0.206463,23.82
sim-EVY8BLkA6N,UC_0053-R,15,0.168477,24.4653
sim-EVY8BLkA6N,UC_0053-R,16,0.13748,24.476
sim-EVY8BLkA6N,UC_0053-R,17,0.112183,23.0413
sim-EVY8BLkA6N,UC_0053-R,18,0.0915375,23.0579
sim-EVY8BLkA6N,UC_0053-R,18.4286,0.0838969,22.7374
sim-86PEkt3rS4,UC_0058-R,0,1.70975,18.2602
sim-86PEkt3rS4,UC_0058-R,1,1.54403,18.2646
sim-86PEkt3rS4,UC_0058-R,2,1.23327,17.7216
sim-86PEkt3rS4,UC_0058-R,3,0.985025,17.1861
sim-86PEkt3rS4,UC_0058-R,4,0.786733,16.223
sim-86PEkt3rS4,UC_0058-R,5,0.628344,15.6781
sim-86PEkt3rS4,UC_0058-R,6,0.501834,14.7249
sim-86PEkt3rS4,UC_0058-R,7,0.400792,14.5117
sim-86PEkt3rS4,UC_0058-R,8,0.32009,13.5174
sim-86PEkt3rS4,UC_0058-R,9,0.255637,12.9552
sim-86PEkt3rS4,UC_0058-R,10,0.204161,12.3863
sim-86PEkt3rS4,UC_0058-R,11,0.16305,11.9306
sim-86PEkt3rS4,UC_0058-R,12,0.130217,11.6208
sim-86PEkt3rS4,UC_0058-R,13,0.103995,10.8541
sim-86PEkt3rS4,UC_0058-R,14,0.083053,11.2189
sim-86PEkt3rS4,UC_0058-R,15,0.0663282,10.6954
sim-86PEkt3rS4,UC_0058-R,16,0.0529731,10.6969
sim-86PEkt3rS4,UC_0058-R,17,0.0423056,10.0818
sim-86PEkt3rS4,UC_0058-R,18,0.0337862,10.0747
sim-86PEkt3rS4,UC_0058-R,18.4286,0.030683,9.61121
sim-AGp4mYAZUX,UNC_0013-R,0,4.326,42.0367
sim-AGp4mYAZUX,UNC_0013-R,1,3.68365,42.0325
sim-AGp4mYAZUX,UNC_0013-R,2,2.61732,41.3492
sim-AGp4mYAZUX,UNC_0013-R,3,1.85723,40.301
sim-AGp4mYAZUX,UNC_0013-R,4,1.31721,39.3133
sim-AGp4mYAZUX,UNC_0013-R,5,0.93417,38.5415
sim-AGp4mYAZUX,UNC_0013-R,6,0.662505,37.7958
sim-AGp4mYAZUX,UNC_0013-R,7,0.469846,37.1812
sim-AGp4mYAZUX,UNC_0013-R,8,0.333214,36.6552
sim-AGp4mYAZUX,UNC_0013-R,9,0.236322,36.2154
sim-AGp4mYAZUX,UNC_0013-R,10,0.16761,36.625
sim-AGp4mYAZUX,UNC_0013-R,11,0.118881,33.8028
sim-AGp4mYAZUX,UNC_0013-R,12,0.0843245,33.7008
sim-AGp4mYAZUX,UNC_0013-R,13,0.0598182,33.2203
sim-AGp4mYAZUX,UNC_0013-R,14,0.0424385,33.2102
sim-AGp4mYAZUX,UNC_0013-R,15,0.0301093,31.935
sim-AGp4mYAZUX,UNC_0013-R,16,0.0213648,31.9389
sim-AGp4mYAZUX,UNC_0013-R,17,0.0151598,31.8828
sim-AGp4mYAZUX,UNC_0013-R,18,0.0107591,31.8686
sim-AGp4mYAZUX,UNC_0013-R,18.4286,0.00928815,34.842
sim-pNGzLpVNtB,UNC_0018-R,0,6.18913,29.2628
sim-pNGzLpVNtB,UNC_0018-R,1,5.26439,29.2284
sim-pNGzLpVNtB,UNC_0018-R,2,3.73867,27.3801
sim-pNGzLpVNtB,UNC_0018-R,3,2.65415,25.5372
sim-pNGzLpVNtB,UNC_0018-R,4,1.88282,23.7425
sim-pNGzLpVNtB,UNC_0018-R,5,1.33472,22.0255
sim-pNGzLpVNtB,UNC_0018-R,6,0.944849,20.8391
sim-pNGzLpVNtB,UNC_0018-R,7,0.667818,19.8749
sim-pNGzLpVNtB,UNC_0018-R,8,0.471173,18.9293
sim-pNGzLpVNtB,UNC_0018-R,9,0.332173,18.1852
sim-pNGzLpVNtB,UNC_0018-R,10,0.234138,17.2717
sim-pNGzLpVNtB,UNC_0018-R,11,0.165032,16.3784
sim-pNGzLpVNtB,UNC_0018-R,12,0.116319,15.6413
sim-pNGzLpVNtB,UNC_0018-R,13,0.0819722,15.4847
sim-pNGzLpVNtB,UNC_0018-R,14,0.0577608,15.0002
sim-pNGzLpVNtB,UNC_0018-R,15,0.0407028,13.9659
sim-pNGzLpVNtB,UNC_0018-R,16,0.0286807,14.005
sim-pNGzLpVNtB,UNC_0018-R,17,0.0201767,11.0914
sim-pNGzLpVNtB,UNC_0018-R,18,0.0142175,11.0808
sim-pNGzLpVNtB,UNC_0018-R,18.4286,0.0122379,10.6111
