adhoc_key,case,time,volume,ld
sim-BRgzaNMxhZ,DU_0005-R,0,17.4726,46.9593
sim-BRgzaNMxhZ,DU_0005-R,1,16.6658,46.9584
sim-BRgzaNMxhZ,DU_0005-R,2,14.9657,46.468
sim-BRgzaNMxhZ,DU_0005-R,3,13.4425,45.4925
sim-BRgzaNMxhZ,DU_0005-R,4,12.0733,45.0261
sim-BRgzaNMxhZ,DU_0005-R,5,10.8424,43.9401
sim-BRgzaNMxhZ,DU_0005-R,6,9.7391,43.3362
sim-BRgzaNMxhZ,DU_0005-R,7,8.74734,42.0023
sim-BRgzaNMxhZ,DU_0005-R,8,7.85627,41.3955
sim-BRgzaNMxhZ,DU_0005-R,9,7.05701,40.8225
sim-BRgzaNMxhZ,DU_0005-R,10,6.33859,39.9423
sim-BRgzaNMxhZ,DU_0005-R,11,5.69295,38.9762
sim-BRgzaNMxhZ,DU_0005-R,12,5.11386,38.0128
sim-BRgzaNMxhZ,DU_0005-R,13,4.59325,37.7938
sim-BRgzaNMxhZ,DU_0005-R,14,4.12547,36.8726
sim-BRgzaNMxhZ,DU_0005-R,15,3.70579,36.4911
sim-BRgzaNMxhZ,DU_0005-R,16,3.32849,35.5722
sim-BRgzaNMxhZ,DU_0005-R,17,2.98942,35.3559
sim-BRgzaNMxhZ,DU_0005-R,18,2.68524,34.8775
sim-BRgzaNMxhZ,DU_0005-R,19,2.4118,34.2238
sim-BRgzaNMxhZ,DU_0005-R,20,2.1661,33.9475
sim-BRgzaNMxhZ,DU_0005-R,20.4286,2.06869,32.714
sim-9YmzvpmfxF,DU_0090-R,0,135.152,104.875
sim-9YmzvpmfxF,DU_0090-R,1,132.761,105.807
sim-9YmzvpmfxF,DU_0090-R,2,122.785,104.894
sim-9YmzvpmfxF,DU_0090-R,3,113.699,104.743
sim-9YmzvpmfxF,DU_0090-R,4,105.382,103.923
sim-9YmzvpmfxF,DU_0090-R,5,97.7073,103.652
sim-9YmzvpmfxF,DU_0090-R,6,90.6808,102.871
sim-9YmzvpmfxF,DU_0090-R,7,84.1977,102.401
sim-9YmzvpmfxF,DU_0090-R,8,78.2311,101.465
sim-9YmzvpmfxF,DU_0090-R,9,72.737,100.841
sim-9YmzvpmfxF,DU_0090-R,10,67.6698,99.9059
sim-9YmzvpmfxF,DU_0090-R,11,62.9818,99.6379
sim-9YmzvpmfxF,DU_0090-R,12,58.6653,98.7049
sim-9YmzvpmfxF,DU_0090-R,13,54.6624,98.5483
sim-9YmzvpmfxF,DU_0090-R,14,50.9613,97.6155
sim-9YmzvpmfxF,DU_0090-R,15,47.5331,97.1983
sim-9YmzvpmfxF,DU_0090-R,16,44.3572,96.2684
sim-9YmzvpmfxF,DU_0090-R,17,41.4024,96.109
sim-9YmzvpmfxF,DU_0090-R,18,38.67,95.1861
sim-9YmzvpmfxF,DU_0090-R,19,36.1229,95.1839
sim-9YmzvpmfxF,DU_0090-R,20,33.7577,94.2552
sim-9YmzvpmfxF,DU_0090-R,20.4286,32.7929,94.1022
sim-kywHCS1Pcy,DU_0116-R,0,11.2785,59.16
sim-kywHCS1Pcy,DU_0116-R,1,10.7608,59.1602
sim-kywHCS1Pcy,DU_0116-R,2,9.66536,59.1645
sim-kywHCS1Pcy,DU_0116-R,3,8.68347,58.2592
sim-kywHCS1Pcy,DU_0116-R,4,7.80007,57.2815
sim-kywHCS1Pcy,DU_0116-R,5,7.00565,56.6378
sim-kywHCS1Pcy,DU_0116-R,6,6.29332,56.176
sim-kywHCS1Pcy,DU_0116-R,7,5.65274,55.2002
sim-kywHCS1Pcy,DU_0116-R,8,5.07703,54.2223
sim-kywHCS1Pcy,DU_0116-R,9,4.56063,53.7262
sim-kywHCS1Pcy,DU_0116-R,10,4.09629,52.7491
sim-kywHCS1Pcy,DU_0116-R,11,3.679,51.9056
sim-kywHCS1Pcy,DU_0116-R,12,3.30467,51.2105
sim-kywHCS1Pcy,DU_0116-R,13,2.96809,50.7172
sim-kywHCS1Pcy,DU_0116-R,14,2.66565,49.8785
sim-kywHCS1Pcy,DU_0116-R,15,2.39433,49.6755
sim-kywHCS1Pcy,DU_0116-R,16,2.15039,48.7008
sim-kywHCS1Pcy,DU_0116-R,17,1.93115,48.6954
sim-kywHCS1Pcy,DU_0116-R,18,1.73452,48.2101
sim-kywHCS1Pcy,DU_0116-R,19,1.55775,47.7296
sim-kywHCS1Pcy,DU_0116-R,20,1.39893,47.2438
sim-kywHCS1Pcy,DU_0116-R,20.4286,1.33597,46.7622
sim-kKSVa2LHvg,DU_0144-R,0,1.233,46.0226
sim-kKSVa2LHvg,DU_0144-R,1,1.22853,46.0206
sim-kKSVa2LHvg,DU_0144-R,2,1.15218,46.0214
sim-kKSVa2LHvg,DU_0144-R,3,1.08112,46.0214
sim-kKSVa2LHvg,DU_0144-R,4,1.01455,46.0213
sim-kKSVa2LHvg,DU_0144-R,5,0.952066,46.0216
sim-kKSVa2LHvg,DU_0144-R,6,0.893695,46.0217
sim-kKSVa2LHvg,DU_0144-R,7,0.838774,45.5018
sim-kKSVa2LHvg,DU_0144-R,8,0.787287,45.4871
sim-kKSVa2LHvg,DU_0144-R,9,0.739142,45.211
sim-kKSVa2LHvg,DU_0144-R,10,0.693919,45.2115
sim-kKSVa2LHvg,DU_0144-R,11,0.651442,44.9627
sim-kKSVa2LHvg,DU_0144-R,12,0.611674,44.9629
sim-kKSVa2LHvg,DU_0144-R,13,0.574293,44.6026
sim-kKSVa2LHvg,DU_0144-R,14,0.539179,44.6026
sim-kKSVa2LHvg,DU_0144-R,15,0.506285,44.2906
sim-kKSVa2LHvg,DU_0144-R,16,0.475357,44.2908
sim-kKSVa2LHvg,DU_0144-R,17,0.446306,44.1065
sim-kKSVa2LHvg,DU_0144-R,18,0.41909,44.1068
sim-kKSVa2LHvg,DU_0144-R,19,0.393499,43.8179
sim-kKSVa2LHvg,DU_0144-R,20,0.36946,43.8179
sim-kKSVa2LHvg,DU_0144-R,20.4286,0.35963,43.4838
sim-VZBDKF3X4D,DU_0183-L,0,7.295,45.3418
sim-VZBDKF3X4D,DU_0183-L,1,6.90688,45.3535
sim-VZBDKF3X4D,DU_0183-L,2,6.15292,45.3626
sim-VZBDKF3X4D,DU_0183-L,3,5.48279,45.3729
sim-VZBDKF3X4D,DU_0183-L,4,4.88558,45.3844
sim-VZBDKF3X4D,DU_0183-L,5,4.35282,42.9464
sim-VZBDKF3X4D,DU_0183-L,6,3.87929,42.9605
sim-VZBDKF3X4D,DU_0183-L,7,3.45693,41.9114
sim-VZBDKF3X4D,DU_0183-L,8,3.08069,41.6207
sim-VZBDKF3X4D,DU_0183-L,9,2.74583,41.2364
sim-VZBDKF3X4D,DU_0183-L,10,2.44736,41.2456
sim-VZBDKF3X4D,DU_0183-L,11,2.18125,40.7534
sim-VZBDKF3X4D,DU_0183-L,12,1.94447,40.4813
sim-VZBDKF3X4D,DU_0183-L,13,1.73322,40.3955
sim-VZBDKF3X4D,DU_0183-L,14,1.54491,40.3958
sim-VZBDKF3X4D,DU_0183-L,15,1.37726,38.2649
sim-VZBDKF3X4D,DU_0183-L,16,1.22773,38.2688
sim-VZBDKF3X4D,DU_0183-L,17,1.0944,38.2725
sim-VZBDKF3X4D,DU_0183-L,18,0.9757,38.2751
sim-VZBDKF3X4D,DU_0183-L,19,0.869813,36.8975
sim-VZBDKF3X4D,DU_0183-L,20,0.775405,38.0026
sim-VZBDKF3X4D,DU_0183-L,20.4286,0.738181,36.4234
sim-S57w9WJtpw,DU_0202-L,0,35.4269,102.446
sim-S57w9WJtpw,DU_0202-L,1,35.2228,102.941
sim-S57w9WJtpw,DU_0202-L,2,32.9612,102.447
sim-S57w9WJtpw,DU_0202-L,3,30.8635,102.448
sim-S57w9WJtpw,DU_0202-L,4,28.908,102.002
sim-S57w9WJtpw,DU_0202-L,5,27.075,101.471
sim-S57w9WJtpw,DU_0202-L,6,25.37,100.976
sim-S57w9WJtpw,DU_0202-L,7,23.7712,100.446
sim-S57w9WJtpw,DU_0202-L,8,22.2763,99.9699
sim-S57w9WJtpw,DU_0202-L,9,20.8789,99.4055
sim-S57w9WJtpw,DU_0202-L,10,19.5703,98.9575
sim-S57w9WJtpw,DU_0202-L,11,18.3429,98.3944
sim-S57w9WJtpw,DU_0202-L,12,17.1965,97.8992
sim-S57w9WJtpw,DU_0202-L,13,16.1207,97.3581
sim-S57w9WJtpw,DU_0202-L,14,15.1123,96.9092
sim-S57w9WJtpw,DU_0202-L,15,14.1689,96.3779
sim-S57w9WJtpw,DU_0202-L,16,13.2837,95.8825
sim-S57w9WJtpw,DU_0202-L,17,12.4531,95.3769
sim-S57w9WJtpw,DU_0202-L,18,11.6761,94.998
sim-S57w9WJtpw,DU_0202-L,19,10.9468,94.8459
sim-S57w9WJtpw,DU_0202-L,20,10.2627,94.3953
sim-S57w9WJtpw,DU_0202-L,20.4286,9.98315,93.863
sim-zkXnRVBxVp,DU_0253-R,0,7.26663,47.6136
sim-zkXnRVBxVp,DU_0253-R,1,6.93167,47.6126
sim-zkXnRVBxVp,DU_0253-R,2,6.22539,47.6098
sim-zkXnRVBxVp,DU_0253-R,3,5.59242,47.112
sim-zkXnRVBxVp,DU_0253-R,4,5.02311,46.1048
sim-zkXnRVBxVp,DU_0253-R,5,4.51127,45.6214
sim-zkXnRVBxVp,DU_0253-R,6,4.05222,45.1233
sim-zkXnRVBxVp,DU_0253-R,7,3.63957,44.4151
sim-zkXnRVBxVp,DU_0253-R,8,3.26869,43.4203
sim-zkXnRVBxVp,DU_0253-R,9,2.93607,43.4117
sim-zkXnRVBxVp,DU_0253-R,10,2.63699,42.435
sim-zkXnRVBxVp,DU_0253-R,11,2.36824,41.938
sim-zkXnRVBxVp,DU_0253-R,12,2.12714,41.8038
sim-zkXnRVBxVp,DU_0253-R,13,1.91035,40.9463
sim-zkXnRVBxVp,DU_0253-R,14,1.71556,40.828
sim-zkXnRVBxVp,DU_0253-R,15,1.54081,39.9551
sim-zkXnRVBxVp,DU_0253-R,16,1.38368,39.8208
sim-zkXnRVBxVp,DU_0253-R,17,1.24251,39.4469
sim-zkXnRVBxVp,DU_0253-R,18,1.11587,39.3147
sim-zkXnRVBxVp,DU_0253-R,19,1.00201,38.8117
sim-zkXnRVBxVp,DU_0253-R,20,0.899726,38.7921
sim-zkXnRVBxVp,DU_0253-R,20.4286,0.859179,38.3089
sim-zAfVHer7Zs,DU_0255-R,0,43.0406,64.7786
sim-zAfVHer7Zs,DU_0255-R,1,40.8147,64.7477
sim-zAfVHer7Zs,DU_0255-R,2,36.4581,64.7473
sim-zAfVHer7Zs,DU_0255-R,3,32.5813,64.0789
sim-zAfVHer7Zs,DU_0255-R,4,29.1317,63.1935
sim-zAfVHer7Zs,DU_0255-R,5,26.0478,62.2985
sim-zAfVHer7Zs,DU_0255-R,6,23.3066,61.2026
sim-zAfVHer7Zs,DU_0255-R,7,20.8564,60.5351
sim-zAfVHer7Zs,DU_0255-R,8,18.6722,59.6468
sim-zAfVHer7Zs,DU_0255-R,9,16.7224,58.7579
sim-zAfVHer7Zs,DU_0255-R,10,14.9821,58.3146
sim-zAfVHer7Zs,DU_0255-R,11,13.4242,56.9911
sim-zAfVHer7Zs,DU_0255-R,12,12.0349,56.5554
sim-zAfVHer7Zs,DU_0255-R,13,10.7899,56.4691
sim-zAfVHer7Zs,DU_0255-R,14,9.67605,56.0965
sim-zAfVHer7Zs,DU_0255-R,15,8.67932,55.2599
sim-zAfVHer7Zs,DU_0255-R,16,7.78623,55.0941
sim-zAfVHer7Zs,DU_0255-R,17,6.98522,54.5966
sim-zAfVHer7Zs,DU_0255-R,18,6.26816,54.611
sim-zAfVHer7Zs,DU_0255-R,19,5.62464,53.9521
sim-zAfVHer7Zs,DU_0255-R,20,5.0472,53.9577
sim-zAfVHer7Zs,DU_0255-R,20.4286,4.81848,53.6492
sim-bHtsQHV9Hd,DU_0260-R,0,85.0298,96.7658
sim-bHtsQHV9Hd,DU_0260-R,1,81.0696,96.7543
sim-bHtsQHV9Hd,DU_0260-R,2,72.763,96.7497
sim-bHtsQHV9Hd,DU_0260-R,3,65.3211,96.3188
sim-bHtsQHV9Hd,DU_0260-R,4,58.6323,95.811
sim-bHtsQHV9Hd,DU_0260-R,5,52.6202,94.7515
sim-bHtsQHV9Hd,DU_0260-R,6,47.2335,94.2576
sim-bHtsQHV9Hd,DU_0260-R,7,42.393,93.6285
sim-bHtsQHV9Hd,DU_0260-R,8,38.0463,92.8317
sim-bHtsQHV9Hd,DU_0260-R,9,34.1496,92.267
sim-bHtsQHV9Hd,DU_0260-R,10,30.6494,91.8387
sim-bHtsQHV9Hd,DU_0260-R,11,27.5056,91.2598
sim-bHtsQHV9Hd,DU_0260-R,12,24.688,90.77
sim-bHtsQHV9Hd,DU_0260-R,13,22.1566,90.2711
sim-bHtsQHV9Hd,DU_0260-R,14,19.8838,89.7701
sim-bHtsQHV9Hd,DU_0260-R,15,17.8461,89.358
sim-bHtsQHV9Hd,DU_0260-R,16,16.0158,88.6333
sim-bHtsQHV9Hd,DU_0260-R,17,14.372,88.6113
sim-bHtsQHV9Hd,DU_0260-R,18,12.8986,88.1232
sim-bHtsQHV9Hd,DU_0260-R,19,11.5749,88.1168
sim-bHtsQHV9Hd,DU_0260-R,20,10.3864,88.1225
sim-bHtsQHV9Hd,DU_0260-R,20.4286,9.91551,86.6325
sim-VDBMpCRBhK,DU_0328-L,0,8.0505,39.5879
sim-VDBMpCRBhK,DU_0328-L,1,7.67248,39.5872
sim-VDBMpCRBhK,DU_0328-L,2,6.88533,39.5854
sim-VDBMpCRBhK,DU_0328-L,3,6.18069,38.7535
sim-VDBMpCRBhK,DU_0328-L,4,5.54822,38.7557
sim-VDBMpCRBhK,DU_0328-L,5,4.97999,37.8043
sim-VDBMpCRBhK,DU_0328-L,6,4.47121,36.8465
sim-VDBMpCRBhK,DU_0328-L,7,4.01408,36.7664
sim-VDBMpCRBhK,DU_0328-L,8,3.60371,36.2904
sim-VDBMpCRBhK,DU_0328-L,9,3.23582,35.8083
sim-VDBMpCRBhK,DU_0328-L,10,2.90535,35.3433
sim-VDBMpCRBhK,DU_0328-L,11,2.60848,35.3413
sim-VDBMpCRBhK,DU_0328-L,12,2.34236,34.0926
sim-VDBMpCRBhK,DU_0328-L,13,2.10321,33.6029
sim-VDBMpCRBhK,DU_0328-L,14,1.88841,33.5161
sim-VDBMpCRBhK,DU_0328-L,15,1.69579,33.1269
sim-VDBMpCRBhK,DU_0328-L,16,1.52269,27.8069
sim-VDBMpCRBhK,DU_0328-L,17,1.36718,27.1137
sim-VDBMpCRBhK,DU_0328-L,18,1.22773,26.7672
sim-VDBMpCRBhK,DU_0328-L,19,1.10239,26.4034
sim-VDBMpCRBhK,DU_0328-L,20,0.989816,26.0502
sim-VDBMpCRBhK,DU_0328-L,20.4286,0.945163,25.5799
sim-hP2f7kK86C,DU_0386-L,0,12.2522,51.453
sim-hP2f7kK86C,DU_0386-L,1,12.0525,51.9259
sim-hP2f7kK86C,DU_0386-L,2,11.1667,51.4672
sim-hP2f7kK86C,DU_0386-L,3,10.3578,51.1765
sim-hP2f7kK86C,DU_0386-L,4,9.61808,50.7134
sim-hP2f7kK86C,DU_0386-L,5,8.93152,50.05
sim-hP2f7kK86C,DU_0386-L,6,8.30253,49.135
sim-hP2f7kK86C,DU_0386-L,7,7.7185,49.0171
sim-hP2f7kK86C,DU_0386-L,8,7.18104,48.1981
sim-hP2f7kK86C,DU_0386-L,9,6.68306,47.6988
sim-hP2f7kK86C,DU_0386-L,10,6.22386,47.4288
sim-hP2f7kK86C,DU_0386-L,11,5.79655,46.503
sim-hP2f7kK86C,DU_0386-L,12,5.40337,46.2979
sim-hP2f7kK86C,DU_0386-L,13,5.03708,45.6265
sim-hP2f7kK86C,DU_0386-L,14,4.6985,45.1632
sim-hP2f7kK86C,DU_0386-L,15,4.38366,44.8436
sim-hP2f7kK86C,DU_0386-L,16,4.09197,44.2286
sim-hP2f7kK86C,DU_0386-L,17,3.81988,43.8036
sim-hP2f7kK86C,DU_0386-L,18,3.56827,43.6951
sim-hP2f7kK86C,DU_0386-L,19,3.33325,43.1108
sim-hP2f7kK86C,DU_0386-L,20,3.115,43.0486
sim-hP2f7kK86C,DU_0386-L,20.4286,3.02596,42.457
sim-Vc7Ans7dWX,DU_0431-L,0,1.78887,26.4487
sim-Vc7Ans7dWX,DU_0431-L,1,1.74988,26.4439
sim-Vc7Ans7dWX,DU_0431-L,2,1.61304,26.4339
sim-Vc7Ans7dWX,DU_0431-L,3,1.48979,26.4235
sim-Vc7Ans7dWX,DU_0431-L,4,1.37839,26.4161
sim-Vc7Ans7dWX,DU_0431-L,5,1.27542,25.808
sim-Vc7Ans7dWX,DU_0431-L,6,1.18253,25.8173
sim-Vc7Ans7dWX,DU_0431-L,7,1.09673,25.3691
sim-Vc7Ans7dWX,DU_0431-L,8,1.01861,25.3695
sim-Vc7Ans7dWX,DU_0431-L,9,0.94633,24.9493
sim-Vc7Ans7dWX,DU_0431-L,10,0.880386,24.9543
sim-Vc7Ans7dWX,DU_0431-L,11,0.819337,24.5272
sim-Vc7Ans7dWX,DU_0431-L,12,0.76357,24.532
sim-Vc7Ans7dWX,DU_0431-L,13,0.711608,24.5342
sim-Vc7Ans7dWX,DU_0431-L,14,0.66393,24.538
sim-Vc7Ans7dWX,DU_0431-L,15,0.619784,23.9503
sim-Vc7Ans7dWX,DU_0431-L,16,0.579059,23.9544
sim-Vc7Ans7dWX,DU_0431-L,17,0.541085,23.9591
sim-Vc7Ans7dWX,DU_0431-L,18,0.506096,23.9625
sim-Vc7Ans7dWX,DU_0431-L,19,0.473484,23.9577
sim-Vc7Ans7dWX,DU_0431-L,20,0.443248,23.9609
sim-Vc7Ans7dWX,DU_0431-L,20.4286,0.430888,23.9631
sim-fGWpUWgHQJ,DU_0431-R,0,0.924625,111.772
sim-fGWpUWgHQJ,DU_0431-R,1,0.886971,111.822
sim-fGWpUWgHQJ,DU_0431-R,2,0.801696,111.868
sim-fGWpUWgHQJ,DU_0431-R,3,0.726524,111.913
sim-fGWpUWgHQJ,DU_0431-R,4,0.660106,111.959
sim-fGWpUWgHQJ,DU_0431-R,5,0.600202,112.01
sim-fGWpUWgHQJ,DU_0431-R,6,0.547506,112.059
sim-fGWpUWgHQJ,DU_0431-R,7,0.499544,111.835
sim-fGWpUWgHQJ,DU_0431-R,8,0.457217,111.882
sim-fGWpUWgHQJ,DU_0431-R,9,0.418632,111.938
sim-fGWpUWgHQJ,DU_0431-R,10,0.384375,111.985
sim-fGWpUWgHQJ,DU_0431-R,11,0.353164,111.757
sim-fGWpUWgHQJ,DU_0431-R,12,0.325422,111.804
sim-fGWpUWgHQJ,DU_0431-R,13,0.300035,111.854
sim-fGWpUWgHQJ,DU_0431-R,14,0.277215,111.898
sim-fGWpUWgHQJ,DU_0431-R,15,0.256336,111.939
sim-fGWpUWgHQJ,DU_0431-R,16,0.237433,111.983
sim-fGWpUWgHQJ,DU_0431-R,17,0.220059,111.258
sim-fGWpUWgHQJ,DU_0431-R,18,0.204312,111.302
sim-fGWpUWgHQJ,DU_0431-R,19,0.189805,111.342
sim-fGWpUWgHQJ,DU_0431-R,20,0.176544,111.381
sim-fGWpUWgHQJ,DU_0431-R,20.4286,0.171156,110.963
sim-KPapQMAAPp,DU_0444-R,0,106.836,92.5281
sim-KPapQMAAPp,DU_0444-R,1,104.846,93.3614
sim-KPapQMAAPp,DU_0444-R,2,96.8204,92.5103
sim-KPapQMAAPp,DU_0444-R,3,89.4611,92.23
sim-KPapQMAAPp,DU_0444-R,4,82.6591,91.3679
sim-KPapQMAAPp,DU_0444-R,5,76.3779,90.5116
sim-KPapQMAAPp,DU_0444-R,6,70.5917,89.5265
sim-KPapQMAAPp,DU_0444-R,7,65.2463,89.0518
sim-KPapQMAAPp,DU_0444-R,8,60.3052,88.3871
sim-KPapQMAAPp,DU_0444-R,9,55.7532,88.0858
sim-KPapQMAAPp,DU_0444-R,10,51.5426,87.3213
sim-KPapQMAAPp,DU_0444-R,11,47.6506,86.0519
sim-KPapQMAAPp,DU_0444-R,12,44.0602,85.383
sim-KPapQMAAPp,DU_0444-R,13,40.7386,84.6108
sim-KPapQMAAPp,DU_0444-R,14,37.6661,84.2218
sim-KPapQMAAPp,DU_0444-R,15,34.8307,83.6294
sim-KPapQMAAPp,DU_0444-R,16,32.2059,83.2379
sim-KPapQMAAPp,DU_0444-R,17,29.7773,82.5547
sim-KPapQMAAPp,DU_0444-R,18,27.5352,82.1618
sim-KPapQMAAPp,DU_0444-R,19,25.4592,82.298
sim-KPapQMAAPp,DU_0444-R,20,23.5382,81.6198
sim-KPapQMAAPp,DU_0444-R,20.4286,22.7607,80.3475
sim-WzdVWE5en2,DU_0468-R,0,9.06325,57.4973
sim-WzdVWE5en2,DU_0468-R,1,9.0019,58.0394
sim-WzdVWE5en2,DU_0468-R,2,8.41607,57.496
sim-WzdVWE5en2,DU_0468-R,3,7.87634,57.4938
sim-WzdVWE5en2,DU_0468-R,4,7.37522,57.492
sim-WzdVWE5en2,DU_0468-R,5,6.90599,56.8539
sim-WzdVWE5en2,DU_0468-R,6,6.47107,56.8529
sim-WzdVWE5en2,DU_0468-R,7,6.06353,56.2176
sim-WzdVWE5en2,DU_0468-R,8,5.68329,56.2174
sim-WzdVWE5en2,DU_0468-R,9,5.32812,55.5209
sim-WzdVWE5en2,DU_0468-R,10,4.9959,55.5256
sim-WzdVWE5en2,DU_0468-R,11,4.68449,54.6691
sim-WzdVWE5en2,DU_0468-R,12,4.39394,54.6733
sim-WzdVWE5en2,DU_0468-R,13,4.12114,54.1063
sim-WzdVWE5en2,DU_0468-R,14,3.86562,53.8519
sim-WzdVWE5en2,DU_0468-R,15,3.62652,53.2521
sim-WzdVWE5en2,DU_0468-R,16,3.40219,53.256
sim-WzdVWE5en2,DU_0468-R,17,3.19163,52.688
sim-WzdVWE5en2,DU_0468-R,18,2.99466,52.6916
sim-WzdVWE5en2,DU_0468-R,19,2.80968,52.0927
sim-WzdVWE5en2,DU_0468-R,20,2.6361,52.0962
sim-WzdVWE5en2,DU_0468-R,20.4286,2.56515,51.527
sim-2NGU1JFcpz,DU_0470-R,0,11.9066,54.9878
sim-2NGU1JFcpz,DU_0470-R,1,11.7066,55.3391
sim-2NGU1JFcpz,DU_0470-R,2,10.8405,54.9556
sim-2NGU1JFcpz,DU_0470-R,3,10.0562,54.9421
sim-2NGU1JFcpz,DU_0470-R,4,9.34391,54.8048
sim-2NGU1JFcpz,DU_0470-R,5,8.68451,54.0989
sim-2NGU1JFcpz,DU_0470-R,6,8.08574,53.9561
sim-2NGU1JFcpz,DU_0470-R,7,7.53009,53.6163
sim-2NGU1JFcpz,DU_0470-R,8,7.02171,53.4437
sim-2NGU1JFcpz,DU_0470-R,9,6.54985,52.8707
sim-2NGU1JFcpz,DU_0470-R,10,6.11667,52.4924
sim-2NGU1JFcpz,DU_0470-R,11,5.71288,52.0928
sim-2NGU1JFcpz,DU_0470-R,12,5.34219,52.0582
sim-2NGU1JFcpz,DU_0470-R,13,4.99573,51.2755
sim-2NGU1JFcpz,DU_0470-R,14,4.67564,51.1826
sim-2NGU1JFcpz,DU_0470-R,15,4.37722,50.703
sim-2NGU1JFcpz,DU_0470-R,16,4.10042,50.6019
sim-2NGU1JFcpz,DU_0470-R,17,3.84111,50.3262
sim-2NGU1JFcpz,DU_0470-R,18,3.60065,50.2475
sim-2NGU1JFcpz,DU_0470-R,19,3.37534,49.8679
sim-2NGU1JFcpz,DU_0470-R,20,3.16526,49.7889
sim-2NGU1JFcpz,DU_0470-R,20.4286,3.07928,49.5154
sim-eVC7cP5RXh,DU_0525-L,0,7.94,30.8418
sim-eVC7cP5RXh,DU_0525-L,1,7.75888,31.0955
sim-eVC7cP5RXh,DU_0525-L,2,7.14315,30.8289
sim-eVC7cP5RXh,DU_0525-L,3,6.58317,30.506
sim-eVC7cP5RXh,DU_0525-L,4,6.07896,30.1883
sim-eVC7cP5RXh,DU_0525-L,5,5.61257,29.2598
sim-eVC7cP5RXh,DU_0525-L,6,5.19164,29.1751
sim-eVC7cP5RXh,DU_0525-L,7,4.80147,28.1543
sim-eVC7cP5RXh,DU_0525-L,8,4.4478,28.1437
sim-eVC7cP5RXh,DU_0525-L,9,4.12045,27.0414
sim-eVC7cP5RXh,DU_0525-L,10,3.82325,27.0345
sim-eVC7cP5RXh,DU_0525-L,11,3.54641,26.3933
sim-eVC7cP5RXh,DU_0525-L,12,3.29557,26.3837
sim-eVC7cP5RXh,DU_0525-L,13,3.06168,25.5673
sim-eVC7cP5RXh,DU_0525-L,14,2.84865,25.5579
sim-eVC7cP5RXh,DU_0525-L,15,2.65031,24.8569
sim-eVC7cP5RXh,DU_0525-L,16,2.46898,24.8477
sim-eVC7cP5RXh,DU_0525-L,17,2.29949,24.2699
sim-eVC7cP5RXh,DU_0525-L,18,2.14471,24.2617
sim-eVC7cP5RXh,DU_0525-L,19,2.00007,23.617
sim-eVC7cP5RXh,DU_0525-L,20,1.86732,23.6086
sim-eVC7cP5RXh,DU_0525-L,20.4286,1.81287,23.0374
sim-d4wZp2PbW2,DU_0539-R,0,43.6311,91.7984
sim-d4wZp2PbW2,DU_0539-R,1,41.2073,91.8001
sim-d4wZp2PbW2,DU_0539-R,2,36.6583,91.8026
sim-d4wZp2PbW2,DU_0539-R,3,32.6252,91.3733
sim-d4wZp2PbW2,DU_0539-R,4,29.0524,90.9436
sim-d4wZp2PbW2,DU_0539-R,5,25.8691,90.1671
sim-d4wZp2PbW2,DU_0539-R,6,23.0517,89.5839
sim-d4wZp2PbW2,DU_0539-R,7,20.5411,89.1504
sim-d4wZp2PbW2,DU_0539-R,8,18.3129,88.7155
sim-d4wZp2PbW2,DU_0539-R,9,16.3301,88.0343
sim-d4wZp2PbW2,DU_0539-R,10,14.5687,87.5968
sim-d4wZp2PbW2,DU_0539-R,11,12.9972,87.2049
sim-d4wZp2PbW2,DU_0539-R,12,11.6031,87.0186
sim-d4wZp2PbW2,DU_0539-R,13,10.3577,86.1703
sim-d4wZp2PbW2,DU_0539-R,14,9.25007,86.1776
sim-d4wZp2PbW2,DU_0539-R,15,8.26182,85.7456
sim-d4wZp2PbW2,DU_0539-R,16,7.38208,85.724
sim-d4wZp2PbW2,DU_0539-R,17,6.59532,85.2892
sim-d4wZp2PbW2,DU_0539-R,18,5.89562,85.2936
sim-d4wZp2PbW2,DU_0539-R,19,5.26895,84.5887
sim-d4wZp2PbW2,DU_0539-R,20,4.71071,84.5925
sim-d4wZp2PbW2,DU_0539-R,20.4286,4.48972,84.3455
sim-dmeeXr5eQy,DU_0552-L,0,2.67537,23.3396
sim-dmeeXr5eQy,DU_0552-L,1,2.55248,23.3396
sim-dmeeXr5eQy,DU_0552-L,2,2.29248,23.3387
sim-dmeeXr5eQy,DU_0552-L,3,2.05942,22.6462
sim-dmeeXr5eQy,DU_0552-L,4,1.84986,22.6451
sim-dmeeXr5eQy,DU_0552-L,5,1.66142,21.8621
sim-dmeeXr5eQy,DU_0552-L,6,1.49253,21.6866
sim-dmeeXr5eQy,DU_0552-L,7,1.34065,20.8727
sim-dmeeXr5eQy,DU_0552-L,8,1.20419,20.6028
sim-dmeeXr5eQy,DU_0552-L,9,1.08177,19.9938
sim-dmeeXr5eQy,DU_0552-L,10,0.971711,19.7453
sim-dmeeXr5eQy,DU_0552-L,11,0.87277,18.9207
sim-dmeeXr5eQy,DU_0552-L,12,0.78403,18.9194
sim-dmeeXr5eQy,DU_0552-L,13,0.704241,18.1908
sim-dmeeXr5eQy,DU_0552-L,14,0.632538,18.2025
sim-dmeeXr5eQy,DU_0552-L,15,0.568208,17.525
sim-dmeeXr5eQy,DU_0552-L,16,0.510366,17.4293
sim-dmeeXr5eQy,DU_0552-L,17,0.458386,17.1687
sim-dmeeXr5eQy,DU_0552-L,18,0.411754,17.1825
sim-dmeeXr5eQy,DU_0552-L,19,0.369831,16.3743
sim-dmeeXr5eQy,DU_0552-L,20,0.332161,15.9982
sim-dmeeXr5eQy,DU_0552-L,20.4286,0.317227,16.0073
sim-nVUVAE6SrN,DU_0559-R,0,26.1344,74.7693
sim-nVUVAE6SrN,DU_0559-R,1,25.8549,75.4071
sim-nVUVAE6SrN,DU_0559-R,2,24.0828,74.7494
sim-nVUVAE6SrN,DU_0559-R,3,22.4534,74.7457
sim-nVUVAE6SrN,DU_0559-R,4,20.9473,74.7402
sim-nVUVAE6SrN,DU_0559-R,5,19.5434,74.0922
sim-nVUVAE6SrN,DU_0559-R,6,18.2474,74.0884
sim-nVUVAE6SrN,DU_0559-R,7,17.0387,73.154
sim-nVUVAE6SrN,DU_0559-R,8,15.9169,73.151
sim-nVUVAE6SrN,DU_0559-R,9,14.8734,72.7335
sim-nVUVAE6SrN,DU_0559-R,10,13.9032,72.7314
sim-nVUVAE6SrN,DU_0559-R,11,12.9971,71.9541
sim-nVUVAE6SrN,DU_0559-R,12,12.1568,71.7888
sim-nVUVAE6SrN,DU_0559-R,13,11.3705,71.5949
sim-nVUVAE6SrN,DU_0559-R,14,10.6388,71.5951
sim-nVUVAE6SrN,DU_0559-R,15,9.95586,71.1266
sim-nVUVAE6SrN,DU_0559-R,16,9.31923,71.1288
sim-nVUVAE6SrN,DU_0559-R,17,8.72308,70.9379
sim-nVUVAE6SrN,DU_0559-R,18,8.16874,70.9467
sim-nVUVAE6SrN,DU_0559-R,19,7.64905,70.0241
sim-nVUVAE6SrN,DU_0559-R,20,7.16406,70.0273
sim-nVUVAE6SrN,DU_0559-R,20.4286,6.96574,70.0181
sim-BVdmvF8wMb,DU_0693-R,0,22.7319,73.6386
sim-BVdmvF8wMb,DU_0693-R,1,21.6203,73.6407
sim-BVdmvF8wMb,DU_0693-R,2,19.3618,73.6233
sim-BVdmvF8wMb,DU_0693-R,3,17.3453,73.2193
sim-BVdmvF8wMb,DU_0693-R,4,15.5417,72.5458
sim-BVdmvF8wMb,DU_0693-R,5,13.9249,71.9868
sim-BVdmvF8wMb,DU_0693-R,6,12.4816,71.4785
sim-BVdmvF8wMb,DU_0693-R,7,11.1878,70.7849
sim-BVdmvF8wMb,DU_0693-R,8,10.0298,70.2896
sim-BVdmvF8wMb,DU_0693-R,9,8.99349,69.6869
sim-BVdmvF8wMb,DU_0693-R,10,8.06535,69.194
sim-BVdmvF8wMb,DU_0693-R,11,7.23295,68.5192
sim-BVdmvF8wMb,DU_0693-R,12,6.48849,68.0348
sim-BVdmvF8wMb,DU_0693-R,13,5.82051,67.7785
sim-BVdmvF8wMb,DU_0693-R,14,5.22168,67.3897
sim-BVdmvF8wMb,DU_0693-R,15,4.6852,67.042
sim-BVdmvF8wMb,DU_0693-R,16,4.20385,66.4776
sim-BVdmvF8wMb,DU_0693-R,17,3.77167,66.3397
sim-BVdmvF8wMb,DU_0693-R,18,3.38456,66.0555
sim-BVdmvF8wMb,DU_0693-R,19,3.03679,66.0461
sim-BVdmvF8wMb,DU_0693-R,20,2.72473,66.044
sim-BVdmvF8wMb,DU_0693-R,20.4286,2.60108,65.3746
sim-EK1wJwAQUV,DU_0735-R,0,18.3334,52.1147
sim-EK1wJwAQUV,DU_0735-R,1,17.2418,52.1268
sim-EK1wJwAQUV,DU_0735-R,2,15.268,51.6719
sim-EK1wJwAQUV,DU_0735-R,3,13.5236,50.7433
sim-EK1wJwAQUV,DU_0735-R,4,11.9846,50.2533
sim-EK1wJwAQUV,DU_0735-R,5,10.6215,49.0895
sim-EK1wJwAQUV,DU_0735-R,6,9.42076,48.3305
sim-EK1wJwAQUV,DU_0735-R,7,8.35742,47.4066
sim-EK1wJwAQUV,DU_0735-R,8,7.41845,47.0833
sim-EK1wJwAQUV,DU_0735-R,9,6.58804,46.2726
sim-EK1wJwAQUV,DU_0735-R,10,5.85438,45.5204
sim-EK1wJwAQUV,DU_0735-R,11,5.20356,44.8548
sim-EK1wJwAQUV,DU_0735-R,12,4.62958,44.4218
sim-EK1wJwAQUV,DU_0735-R,13,4.11959,43.393
sim-EK1wJwAQUV,DU_0735-R,14,3.66894,42.9545
sim-EK1wJwAQUV,DU_0735-R,15,3.2685,42.3886
sim-EK1wJwAQUV,DU_0735-R,16,2.91434,41.9481
sim-EK1wJwAQUV,DU_0735-R,17,2.59868,41.6916
sim-EK1wJwAQUV,DU_0735-R,18,2.31965,41.2487
sim-EK1wJwAQUV,DU_0735-R,19,2.07073,41.1244
sim-EK1wJwAQUV,DU_0735-R,20,1.85003,41.1208
sim-EK1wJwAQUV,DU_0735-R,20.4286,1.7627,40.2134
sim-aJY4ge1S9e,DU_0775-L,0,20.3934,80.8678
sim-aJY4ge1S9e,DU_0775-L,1,20.2521,81.1015
sim-aJY4ge1S9e,DU_0775-L,2,18.9305,80.8456
sim-aJY4ge1S9e,DU_0775-L,3,17.7116,80.8502
sim-aJY4ge1S9e,DU_0775-L,4,16.5787,80.8582
sim-aJY4ge1S9e,DU_0775-L,5,15.5193,80.5202
sim-aJY4ge1S9e,DU_0775-L,6,14.5364,80.5286
sim-aJY4ge1S9e,DU_0775-L,7,13.6161,80.3193
sim-aJY4ge1S9e,DU_0775-L,8,12.7571,80.2003
sim-aJY4ge1S9e,DU_0775-L,9,11.955,79.9103
sim-aJY4ge1S9e,DU_0775-L,10,11.205,79.6276
sim-aJY4ge1S9e,DU_0775-L,11,10.5019,79.3138
sim-aJY4ge1S9e,DU_0775-L,12,9.84605,79.2672
sim-aJY4ge1S9e,DU_0775-L,13,9.23082,79.0583
sim-aJY4ge1S9e,DU_0775-L,14,8.65479,78.9491
sim-aJY4ge1S9e,DU_0775-L,15,8.116,78.6016
sim-aJY4ge1S9e,DU_0775-L,16,7.61101,78.4717
sim-aJY4ge1S9e,DU_0775-L,17,7.13726,78.3352
sim-aJY4ge1S9e,DU_0775-L,18,6.69445,78.335
sim-aJY4ge1S9e,DU_0775-L,19,6.2788,78.1192
sim-aJY4ge1S9e,DU_0775-L,20,5.88905,78.1186
sim-aJY4ge1S9e,DU_0775-L,20.4286,5.72974,77.4219
sim-Te4fDXYXr5,ISPY2_0026-L,0,20.2812,78.778
sim-Te4fDXYXr5,ISPY2_0026-L,1,19.8188,79.1589
sim-Te4fDXYXr5,ISPY2_0026-L,2,18.2464,78.7189
sim-Te4fDXYXr5,ISPY2_0026-L,3,16.8271,78.7506
sim-Te4fDXYXr5,ISPY2_0026-L,4,15.5513,78.7874
sim-Te4fDXYXr5,ISPY2_0026-L,5,14.3712,78.4388
sim-Te4fDXYXr5,ISPY2_0026-L,6,13.3092,78.484
sim-Te4fDXYXr5,ISPY2_0026-L,7,12.3269,78.4647
sim-Te4fDXYXr5,ISPY2_0026-L,8,11.4373,78.3332
sim-Te4fDXYXr5,ISPY2_0026-L,9,10.6144,77.8781
sim-Te4fDXYXr5,ISPY2_0026-L,10,9.86665,77.9267
sim-Te4fDXYXr5,ISPY2_0026-L,11,9.17208,77.7319
sim-Te4fDXYXr5,ISPY2_0026-L,12,8.54086,77.7775
sim-Te4fDXYXr5,ISPY2_0026-L,13,7.95284,77.1339
sim-Te4fDXYXr5,ISPY2_0026-L,14,7.41513,77.1779
sim-Te4fDXYXr5,ISPY2_0026-L,15,6.91554,77.0086
sim-Te4fDXYXr5,ISPY2_0026-L,16,6.45661,76.9972
sim-Te4fDXYXr5,ISPY2_0026-L,17,6.0285,76.4178
sim-Te4fDXYXr5,ISPY2_0026-L,18,5.63496,76.4453
sim-Te4fDXYXr5,ISPY2_0026-L,19,5.26746,76.3863
sim-Te4fDXYXr5,ISPY2_0026-L,20,4.92764,76.4119
sim-Te4fDXYXr5,ISPY2_0026-L,20.4286,4.78889,75.7372
sim-9VkpMncrK6,ISPY2_0026-R,0,17.9236,59.8493
sim-9VkpMncrK6,ISPY2_0026-R,1,17.5825,60.294
sim-9VkpMncrK6,ISPY2_0026-R,2,16.2444,59.8452
sim-9VkpMncrK6,ISPY2_0026-R,3,15.022,59.5462
sim-9VkpMncrK6,ISPY2_0026-R,4,13.907,59.3941
sim-9VkpMncrK6,ISPY2_0026-R,5,12.8778,58.6508
sim-9VkpMncrK6,ISPY2_0026-R,6,11.9373,58.0552
sim-9VkpMncrK6,ISPY2_0026-R,7,11.0697,57.8857
sim-9VkpMncrK6,ISPY2_0026-R,8,10.2734,57.4417
sim-9VkpMncrK6,ISPY2_0026-R,9,9.53971,56.6747
sim-9VkpMncrK6,ISPY2_0026-R,10,8.86604,56.231
sim-9VkpMncrK6,ISPY2_0026-R,11,8.2418,55.7874
sim-9VkpMncrK6,ISPY2_0026-R,12,7.67024,55.3446
sim-9VkpMncrK6,ISPY2_0026-R,13,7.13894,54.692
sim-9VkpMncrK6,ISPY2_0026-R,14,6.65074,54.5786
sim-9VkpMncrK6,ISPY2_0026-R,15,6.19762,53.9833
sim-9VkpMncrK6,ISPY2_0026-R,16,5.77993,53.7984
sim-9VkpMncrK6,ISPY2_0026-R,17,5.39059,53.2146
sim-9VkpMncrK6,ISPY2_0026-R,18,5.03219,53.2005
sim-9VkpMncrK6,ISPY2_0026-R,19,4.6977,52.5511
sim-9VkpMncrK6,ISPY2_0026-R,20,4.38849,52.5445
sim-9VkpMncrK6,ISPY2_0026-R,20.4286,4.26225,52.1175
sim-2ELER2r5GM,ISPY2_0055-L,0,57.9178,99.8157
sim-2ELER2r5GM,ISPY2_0055-L,1,56.947,99.9367
sim-2ELER2r5GM,ISPY2_0055-L,2,52.7192,99.8062
sim-2ELER2r5GM,ISPY2_0055-L,3,48.8763,99.7997
sim-2ELER2r5GM,ISPY2_0055-L,4,45.37,99.7915
sim-2ELER2r5GM,ISPY2_0055-L,5,42.1203,99.2736
sim-2ELER2r5GM,ISPY2_0055-L,6,39.1527,98.8746
sim-2ELER2r5GM,ISPY2_0055-L,7,36.4013,98.463
sim-2ELER2r5GM,ISPY2_0055-L,8,33.8738,98.4554
sim-2ELER2r5GM,ISPY2_0055-L,9,31.5344,97.7745
sim-2ELER2r5GM,ISPY2_0055-L,10,29.3806,97.767
sim-2ELER2r5GM,ISPY2_0055-L,11,27.3785,97.2149
sim-2ELER2r5GM,ISPY2_0055-L,12,25.5375,97.2039
sim-2ELER2r5GM,ISPY2_0055-L,13,23.8226,96.4957
sim-2ELER2r5GM,ISPY2_0055-L,14,22.2385,96.4875
sim-2ELER2r5GM,ISPY2_0055-L,15,20.7659,96.3622
sim-2ELER2r5GM,ISPY2_0055-L,16,19.4022,96.3544
sim-2ELER2r5GM,ISPY2_0055-L,17,18.129,95.6708
sim-2ELER2r5GM,ISPY2_0055-L,18,16.9516,95.663
sim-2ELER2r5GM,ISPY2_0055-L,19,15.8509,95.5371
sim-2ELER2r5GM,ISPY2_0055-L,20,14.8286,95.5305
sim-2ELER2r5GM,ISPY2_0055-L,20.4286,14.411,94.9426
sim-E1nMNWpHYn,ISPY2_0055-R,0,3.54025,57.6403
sim-E1nMNWpHYn,ISPY2_0055-R,1,3.52542,57.6411
sim-E1nMNWpHYn,ISPY2_0055-R,2,3.30374,57.6391
sim-E1nMNWpHYn,ISPY2_0055-R,3,3.09692,57.638
sim-E1nMNWpHYn,ISPY2_0055-R,4,2.90275,57.6371
sim-E1nMNWpHYn,ISPY2_0055-R,5,2.72045,57.6352
sim-E1nMNWpHYn,ISPY2_0055-R,6,2.55012,57.6343
sim-E1nMNWpHYn,ISPY2_0055-R,7,2.39016,56.7938
sim-E1nMNWpHYn,ISPY2_0055-R,8,2.24011,56.7929
sim-E1nMNWpHYn,ISPY2_0055-R,9,2.09978,56.7804
sim-E1nMNWpHYn,ISPY2_0055-R,10,1.96804,56.7796
sim-E1nMNWpHYn,ISPY2_0055-R,11,1.84444,56.2542
sim-E1nMNWpHYn,ISPY2_0055-R,12,1.72882,56.2536
sim-E1nMNWpHYn,ISPY2_0055-R,13,1.62029,55.9752
sim-E1nMNWpHYn,ISPY2_0055-R,14,1.51849,55.9747
sim-E1nMNWpHYn,ISPY2_0055-R,15,1.42326,55.4387
sim-E1nMNWpHYn,ISPY2_0055-R,16,1.33387,55.4374
sim-E1nMNWpHYn,ISPY2_0055-R,17,1.25003,55.4327
sim-E1nMNWpHYn,ISPY2_0055-R,18,1.17159,55.4321
sim-E1nMNWpHYn,ISPY2_0055-R,19,1.09798,54.5815
sim-E1nMNWpHYn,ISPY2_0055-R,20,1.02894,54.5813
sim-E1nMNWpHYn,ISPY2_0055-R,20.4286,1.00073,54.5795
sim-y5RRmRCxDY,ISPY2_0087-R,0,5.097,27.6443
sim-y5RRmRCxDY,ISPY2_0087-R,1,4.80855,27.6584
sim-y5RRmRCxDY,ISPY2_0087-R,2,4.27311,27.695
sim-y5RRmRCxDY,ISPY2_0087-R,3,3.79806,27.1113
sim-y5RRmRCxDY,ISPY2_0087-R,4,3.37808,27.0632
sim-y5RRmRCxDY,ISPY2_0087-R,5,3.00443,26.1689
sim-y5RRmRCxDY,ISPY2_0087-R,6,2.67446,26.0355
sim-y5RRmRCxDY,ISPY2_0087-R,7,2.38095,24.9876
sim-y5RRmRCxDY,ISPY2_0087-R,8,2.1212,24.9292
sim-y5RRmRCxDY,ISPY2_0087-R,9,1.89027,24.2106
sim-y5RRmRCxDY,ISPY2_0087-R,10,1.68584,24.2345
sim-y5RRmRCxDY,ISPY2_0087-R,11,1.50353,23.364
sim-y5RRmRCxDY,ISPY2_0087-R,12,1.34232,23.3765
sim-y5RRmRCxDY,ISPY2_0087-R,13,1.19845,22.5896
sim-y5RRmRCxDY,ISPY2_0087-R,14,1.07081,22.6076
sim-y5RRmRCxDY,ISPY2_0087-R,15,0.957011,21.7691
sim-y5RRmRCxDY,ISPY2_0087-R,16,0.855839,21.7224
sim-y5RRmRCxDY,ISPY2_0087-R,17,0.765447,21.0606
sim-y5RRmRCxDY,ISPY2_0087-R,18,0.68511,21.0142
sim-y5RRmRCxDY,ISPY2_0087-R,19,0.613275,20.3662
sim-y5RRmRCxDY,ISPY2_0087-R,20,0.549225,20.3709
sim-y5RRmRCxDY,ISPY2_0087-R,20.4286,0.5239,19.6987
sim-LbK1aE9exZ,ISPY2_0115-L,0,2.58338,22.1849
sim-LbK1aE9exZ,ISPY2_0115-L,1,2.51729,22.1829
sim-LbK1aE9exZ,ISPY2_0115-L,2,2.31273,22.1792
sim-LbK1aE9exZ,ISPY2_0115-L,3,2.12815,22.1724
sim-LbK1aE9exZ,ISPY2_0115-L,4,1.96242,21.9613
sim-LbK1aE9exZ,ISPY2_0115-L,5,1.80945,21.3174
sim-LbK1aE9exZ,ISPY2_0115-L,6,1.67201,21.3173
sim-LbK1aE9exZ,ISPY2_0115-L,7,1.54466,20.5208
sim-LbK1aE9exZ,ISPY2_0115-L,8,1.42962,20.5176
sim-LbK1aE9exZ,ISPY2_0115-L,9,1.32312,19.875
sim-LbK1aE9exZ,ISPY2_0115-L,10,1.22665,19.8723
sim-LbK1aE9exZ,ISPY2_0115-L,11,1.13682,19.03
sim-LbK1aE9exZ,ISPY2_0115-L,12,1.05565,19.0283
sim-LbK1aE9exZ,ISPY2_0115-L,13,0.980261,18.5038
sim-LbK1aE9exZ,ISPY2_0115-L,14,0.911586,18.5045
sim-LbK1aE9exZ,ISPY2_0115-L,15,0.847776,18.0219
sim-LbK1aE9exZ,ISPY2_0115-L,16,0.789467,18.0235
sim-LbK1aE9exZ,ISPY2_0115-L,17,0.735228,17.6462
sim-LbK1aE9exZ,ISPY2_0115-L,18,0.685617,17.646
sim-LbK1aE9exZ,ISPY2_0115-L,19,0.639305,16.9791
sim-LbK1aE9exZ,ISPY2_0115-L,20,0.596742,17.4136
sim-LbK1aE9exZ,ISPY2_0115-L,20.4286,0.579361,17.1188
sim-7nt8JAs8bc,ISPY2_0136-R,0,4.509,29.1307
sim-7nt8JAs8bc,ISPY2_0136-R,1,4.2931,29.127
sim-7nt8JAs8bc,ISPY2_0136-R,2,3.84961,29.127
sim-7nt8JAs8bc,ISPY2_0136-R,3,3.453,28.7458
sim-7nt8JAs8bc,ISPY2_0136-R,4,3.0982,28.744
sim-7nt8JAs8bc,ISPY2_0136-R,5,2.77957,27.6541
sim-7nt8JAs8bc,ISPY2_0136-R,6,2.49509,27.6574
sim-7nt8JAs8bc,ISPY2_0136-R,7,2.23961,26.9236
sim-7nt8JAs8bc,ISPY2_0136-R,8,2.01088,26.9095
sim-7nt8JAs8bc,ISPY2_0136-R,9,1.80593,25.8151
sim-7nt8JAs8bc,ISPY2_0136-R,10,1.62221,25.6347
sim-7nt8JAs8bc,ISPY2_0136-R,11,1.45719,25.2485
sim-7nt8JAs8bc,ISPY2_0136-R,12,1.30947,25.22
sim-7nt8JAs8bc,ISPY2_0136-R,13,1.17671,24.5098
sim-7nt8JAs8bc,ISPY2_0136-R,14,1.05758,24.5112
sim-7nt8JAs8bc,ISPY2_0136-R,15,0.950712,23.5735
sim-7nt8JAs8bc,ISPY2_0136-R,16,0.854712,23.574
sim-7nt8JAs8bc,ISPY2_0136-R,17,0.76842,23.1288
sim-7nt8JAs8bc,ISPY2_0136-R,18,0.691005,23.1332
sim-7nt8JAs8bc,ISPY2_0136-R,19,0.62137,22.5069
sim-7nt8JAs8bc,ISPY2_0136-R,20,0.558755,22.5096
sim-7nt8JAs8bc,ISPY2_0136-R,20.4286,0.533917,22.1985
sim-K2ASeCFcCZ,ISPY2_0175-R,0,18.1757,38.4495
sim-K2ASeCFcCZ,ISPY2_0175-R,1,17.3033,38.4503
sim-K2ASeCFcCZ,ISPY2_0175-R,2,15.5151,38.0816
sim-K2ASeCFcCZ,ISPY2_0175-R,3,13.9169,37.3413
sim-K2ASeCFcCZ,ISPY2_0175-R,4,12.4839,36.9367
sim-K2ASeCFcCZ,ISPY2_0175-R,5,11.1989,35.7192
sim-K2ASeCFcCZ,ISPY2_0175-R,6,10.0495,35.3152
sim-K2ASeCFcCZ,ISPY2_0175-R,7,9.01853,34.3857
sim-K2ASeCFcCZ,ISPY2_0175-R,8,8.09374,33.7354
sim-K2ASeCFcCZ,ISPY2_0175-R,9,7.26572,39.8952
sim-K2ASeCFcCZ,ISPY2_0175-R,10,6.52251,39.0387
sim-K2ASeCFcCZ,ISPY2_0175-R,11,5.85537,38.6804
sim-K2ASeCFcCZ,ISPY2_0175-R,12,5.25757,38.2324
sim-K2ASeCFcCZ,ISPY2_0175-R,13,4.7207,37.0868
sim-K2ASeCFcCZ,ISPY2_0175-R,14,4.23864,36.6999
sim-K2ASeCFcCZ,ISPY2_0175-R,15,3.8064,36.0421
sim-K2ASeCFcCZ,ISPY2_0175-R,16,3.41812,35.8317
sim-K2ASeCFcCZ,ISPY2_0175-R,17,3.06929,35.2336
sim-K2ASeCFcCZ,ISPY2_0175-R,18,2.75638,34.8156
sim-K2ASeCFcCZ,ISPY2_0175-R,19,2.47523,34.387
sim-K2ASeCFcCZ,ISPY2_0175-R,20,2.22263,34.3575
sim-K2ASeCFcCZ,ISPY2_0175-R,20.4286,2.12249,33.7891
sim-Vs2ZvS7SGd,ISPY2_0176-L,0,11.3689,61.558
sim-Vs2ZvS7SGd,ISPY2_0176-L,1,10.7808,61.5501
sim-Vs2ZvS7SGd,ISPY2_0176-L,2,9.6277,61.5359
sim-Vs2ZvS7SGd,ISPY2_0176-L,3,8.60428,61.5131
sim-Vs2ZvS7SGd,ISPY2_0176-L,4,7.69445,61.4894
sim-Vs2ZvS7SGd,ISPY2_0176-L,5,6.88167,60.4776
sim-Vs2ZvS7SGd,ISPY2_0176-L,6,6.15961,60.4553
sim-Vs2ZvS7SGd,ISPY2_0176-L,7,5.51388,59.8925
sim-Vs2ZvS7SGd,ISPY2_0176-L,8,4.93808,59.8663
sim-Vs2ZvS7SGd,ISPY2_0176-L,9,4.42363,59.8019
sim-Vs2ZvS7SGd,ISPY2_0176-L,10,3.96417,59.7738
sim-Vs2ZvS7SGd,ISPY2_0176-L,11,3.55261,58.8326
sim-Vs2ZvS7SGd,ISPY2_0176-L,12,3.18527,58.8103
sim-Vs2ZvS7SGd,ISPY2_0176-L,13,2.85602,58.7428
sim-Vs2ZvS7SGd,ISPY2_0176-L,14,2.56128,58.7183
sim-Vs2ZvS7SGd,ISPY2_0176-L,15,2.29747,58.6914
sim-Vs2ZvS7SGd,ISPY2_0176-L,16,2.06099,58.6735
sim-Vs2ZvS7SGd,ISPY2_0176-L,17,1.84881,58.0651
sim-Vs2ZvS7SGd,ISPY2_0176-L,18,1.65885,58.6095
sim-Vs2ZvS7SGd,ISPY2_0176-L,19,1.48837,58.0133
sim-Vs2ZvS7SGd,ISPY2_0176-L,20,1.33542,57.9714
sim-Vs2ZvS7SGd,ISPY2_0176-L,20.4286,1.27481,55.7849
sim-FgfJkQ9Vtr,ISPY2_0176-R,0,8.74562,87.5927
sim-FgfJkQ9Vtr,ISPY2_0176-R,1,8.31548,87.5952
sim-FgfJkQ9Vtr,ISPY2_0176-R,2,7.44472,87.5989
sim-FgfJkQ9Vtr,ISPY2_0176-R,3,6.66748,87.6028
sim-FgfJkQ9Vtr,ISPY2_0176-R,4,5.973,87.4047
sim-FgfJkQ9Vtr,ISPY2_0176-R,5,5.35035,87.0554
sim-FgfJkQ9Vtr,ISPY2_0176-R,6,4.7951,86.3691
sim-FgfJkQ9Vtr,ISPY2_0176-R,7,4.29735,85.9315
sim-FgfJkQ9Vtr,ISPY2_0176-R,8,3.85217,85.5237
sim-FgfJkQ9Vtr,ISPY2_0176-R,9,3.45376,85.0975
sim-FgfJkQ9Vtr,ISPY2_0176-R,10,3.09711,84.4887
sim-FgfJkQ9Vtr,ISPY2_0176-R,11,2.77723,84.4238
sim-FgfJkQ9Vtr,ISPY2_0176-R,12,2.49124,84.0086
sim-FgfJkQ9Vtr,ISPY2_0176-R,13,2.23457,84.014
sim-FgfJkQ9Vtr,ISPY2_0176-R,14,2.00455,83.5988
sim-FgfJkQ9Vtr,ISPY2_0176-R,15,1.79848,83.3961
sim-FgfJkQ9Vtr,ISPY2_0176-R,16,1.61366,82.7879
sim-FgfJkQ9Vtr,ISPY2_0176-R,17,1.44774,82.7232
sim-FgfJkQ9Vtr,ISPY2_0176-R,18,1.29919,82.73
sim-FgfJkQ9Vtr,ISPY2_0176-R,19,1.16584,82.3121
sim-FgfJkQ9Vtr,ISPY2_0176-R,20,1.04619,82.3177
sim-FgfJkQ9Vtr,ISPY2_0176-R,20.4286,0.998784,81.4724
sim-DxPCYexPkr,NCH_0001-R,0,6.23762,66.885
sim-DxPCYexPkr,NCH_0001-R,1,6.55753,67.8869
sim-DxPCYexPkr,NCH_0001-R,2,6.75521,68.3825
sim-DxPCYexPkr,NCH_0001-R,3,6.95826,68.6931
sim-DxPCYexPkr,NCH_0001-R,4,7.16676,69.116
sim-DxPCYexPkr,NCH_0001-R,5,7.3791,69.3626
sim-DxPCYexPkr,NCH_0001-R,6,7.59782,69.4808
sim-DxPCYexPkr,NCH_0001-R,7,7.82068,69.9773
sim-DxPCYexPkr,NCH_0001-R,8,8.04917,70.035
sim-DxPCYexPkr,NCH_0001-R,9,8.28163,70.1682
sim-DxPCYexPkr,NCH_0001-R,10,8.51971,70.4727
sim-DxPCYexPkr,NCH_0001-R,11,8.76067,71.2423
sim-DxPCYexPkr,NCH_0001-R,12,9.00764,71.3477
sim-DxPCYexPkr,NCH_0001-R,13,9.25638,71.3466
sim-DxPCYexPkr,NCH_0001-R,14,9.51011,71.8175
sim-DxPCYexPkr,NCH_0001-R,15,9.76522,72.1213
sim-DxPCYexPkr,NCH_0001-R,16,10.0243,72.3424
sim-DxPCYexPkr,NCH_0001-R,17,10.2808,72.7257
sim-DxPCYexPkr,NCH_0001-R,18,10.5419,73.0115
sim-DxPCYexPkr,NCH_0001-R,19,10.8004,73.5149
sim-DxPCYexPkr,NCH_0001-R,20,11.0613,73.7198
sim-DxPCYexPkr,NCH_0001-R,20.4286,11.1703,73.4207
sim-DPQnBy4wVF,NCH_0013-R,0,4.1375,35.1425
sim-DPQnBy4wVF,NCH_0013-R,1,3.83643,35.1309
sim-DPQnBy4wVF,NCH_0013-R,2,3.28301,35.1079
sim-DPQnBy4wVF,NCH_0013-R,3,2.81061,34.3399
sim-DPQnBy4wVF,NCH_0013-R,4,2.4063,34.2499
sim-DPQnBy4wVF,NCH_0013-R,5,2.06003,33.4312
sim-DPQnBy4wVF,NCH_0013-R,6,1.76433,33.0654
sim-DPQnBy4wVF,NCH_0013-R,7,1.51098,32.3614
sim-DPQnBy4wVF,NCH_0013-R,8,1.29411,32.0093
sim-DPQnBy4wVF,NCH_0013-R,9,1.10864,31.94
sim-DPQnBy4wVF,NCH_0013-R,10,0.949735,31.5321
sim-DPQnBy4wVF,NCH_0013-R,11,0.813558,29.6797
sim-DPQnBy4wVF,NCH_0013-R,12,0.69707,29.6783
sim-DPQnBy4wVF,NCH_0013-R,13,0.597167,29.6801
sim-DPQnBy4wVF,NCH_0013-R,14,0.511546,29.2701
sim-DPQnBy4wVF,NCH_0013-R,15,0.438267,28.9851
sim-DPQnBy4wVF,NCH_0013-R,16,0.375432,28.6207
sim-DPQnBy4wVF,NCH_0013-R,17,0.321567,27.8427
sim-DPQnBy4wVF,NCH_0013-R,18,0.275473,27.8427
sim-DPQnBy4wVF,NCH_0013-R,19,0.235958,27.7616
sim-DPQnBy4wVF,NCH_0013-R,20,0.202093,27.7605
sim-DPQnBy4wVF,NCH_0013-R,20.4286,0.18912,27.762
sim-X6d8UD37Le,NCH_0015-R,0,4.60238,23.8083
sim-X6d8UD37Le,NCH_0015-R,1,4.73091,24.572
sim-X6d8UD37Le,NCH_0015-R,2,4.76808,25.2615
sim-X6d8UD37Le,NCH_0015-R,3,4.798,25.5706
sim-X6d8UD37Le,NCH_0015-R,4,4.83029,25.6235
sim-X6d8UD37Le,NCH_0015-R,5,4.85436,25.682
sim-X6d8UD37Le,NCH_0015-R,6,4.8782,25.7578
sim-X6d8UD37Le,NCH_0015-R,7,4.89905,26.1364
sim-X6d8UD37Le,NCH_0015-R,8,4.91929,26.1936
sim-X6d8UD37Le,NCH_0015-R,9,4.93696,26.4135
sim-X6d8UD37Le,NCH_0015-R,10,4.95387,26.6235
sim-X6d8UD37Le,NCH_0015-R,11,4.96739,26.9275
sim-X6d8UD37Le,NCH_0015-R,12,4.98029,26.9699
sim-X6d8UD37Le,NCH_0015-R,13,4.98947,27.0664
sim-X6d8UD37Le,NCH_0015-R,14,4.99755,27.4185
sim-X6d8UD37Le,NCH_0015-R,15,5.00207,27.7862
sim-X6d8UD37Le,NCH_0015-R,16,5.00541,27.8243
sim-X6d8UD37Le,NCH_0015-R,17,5.00491,28.0472
sim-X6d8UD37Le,NCH_0015-R,18,5.00361,28.1398
sim-X6d8UD37Le,NCH_0015-R,19,4.99832,28.297
sim-X6d8UD37Le,NCH_0015-R,20,4.99204,28.3252
sim-X6d8UD37Le,NCH_0015-R,20.4286,4.98793,28.3322
sim-6VNJ8ydEUQ,NCH_0021-R,0,12.9597,44.6862
sim-6VNJ8ydEUQ,NCH_0021-R,1,13.4121,45.6222
sim-6VNJ8ydEUQ,NCH_0021-R,2,13.6035,45.8838
sim-6VNJ8ydEUQ,NCH_0021-R,3,13.7848,46.5485
sim-6VNJ8ydEUQ,NCH_0021-R,4,13.9711,46.6721
sim-6VNJ8ydEUQ,NCH_0021-R,5,14.1436,47.3294
sim-6VNJ8ydEUQ,NCH_0021-R,6,14.32,47.3258
sim-6VNJ8ydEUQ,NCH_0021-R,7,14.4899,47.5831
sim-6VNJ8ydEUQ,NCH_0021-R,8,14.6616,47.5856
sim-6VNJ8ydEUQ,NCH_0021-R,9,14.8267,48.2
sim-6VNJ8ydEUQ,NCH_0021-R,10,14.9923,48.3268
sim-6VNJ8ydEUQ,NCH_0021-R,11,15.1478,48.3279
sim-6VNJ8ydEUQ,NCH_0021-R,12,15.3041,48.3109
sim-6VNJ8ydEUQ,NCH_0021-R,13,15.449,48.8774
sim-6VNJ8ydEUQ,NCH_0021-R,14,15.5929,49.0052
sim-6VNJ8ydEUQ,NCH_0021-R,15,15.7254,49.1663
sim-6VNJ8ydEUQ,NCH_0021-R,16,15.8557,49.2357
sim-6VNJ8ydEUQ,NCH_0021-R,17,15.9714,49.5459
sim-6VNJ8ydEUQ,NCH_0021-R,18,16.0853,49.6789
sim-6VNJ8ydEUQ,NCH_0021-R,19,16.1842,49.9009
sim-6VNJ8ydEUQ,NCH_0021-R,20,16.2797,49.8721
sim-6VNJ8ydEUQ,NCH_0021-R,20.4286,16.3149,49.9834
sim-Dy2WvM4LQw,NCH_0027-L,0,23.8031,58.2948
sim-Dy2WvM4LQw,NCH_0027-L,1,22.4541,58.2857
sim-Dy2WvM4LQw,NCH_0027-L,2,19.5754,57.6424
sim-Dy2WvM4LQw,NCH_0027-L,3,17.0805,56.5373
sim-Dy2WvM4LQw,NCH_0027-L,4,14.9213,55.6077
sim-Dy2WvM4LQw,NCH_0027-L,5,13.0458,54.1391
sim-Dy2WvM4LQw,NCH_0027-L,6,11.4241,53.0373
sim-Dy2WvM4LQw,NCH_0027-L,7,10.0143,52.1155
sim-Dy2WvM4LQw,NCH_0027-L,8,8.78962,51.015
sim-Dy2WvM4LQw,NCH_0027-L,9,7.72536,50.0941
sim-Dy2WvM4LQw,NCH_0027-L,10,6.79832,49.4552
sim-Dy2WvM4LQw,NCH_0027-L,11,5.98914,48.1973
sim-Dy2WvM4LQw,NCH_0027-L,12,5.28438,47.7371
sim-Dy2WvM4LQw,NCH_0027-L,13,4.66726,46.9321
sim-Dy2WvM4LQw,NCH_0027-L,14,4.12763,46.299
sim-Dy2WvM4LQw,NCH_0027-L,15,3.65468,45.0554
sim-Dy2WvM4LQw,NCH_0027-L,16,3.24019,45.6827
sim-Dy2WvM4LQw,NCH_0027-L,17,2.87488,44.439
sim-Dy2WvM4LQw,NCH_0027-L,18,2.55461,43.9914
sim-Dy2WvM4LQw,NCH_0027-L,19,2.27126,42.0708
sim-Dy2WvM4LQw,NCH_0027-L,20,2.02179,43.6481
sim-Dy2WvM4LQw,NCH_0027-L,20.4286,1.92366,41.0536
sim-wUhcVMdb69,NCH_0028-L,0,14.7709,32.9801
sim-wUhcVMdb69,NCH_0028-L,1,15.2902,34.0548
sim-wUhcVMdb69,NCH_0028-L,2,15.5098,34.1914
sim-wUhcVMdb69,NCH_0028-L,3,15.734,34.7074
sim-wUhcVMdb69,NCH_0028-L,4,15.9605,34.7865
sim-wUhcVMdb69,NCH_0028-L,5,16.1899,34.8408
sim-wUhcVMdb69,NCH_0028-L,6,16.4237,35.2376
sim-wUhcVMdb69,NCH_0028-L,7,16.6607,35.4068
sim-wUhcVMdb69,NCH_0028-L,8,16.901,35.5147
sim-wUhcVMdb69,NCH_0028-L,9,17.1463,35.8297
sim-wUhcVMdb69,NCH_0028-L,10,17.3951,35.9907
sim-wUhcVMdb69,NCH_0028-L,11,17.6479,36.0714
sim-wUhcVMdb69,NCH_0028-L,12,17.906,36.4141
sim-wUhcVMdb69,NCH_0028-L,13,18.1684,36.364
sim-wUhcVMdb69,NCH_0028-L,14,18.4352,36.67
sim-wUhcVMdb69,NCH_0028-L,15,18.708,36.731
sim-wUhcVMdb69,NCH_0028-L,16,18.9854,37.0309
sim-wUhcVMdb69,NCH_0028-L,17,19.2679,37.1119
sim-wUhcVMdb69,NCH_0028-L,18,19.5569,37.2432
sim-wUhcVMdb69,NCH_0028-L,19,19.8513,37.4329
sim-wUhcVMdb69,NCH_0028-L,20,20.1517,37.6661
sim-wUhcVMdb69,NCH_0028-L,20.4286,20.2825,37.6392
sim-GHebbCFhVw,NCH_0031-L,0,5.3785,49.4881
sim-GHebbCFhVw,NCH_0031-L,1,5.02004,49.4988
sim-GHebbCFhVw,NCH_0031-L,2,4.32853,49.4978
sim-GHebbCFhVw,NCH_0031-L,3,3.73496,49.082
sim-GHebbCFhVw,NCH_0031-L,4,3.22929,48.3705
sim-GHebbCFhVw,NCH_0031-L,5,2.79274,47.9713
sim-GHebbCFhVw,NCH_0031-L,6,2.42084,47.683
sim-GHebbCFhVw,NCH_0031-L,7,2.09941,46.7411
sim-GHebbCFhVw,NCH_0031-L,8,1.82478,46.5857
sim-GHebbCFhVw,NCH_0031-L,9,1.58707,46.1759
sim-GHebbCFhVw,NCH_0031-L,10,1.38365,46.1751
sim-GHebbCFhVw,NCH_0031-L,11,1.20676,44.6054
sim-GHebbCFhVw,NCH_0031-L,12,1.05541,45.4907
sim-GHebbCFhVw,NCH_0031-L,13,0.923482,43.7702
sim-GHebbCFhVw,NCH_0031-L,14,0.809992,43.768
sim-GHebbCFhVw,NCH_0031-L,15,0.710929,43.5613
sim-GHebbCFhVw,NCH_0031-L,16,0.625279,44.3784
sim-GHebbCFhVw,NCH_0031-L,17,0.550317,43.1413
sim-GHebbCFhVw,NCH_0031-L,18,0.485312,43.1374
sim-GHebbCFhVw,NCH_0031-L,19,0.428302,42.7208
sim-GHebbCFhVw,NCH_0031-L,20,0.378522,42.7171
sim-GHebbCFhVw,NCH_0031-L,20.4286,0.359105,42.6429
sim-J5TsH6957V,NCH_0034-L,0,2.88962,30.2599
sim-J5TsH6957V,NCH_0034-L,1,2.68567,30.2633
sim-J5TsH6957V,NCH_0034-L,2,2.30296,30.2766
sim-J5TsH6957V,NCH_0034-L,3,1.97527,29.6144
sim-J5TsH6957V,NCH_0034-L,4,1.69373,29.0191
sim-J5TsH6957V,NCH_0034-L,5,1.45201,28.5738
sim-J5TsH6957V,NCH_0034-L,6,1.24502,27.9916
sim-J5TsH6957V,NCH_0034-L,7,1.06733,27.4333
sim-J5TsH6957V,NCH_0034-L,8,0.914873,26.9856
sim-J5TsH6957V,NCH_0034-L,9,0.784328,26.2509
sim-J5TsH6957V,NCH_0034-L,10,0.672286,26.1256
sim-J5TsH6957V,NCH_0034-L,11,0.576186,25.2252
sim-J5TsH6957V,NCH_0034-L,12,0.493901,25.2363
sim-J5TsH6957V,NCH_0034-L,13,0.423295,24.3416
sim-J5TsH6957V,NCH_0034-L,14,0.362751,24.3539
sim-J5TsH6957V,NCH_0034-L,15,0.310912,23.927
sim-J5TsH6957V,NCH_0034-L,16,0.266435,23.9355
sim-J5TsH6957V,NCH_0034-L,17,0.2283,23.1982
sim-J5TsH6957V,NCH_0034-L,18,0.195652,23.2092
sim-J5TsH6957V,NCH_0034-L,19,0.167645,22.9158
sim-J5TsH6957V,NCH_0034-L,20,0.143636,23.0807
sim-J5TsH6957V,NCH_0034-L,20.4286,0.134436,22.0203
sim-6ra2WKRvYw,NCH_0037-L,0,6.04238,42.8047
sim-6ra2WKRvYw,NCH_0037-L,1,6.19102,43.6956
sim-6ra2WKRvYw,NCH_0037-L,2,6.21862,43.9779
sim-6ra2WKRvYw,NCH_0037-L,3,6.23987,44.2877
sim-6ra2WKRvYw,NCH_0037-L,4,6.26468,44.5522
sim-6ra2WKRvYw,NCH_0037-L,5,6.28108,44.3149
sim-6ra2WKRvYw,NCH_0037-L,6,6.29865,44.602
sim-6ra2WKRvYw,NCH_0037-L,7,6.31312,44.8633
sim-6ra2WKRvYw,NCH_0037-L,8,6.328,44.9063
sim-6ra2WKRvYw,NCH_0037-L,9,6.34073,45.1536
sim-6ra2WKRvYw,NCH_0037-L,10,6.35355,45.4488
sim-6ra2WKRvYw,NCH_0037-L,11,6.36323,45.4552
sim-6ra2WKRvYw,NCH_0037-L,12,6.37328,45.4927
sim-6ra2WKRvYw,NCH_0037-L,13,6.38,45.4608
sim-6ra2WKRvYw,NCH_0037-L,14,6.38651,45.7951
sim-6ra2WKRvYw,NCH_0037-L,15,6.38968,45.8003
sim-6ra2WKRvYw,NCH_0037-L,16,6.39244,45.8334
sim-6ra2WKRvYw,NCH_0037-L,17,6.39149,46.138
sim-6ra2WKRvYw,NCH_0037-L,18,6.3904,46.1419
sim-6ra2WKRvYw,NCH_0037-L,19,6.38504,46.3519
sim-6ra2WKRvYw,NCH_0037-L,20,6.37914,46.3751
sim-6ra2WKRvYw,NCH_0037-L,20.4286,6.37496,46.3767
sim-QmDCZWhAsP,NCH_0057-R,0,13.9895,63.9855
sim-QmDCZWhAsP,NCH_0057-R,1,13.4659,64.0066
sim-QmDCZWhAsP,NCH_0057-R,2,11.9647,63.5613
sim-QmDCZWhAsP,NCH_0057-R,3,10.6393,63.1251
sim-QmDCZWhAsP,NCH_0057-R,4,9.46599,62.6192
sim-QmDCZWhAsP,NCH_0057-R,5,8.42321,61.573
sim-QmDCZWhAsP,NCH_0057-R,6,7.50105,61.1337
sim-QmDCZWhAsP,NCH_0057-R,7,6.68122,60.1432
sim-QmDCZWhAsP,NCH_0057-R,8,5.95323,59.6412
sim-QmDCZWhAsP,NCH_0057-R,9,5.30726,58.7276
sim-QmDCZWhAsP,NCH_0057-R,10,4.73274,58.285
sim-QmDCZWhAsP,NCH_0057-R,11,4.22115,57.7625
sim-QmDCZWhAsP,NCH_0057-R,12,3.76704,57.3216
sim-QmDCZWhAsP,NCH_0057-R,13,3.36215,57.2148
sim-QmDCZWhAsP,NCH_0057-R,14,3.00162,56.754
sim-QmDCZWhAsP,NCH_0057-R,15,2.68074,55.7816
sim-QmDCZWhAsP,NCH_0057-R,16,2.39468,55.3228
sim-QmDCZWhAsP,NCH_0057-R,17,2.13938,55.8508
sim-QmDCZWhAsP,NCH_0057-R,18,1.91223,55.8805
sim-QmDCZWhAsP,NCH_0057-R,19,1.70926,55.4177
sim-QmDCZWhAsP,NCH_0057-R,20,1.52816,55.4537
sim-QmDCZWhAsP,NCH_0057-R,20.4286,1.45665,54.2288
sim-zUbg4RAc46,SPFD_0009-L,0,0.98,40.0964
sim-zUbg4RAc46,SPFD_0009-L,1,0.946759,40.0973
sim-zUbg4RAc46,SPFD_0009-L,2,0.844116,40.0969
sim-zUbg4RAc46,SPFD_0009-L,3,0.753241,40.0963
sim-zUbg4RAc46,SPFD_0009-L,4,0.672146,40.0956
sim-zUbg4RAc46,SPFD_0009-L,5,0.599709,39.2624
sim-zUbg4RAc46,SPFD_0009-L,6,0.535211,39.2611
sim-zUbg4RAc46,SPFD_0009-L,7,0.47758,38.8435
sim-zUbg4RAc46,SPFD_0009-L,8,0.426106,38.8422
sim-zUbg4RAc46,SPFD_0009-L,9,0.38026,38.4251
sim-zUbg4RAc46,SPFD_0009-L,10,0.339299,38.4241
sim-zUbg4RAc46,SPFD_0009-L,11,0.302731,37.7792
sim-zUbg4RAc46,SPFD_0009-L,12,0.270152,37.7783
sim-zUbg4RAc46,SPFD_0009-L,13,0.241053,37.3618
sim-zUbg4RAc46,SPFD_0009-L,14,0.21507,37.3611
sim-zUbg4RAc46,SPFD_0009-L,15,0.191927,36.944
sim-zUbg4RAc46,SPFD_0009-L,16,0.171251,36.9431
sim-zUbg4RAc46,SPFD_0009-L,17,0.152796,36.2997
sim-zUbg4RAc46,SPFD_0009-L,18,0.136353,36.2993
sim-zUbg4RAc46,SPFD_0009-L,19,0.121667,35.8821
sim-zUbg4RAc46,SPFD_0009-L,20,0.108555,35.8817
sim-zUbg4RAc46,SPFD_0009-L,20.4286,0.103384,35.6552
sim-tCnW7pKHnv,SPFD_0012-L,0,1.449,16.9983
sim-tCnW7pKHnv,SPFD_0012-L,1,1.34514,16.9949
sim-tCnW7pKHnv,SPFD_0012-L,2,1.15279,16.9894
sim-tCnW7pKHnv,SPFD_0012-L,3,0.988363,16.2763
sim-tCnW7pKHnv,SPFD_0012-L,4,0.847378,15.9401
sim-tCnW7pKHnv,SPFD_0012-L,5,0.726376,15.5218
sim-tCnW7pKHnv,SPFD_0012-L,6,0.622796,15.0087
sim-tCnW7pKHnv,SPFD_0012-L,7,0.533905,14.2489
sim-tCnW7pKHnv,SPFD_0012-L,8,0.457639,13.9721
sim-tCnW7pKHnv,SPFD_0012-L,9,0.392332,13.4762
sim-tCnW7pKHnv,SPFD_0012-L,10,0.336291,13.3678
sim-tCnW7pKHnv,SPFD_0012-L,11,0.288227,12.5982
sim-tCnW7pKHnv,SPFD_0012-L,12,0.247069,12.5519
sim-tCnW7pKHnv,SPFD_0012-L,13,0.21176,12.3682
sim-tCnW7pKHnv,SPFD_0012-L,14,0.181478,12.3347
sim-tCnW7pKHnv,SPFD_0012-L,15,0.155549,10.9438
sim-tCnW7pKHnv,SPFD_0012-L,16,0.133305,11.6687
sim-tCnW7pKHnv,SPFD_0012-L,17,0.114231,10.0788
sim-tCnW7pKHnv,SPFD_0012-L,18,0.0978993,10.0797
sim-tCnW7pKHnv,SPFD_0012-L,19,0.0838926,9.91031
sim-tCnW7pKHnv,SPFD_0012-L,20,0.0718836,9.91157
sim-tCnW7pKHnv,SPFD_0012-L,20.4286,0.0672812,9.34348
sim-T58wdEXBUB,SPFD_0015-L,0,39.5384,79.3148
sim-T58wdEXBUB,SPFD_0015-L,1,36.6625,79.315
sim-T58wdEXBUB,SPFD_0015-L,2,31.3707,78.9246
sim-T58wdEXBUB,SPFD_0015-L,3,26.8541,78.3968
sim-T58wdEXBUB,SPFD_0015-L,4,22.9882,77.8989
sim-T58wdEXBUB,SPFD_0015-L,5,19.6775,76.8929
sim-T58wdEXBUB,SPFD_0015-L,6,16.8495,76.3976
sim-T58wdEXBUB,SPFD_0015-L,7,14.4273,75.3133
sim-T58wdEXBUB,SPFD_0015-L,8,12.3532,74.8218
sim-T58wdEXBUB,SPFD_0015-L,9,10.5797,73.8467
sim-T58wdEXBUB,SPFD_0015-L,10,9.06019,73.7531
sim-T58wdEXBUB,SPFD_0015-L,11,7.7583,73.1754
sim-T58wdEXBUB,SPFD_0015-L,12,6.645,72.7452
sim-T58wdEXBUB,SPFD_0015-L,13,5.69087,71.8553
sim-T58wdEXBUB,SPFD_0015-L,14,4.87341,71.3665
sim-T58wdEXBUB,SPFD_0015-L,15,4.17404,71.2619
sim-T58wdEXBUB,SPFD_0015-L,16,3.57463,70.9631
sim-T58wdEXBUB,SPFD_0015-L,17,3.06101,70.2246
sim-T58wdEXBUB,SPFD_0015-L,18,2.62164,69.8165
sim-T58wdEXBUB,SPFD_0015-L,19,2.24514,68.7828
sim-T58wdEXBUB,SPFD_0015-L,20,1.92256,68.8219
sim-T58wdEXBUB,SPFD_0015-L,20.4286,1.799,68.1114
sim-5ET13DGrb3,SPFD_0017-L,0,3.27962,49.6107
sim-5ET13DGrb3,SPFD_0017-L,1,3.03773,49.6148
sim-5ET13DGrb3,SPFD_0017-L,2,2.59616,49.61
sim-5ET13DGrb3,SPFD_0017-L,3,2.21987,49.0547
sim-5ET13DGrb3,SPFD_0017-L,4,1.89854,48.7766
sim-5ET13DGrb3,SPFD_0017-L,5,1.62362,47.7603
sim-5ET13DGrb3,SPFD_0017-L,6,1.38936,47.7595
sim-5ET13DGrb3,SPFD_0017-L,7,1.18887,47.2907
sim-5ET13DGrb3,SPFD_0017-L,8,1.01756,47.064
sim-5ET13DGrb3,SPFD_0017-L,9,0.871223,45.9884
sim-5ET13DGrb3,SPFD_0017-L,10,0.746052,45.9877
sim-5ET13DGrb3,SPFD_0017-L,11,0.63887,45.6285
sim-5ET13DGrb3,SPFD_0017-L,12,0.547292,45.6272
sim-5ET13DGrb3,SPFD_0017-L,13,0.468827,45.0202
sim-5ET13DGrb3,SPFD_0017-L,14,0.401605,44.9773
sim-5ET13DGrb3,SPFD_0017-L,15,0.344076,44.4084
sim-5ET13DGrb3,SPFD_0017-L,16,0.294759,44.4081
sim-5ET13DGrb3,SPFD_0017-L,17,0.252491,44.1728
sim-5ET13DGrb3,SPFD_0017-L,18,0.216321,44.1737
sim-5ET13DGrb3,SPFD_0017-L,19,0.185318,43.6794
sim-5ET13DGrb3,SPFD_0017-L,20,0.15875,43.6808
sim-5ET13DGrb3,SPFD_0017-L,20.4286,0.14857,43.3195
sim-Y4fT5a2yDY,SPFD_0022-R,0,4.02325,57.041
sim-Y4fT5a2yDY,SPFD_0022-R,1,3.75677,57.0346
sim-Y4fT5a2yDY,SPFD_0022-R,2,3.24153,57.0253
sim-Y4fT5a2yDY,SPFD_0022-R,3,2.7987,56.3773
sim-Y4fT5a2yDY,SPFD_0022-R,4,2.42253,56.3683
sim-Y4fT5a2yDY,SPFD_0022-R,5,2.09732,55.5393
sim-Y4fT5a2yDY,SPFD_0022-R,6,1.82112,55.5309
sim-Y4fT5a2yDY,SPFD_0022-R,7,1.58217,54.5446
sim-Y4fT5a2yDY,SPFD_0022-R,8,1.37857,54.537
sim-Y4fT5a2yDY,SPFD_0022-R,9,1.20203,53.5039
sim-Y4fT5a2yDY,SPFD_0022-R,10,1.05139,53.383
sim-Y4fT5a2yDY,SPFD_0022-R,11,0.919952,52.9211
sim-Y4fT5a2yDY,SPFD_0022-R,12,0.807695,52.8256
sim-Y4fT5a2yDY,SPFD_0022-R,13,0.709592,52.4943
sim-Y4fT5a2yDY,SPFD_0022-R,14,0.625297,52.4875
sim-Y4fT5a2yDY,SPFD_0022-R,15,0.551456,51.7966
sim-Y4fT5a2yDY,SPFD_0022-R,16,0.487667,51.7896
sim-Y4fT5a2yDY,SPFD_0022-R,17,0.431628,51.3267
sim-Y4fT5a2yDY,SPFD_0022-R,18,0.38298,51.2145
sim-Y4fT5a2yDY,SPFD_0022-R,19,0.34007,51.2067
sim-Y4fT5a2yDY,SPFD_0022-R,20,0.302501,51.2026
sim-Y4fT5a2yDY,SPFD_0022-R,20.4286,0.287729,50.4665
sim-mLrzEWvNed,SPFD_0031-R,0,2.58112,36.7864
sim-mLrzEWvNed,SPFD_0031-R,1,2.38018,36.7822
sim-mLrzEWvNed,SPFD_0031-R,2,2.02345,36.7729
sim-mLrzEWvNed,SPFD_0031-R,3,1.72069,36.2793
sim-mLrzEWvNed,SPFD_0031-R,4,1.46318,35.3055
sim-mLrzEWvNed,SPFD_0031-R,5,1.244,35.1727
sim-mLrzEWvNed,SPFD_0031-R,6,1.05807,34.5613
sim-mLrzEWvNed,SPFD_0031-R,7,0.899785,33.7099
sim-mLrzEWvNed,SPFD_0031-R,8,0.765233,33.2232
sim-mLrzEWvNed,SPFD_0031-R,9,0.65094,32.7345
sim-mLrzEWvNed,SPFD_0031-R,10,0.553732,32.2476
sim-mLrzEWvNed,SPFD_0031-R,11,0.471011,31.991
sim-mLrzEWvNed,SPFD_0031-R,12,0.400779,31.5028
sim-mLrzEWvNed,SPFD_0031-R,13,0.340995,31.0178
sim-mLrzEWvNed,SPFD_0031-R,14,0.290149,30.6557
sim-mLrzEWvNed,SPFD_0031-R,15,0.246938,30.4015
sim-mLrzEWvNed,SPFD_0031-R,16,0.210161,30.3995
sim-mLrzEWvNed,SPFD_0031-R,17,0.178855,29.5537
sim-mLrzEWvNed,SPFD_0031-R,18,0.15224,29.5515
sim-mLrzEWvNed,SPFD_0031-R,19,0.129568,28.9327
sim-mLrzEWvNed,SPFD_0031-R,20,0.110261,28.9317
sim-mLrzEWvNed,SPFD_0031-R,20.4286,0.1029,28.5668
sim-Q4zH7UbwJY,SPFD_0036-R,0,1.54675,22.107
sim-Q4zH7UbwJY,SPFD_0036-R,1,1.43622,22.0952
sim-Q4zH7UbwJY,SPFD_0036-R,2,1.23066,22.1012
sim-Q4zH7UbwJY,SPFD_0036-R,3,1.05494,21.3704
sim-Q4zH7UbwJY,SPFD_0036-R,4,0.904212,21.0118
sim-Q4zH7UbwJY,SPFD_0036-R,5,0.774864,20.5204
sim-Q4zH7UbwJY,SPFD_0036-R,6,0.664164,20.0859
sim-Q4zH7UbwJY,SPFD_0036-R,7,0.56917,19.5746
sim-Q4zH7UbwJY,SPFD_0036-R,8,0.487701,19.0274
sim-Q4zH7UbwJY,SPFD_0036-R,9,0.417969,18.5089
sim-Q4zH7UbwJY,SPFD_0036-R,10,0.358143,18.2875
sim-Q4zH7UbwJY,SPFD_0036-R,11,0.306849,17.9754
sim-Q4zH7UbwJY,SPFD_0036-R,12,0.262946,18.0084
sim-Q4zH7UbwJY,SPFD_0036-R,13,0.225288,17.2406
sim-Q4zH7UbwJY,SPFD_0036-R,14,0.193006,17.248
sim-Q4zH7UbwJY,SPFD_0036-R,15,0.165377,16.8459
sim-Q4zH7UbwJY,SPFD_0036-R,16,0.14168,16.8548
sim-Q4zH7UbwJY,SPFD_0036-R,17,0.12137,16.4967
sim-Q4zH7UbwJY,SPFD_0036-R,18,0.103988,16.5079
sim-Q4zH7UbwJY,SPFD_0036-R,19,0.0890823,15.8048
sim-Q4zH7UbwJY,SPFD_0036-R,20,0.0763072,15.8234
sim-Q4zH7UbwJY,SPFD_0036-R,20.4286,0.071412,15.7671
sim-2SZRGMEhdL,SPFD_0040-L,0,0.73625,49.2099
sim-2SZRGMEhdL,SPFD_0040-L,1,0.684082,49.21
sim-2SZRGMEhdL,SPFD_0040-L,2,0.586518,49.2096
sim-2SZRGMEhdL,SPFD_0040-L,3,0.502985,49.0988
sim-2SZRGMEhdL,SPFD_0040-L,4,0.431196,49.0975
sim-2SZRGMEhdL,SPFD_0040-L,5,0.369565,48.1539
sim-2SZRGMEhdL,SPFD_0040-L,6,0.316803,48.1226
sim-2SZRGMEhdL,SPFD_0040-L,7,0.271509,47.3258
sim-2SZRGMEhdL,SPFD_0040-L,8,0.232661,47.2994
sim-2SZRGMEhdL,SPFD_0040-L,9,0.199404,47.2734
sim-2SZRGMEhdL,SPFD_0040-L,10,0.170866,47.2706
sim-2SZRGMEhdL,SPFD_0040-L,11,0.1464,46.5128
sim-2SZRGMEhdL,SPFD_0040-L,12,0.125457,46.5133
sim-2SZRGMEhdL,SPFD_0040-L,13,0.107489,45.7878
sim-2SZRGMEhdL,SPFD_0040-L,14,0.0920883,45.7805
sim-2SZRGMEhdL,SPFD_0040-L,15,0.0789077,45.6666
sim-2SZRGMEhdL,SPFD_0040-L,16,0.0676012,45.6428
sim-2SZRGMEhdL,SPFD_0040-L,17,0.0579108,45.173
sim-2SZRGMEhdL,SPFD_0040-L,18,0.0496176,45.1787
sim-2SZRGMEhdL,SPFD_0040-L,19,0.0425055,44.9373
sim-2SZRGMEhdL,SPFD_0040-L,20,0.0364106,44.9434
sim-2SZRGMEhdL,SPFD_0040-L,20.4286,0.0340755,44.1765
sim-4aVFcPTsPx,SPFD_0044-R,0,29.1956,74.065
sim-4aVFcPTsPx,SPFD_0044-R,1,27.058,74.0594
sim-4aVFcPTsPx,SPFD_0044-R,2,23.1435,73.0893
sim-4aVFcPTsPx,SPFD_0044-R,3,19.8032,72.1318
sim-4aVFcPTsPx,SPFD_0044-R,4,16.9429,71.1711
sim-4aVFcPTsPx,SPFD_0044-R,5,14.4944,70.0207
sim-4aVFcPTsPx,SPFD_0044-R,6,12.4032,69.0625
sim-4aVFcPTsPx,SPFD_0044-R,7,10.6126,67.526
sim-4aVFcPTsPx,SPFD_0044-R,8,9.07984,66.8848
sim-4aVFcPTsPx,SPFD_0044-R,9,7.77022,65.9769
sim-4aVFcPTsPx,SPFD_0044-R,10,6.64869,65.4036
sim-4aVFcPTsPx,SPFD_0044-R,11,5.6887,63.9615
sim-4aVFcPTsPx,SPFD_0044-R,12,4.86825,63.5372
sim-4aVFcPTsPx,SPFD_0044-R,13,4.16566,62.9614
sim-4aVFcPTsPx,SPFD_0044-R,14,3.56419,61.4635
sim-4aVFcPTsPx,SPFD_0044-R,15,3.0501,61.4439
sim-4aVFcPTsPx,SPFD_0044-R,16,2.60979,60.5347
sim-4aVFcPTsPx,SPFD_0044-R,17,2.23287,60.6326
sim-4aVFcPTsPx,SPFD_0044-R,18,1.91069,60.6382
sim-4aVFcPTsPx,SPFD_0044-R,19,1.63481,59.7242
sim-4aVFcPTsPx,SPFD_0044-R,20,1.39864,59.7494
sim-4aVFcPTsPx,SPFD_0044-R,20.4286,1.30824,56.5499
sim-43zmFBXpM3,SPFD_0045-L,0,1.29037,22.1951
sim-43zmFBXpM3,SPFD_0045-L,1,1.19935,22.199
sim-43zmFBXpM3,SPFD_0045-L,2,1.02859,22.2099
sim-43zmFBXpM3,SPFD_0045-L,3,0.882342,21.9947
sim-43zmFBXpM3,SPFD_0045-L,4,0.756653,21.9398
sim-43zmFBXpM3,SPFD_0045-L,5,0.648725,21.0269
sim-43zmFBXpM3,SPFD_0045-L,6,0.556299,21.0407
sim-43zmFBXpM3,SPFD_0045-L,7,0.476955,20.1533
sim-43zmFBXpM3,SPFD_0045-L,8,0.408872,20.1593
sim-43zmFBXpM3,SPFD_0045-L,9,0.350576,19.7978
sim-43zmFBXpM3,SPFD_0045-L,10,0.300543,19.8105
sim-43zmFBXpM3,SPFD_0045-L,11,0.257621,19.2012
sim-43zmFBXpM3,SPFD_0045-L,12,0.220867,19.2126
sim-43zmFBXpM3,SPFD_0045-L,13,0.189332,17.3148
sim-43zmFBXpM3,SPFD_0045-L,14,0.162284,17.3125
sim-43zmFBXpM3,SPFD_0045-L,15,0.139122,16.4509
sim-43zmFBXpM3,SPFD_0045-L,16,0.119251,16.3847
sim-43zmFBXpM3,SPFD_0045-L,17,0.102207,16.256
sim-43zmFBXpM3,SPFD_0045-L,18,0.0876129,16.2529
sim-43zmFBXpM3,SPFD_0045-L,19,0.0750951,16.1702
sim-43zmFBXpM3,SPFD_0045-L,20,0.0643596,16.1666
sim-43zmFBXpM3,SPFD_0045-L,20.4286,0.0602454,14.2936
sim-vyh7ym3Ekt,SPFD_0050-R,0,7.27075,35.8256
sim-vyh7ym3Ekt,SPFD_0050-R,1,7.57894,36.9098
sim-vyh7ym3Ekt,SPFD_0050-R,2,7.74154,36.9774
sim-vyh7ym3Ekt,SPFD_0050-R,3,7.90059,37.5014
sim-vyh7ym3Ekt,SPFD_0050-R,4,8.06234,39.8364
sim-vyh7ym3Ekt,SPFD_0050-R,5,8.21943,38.071
sim-vyh7ym3Ekt,SPFD_0050-R,6,8.37783,38.0675
sim-vyh7ym3Ekt,SPFD_0050-R,7,8.53401,38.5986
sim-vyh7ym3Ekt,SPFD_0050-R,8,8.6907,38.6183
sim-vyh7ym3Ekt,SPFD_0050-R,9,8.8451,41.1603
sim-vyh7ym3Ekt,SPFD_0050-R,10,8.99949,41.3355
sim-vyh7ym3Ekt,SPFD_0050-R,11,9.15122,41.6928
sim-vyh7ym3Ekt,SPFD_0050-R,12,9.30378,41.7641
sim-vyh7ym3Ekt,SPFD_0050-R,13,9.45331,42.296
sim-vyh7ym3Ekt,SPFD_0050-R,14,9.60259,42.3684
sim-vyh7ym3Ekt,SPFD_0050-R,15,9.74981,42.5472
sim-vyh7ym3Ekt,SPFD_0050-R,16,9.89729,42.5487
sim-vyh7ym3Ekt,SPFD_0050-R,17,10.0411,43.0133
sim-vyh7ym3Ekt,SPFD_0050-R,18,10.1848,43.0163
sim-vyh7ym3Ekt,SPFD_0050-R,19,10.3247,43.3069
sim-vyh7ym3Ekt,SPFD_0050-R,20,10.4641,43.489
sim-vyh7ym3Ekt,SPFD_0050-R,20.4286,10.5219,43.6037
sim-cX5xgT6Y5K,SPFD_0061-L,0,9.8335,44.9584
sim-cX5xgT6Y5K,SPFD_0061-L,1,9.48177,44.9615
sim-cX5xgT6Y5K,SPFD_0061-L,2,8.43725,44.9834
sim-cX5xgT6Y5K,SPFD_0061-L,3,7.51206,45.0104
sim-cX5xgT6Y5K,SPFD_0061-L,4,6.68901,44.7199
sim-cX5xgT6Y5K,SPFD_0061-L,5,5.95604,44.3737
sim-cX5xgT6Y5K,SPFD_0061-L,6,5.30575,44.0802
sim-cX5xgT6Y5K,SPFD_0061-L,7,4.72651,43.2335
sim-cX5xgT6Y5K,SPFD_0061-L,8,4.21095,43.2485
sim-cX5xgT6Y5K,SPFD_0061-L,9,3.75287,42.5883
sim-cX5xgT6Y5K,SPFD_0061-L,10,3.34489,42.6012
sim-cX5xgT6Y5K,SPFD_0061-L,11,2.98131,42.3028
sim-cX5xgT6Y5K,SPFD_0061-L,12,2.65824,42.3129
sim-cX5xgT6Y5K,SPFD_0061-L,13,2.37005,42.0096
sim-cX5xgT6Y5K,SPFD_0061-L,14,2.11322,42.0188
sim-cX5xgT6Y5K,SPFD_0061-L,15,1.88467,41.3502
sim-cX5xgT6Y5K,SPFD_0061-L,16,1.6808,41.218
sim-cX5xgT6Y5K,SPFD_0061-L,17,1.49896,41.2266
sim-cX5xgT6Y5K,SPFD_0061-L,18,1.3371,41.2302
sim-cX5xgT6Y5K,SPFD_0061-L,19,1.1926,40.5605
sim-cX5xgT6Y5K,SPFD_0061-L,20,1.06365,40.5678
sim-cX5xgT6Y5K,SPFD_0061-L,20.4286,1.0128,33.4437
sim-XPfhRg7tW1,SPFD_0080-L,0,1.36438,33.1674
sim-XPfhRg7tW1,SPFD_0080-L,1,1.37012,33.3679
sim-XPfhRg7tW1,SPFD_0080-L,2,1.34835,33.1663
sim-XPfhRg7tW1,SPFD_0080-L,3,1.32723,33.1655
sim-XPfhRg7tW1,SPFD_0080-L,4,1.30658,33.1648
sim-XPfhRg7tW1,SPFD_0080-L,5,1.28637,33.164
sim-XPfhRg7tW1,SPFD_0080-L,6,1.26675,33.1632
sim-XPfhRg7tW1,SPFD_0080-L,7,1.24754,33.1622
sim-XPfhRg7tW1,SPFD_0080-L,8,1.22875,33.1614
sim-XPfhRg7tW1,SPFD_0080-L,9,1.2104,33.1606
sim-XPfhRg7tW1,SPFD_0080-L,10,1.19243,33.1598
sim-XPfhRg7tW1,SPFD_0080-L,11,1.17478,33.1269
sim-XPfhRg7tW1,SPFD_0080-L,12,1.15759,33.1263
sim-XPfhRg7tW1,SPFD_0080-L,13,1.1407,32.8918
sim-XPfhRg7tW1,SPFD_0080-L,14,1.12415,32.8914
sim-XPfhRg7tW1,SPFD_0080-L,15,1.10795,32.8909
sim-XPfhRg7tW1,SPFD_0080-L,16,1.09206,32.8905
sim-XPfhRg7tW1,SPFD_0080-L,17,1.07644,32.4655
sim-XPfhRg7tW1,SPFD_0080-L,18,1.0612,32.4651
sim-XPfhRg7tW1,SPFD_0080-L,19,1.04619,32.4645
sim-XPfhRg7tW1,SPFD_0080-L,20,1.03147,32.4641
sim-XPfhRg7tW1,SPFD_0080-L,20.4286,1.02525,32.4636
sim-N89R9B5eTH,SPFD_0082-R,0,1.61688,24.7887
sim-N89R9B5eTH,SPFD_0082-R,1,1.49959,24.7887
sim-N89R9B5eTH,SPFD_0082-R,2,1.28354,24.7884
sim-N89R9B5eTH,SPFD_0082-R,3,1.09905,39.932
sim-N89R9B5eTH,SPFD_0082-R,4,0.941173,39.9349
sim-N89R9B5eTH,SPFD_0082-R,5,0.805866,23.517
sim-N89R9B5eTH,SPFD_0082-R,6,0.690366,38.9463
sim-N89R9B5eTH,SPFD_0082-R,7,0.591359,22.752
sim-N89R9B5eTH,SPFD_0082-R,8,0.506616,38.1019
sim-N89R9B5eTH,SPFD_0082-R,9,0.434124,22.2805
sim-N89R9B5eTH,SPFD_0082-R,10,0.372013,22.2765
sim-N89R9B5eTH,SPFD_0082-R,11,0.318772,37.0157
sim-N89R9B5eTH,SPFD_0082-R,12,0.273206,37.0199
sim-N89R9B5eTH,SPFD_0082-R,13,0.234117,20.9687
sim-N89R9B5eTH,SPFD_0082-R,14,0.200606,36.935
sim-N89R9B5eTH,SPFD_0082-R,15,0.171919,34.7771
sim-N89R9B5eTH,SPFD_0082-R,16,0.147312,34.7828
sim-N89R9B5eTH,SPFD_0082-R,17,0.126217,34.4053
sim-N89R9B5eTH,SPFD_0082-R,18,0.108162,19.4625
sim-N89R9B5eTH,SPFD_0082-R,19,0.092676,34.3614
sim-N89R9B5eTH,SPFD_0082-R,20,0.079402,34.3658
sim-N89R9B5eTH,SPFD_0082-R,20.4286,0.0743162,33.8939
sim-AB7JkndVAD,UCHI_1023-R,0,110.92,74.8594
sim-AB7JkndVAD,UCHI_1023-R,1,101.032,74.847
sim-AB7JkndVAD,UCHI_1023-R,2,84.8252,72.7391
sim-AB7JkndVAD,UCHI_1023-R,3,71.2197,70.6236
sim-AB7JkndVAD,UCHI_1023-R,4,59.8042,68.0276
sim-AB7JkndVAD,UCHI_1023-R,5,50.2144,65.9034
sim-AB7JkndVAD,UCHI_1023-R,6,42.1868,63.7529
sim-AB7JkndVAD,UCHI_1023-R,7,35.4475,61.7481
sim-AB7JkndVAD,UCHI_1023-R,8,29.7944,59.9998
sim-AB7JkndVAD,UCHI_1023-R,9,25.0558,58.2027
sim-AB7JkndVAD,UCHI_1023-R,10,21.0789,57.0736
sim-AB7JkndVAD,UCHI_1023-R,11,17.7391,55.5945
sim-AB7JkndVAD,UCHI_1023-R,12,14.939,54.2599
sim-AB7JkndVAD,UCHI_1023-R,13,12.5863,53.6991
sim-AB7JkndVAD,UCHI_1023-R,14,10.6094,52.6366
sim-AB7JkndVAD,UCHI_1023-R,15,8.94968,52.2931
sim-AB7JkndVAD,UCHI_1023-R,16,7.55371,50.5728
sim-AB7JkndVAD,UCHI_1023-R,17,6.37903,50.8609
sim-AB7JkndVAD,UCHI_1023-R,18,5.3917,50.9118
sim-AB7JkndVAD,UCHI_1023-R,19,4.56001,47.5926
sim-AB7JkndVAD,UCHI_1023-R,20,3.85934,48.749
sim-AB7JkndVAD,UCHI_1023-R,20.4286,3.59376,48.7771
sim-7Gr64ZwwXG,UCHI_1036-L,0,6.36963,29.9672
sim-7Gr64ZwwXG,UCHI_1036-L,1,6.26473,29.9575
sim-7Gr64ZwwXG,UCHI_1036-L,2,5.79841,29.9732
sim-7Gr64ZwwXG,UCHI_1036-L,3,5.36917,29.9874
sim-7Gr64ZwwXG,UCHI_1036-L,4,4.97089,29.6728
sim-7Gr64ZwwXG,UCHI_1036-L,5,4.60185,28.9787
sim-7Gr64ZwwXG,UCHI_1036-L,6,4.26042,28.9882
sim-7Gr64ZwwXG,UCHI_1036-L,7,3.94397,28.5383
sim-7Gr64ZwwXG,UCHI_1036-L,8,3.65029,28.2659
sim-7Gr64ZwwXG,UCHI_1036-L,9,3.37889,27.4794
sim-7Gr64ZwwXG,UCHI_1036-L,10,3.1269,27.4892
sim-7Gr64ZwwXG,UCHI_1036-L,11,2.89341,26.8543
sim-7Gr64ZwwXG,UCHI_1036-L,12,2.67725,26.8649
sim-7Gr64ZwwXG,UCHI_1036-L,13,2.47694,26.1719
sim-7Gr64ZwwXG,UCHI_1036-L,14,2.29106,26.1825
sim-7Gr64ZwwXG,UCHI_1036-L,15,2.11932,25.4901
sim-7Gr64ZwwXG,UCHI_1036-L,16,1.9599,25.4964
sim-7Gr64ZwwXG,UCHI_1036-L,17,1.81225,25.0703
sim-7Gr64ZwwXG,UCHI_1036-L,18,1.67559,25.0788
sim-7Gr64ZwwXG,UCHI_1036-L,19,1.549,24.4435
sim-7Gr64ZwwXG,UCHI_1036-L,20,1.43163,24.4498
sim-7Gr64ZwwXG,UCHI_1036-L,20.4286,1.38414,24.0152
sim-AQZ4xKZp87,UCHI_1067-L,0,24.1753,61.8427
sim-AQZ4xKZp87,UCHI_1067-L,1,24.84,63.0301
sim-AQZ4xKZp87,UCHI_1067-L,2,25.0248,63.3663
sim-AQZ4xKZp87,UCHI_1067-L,3,25.1641,64.1471
sim-AQZ4xKZp87,UCHI_1067-L,4,25.3171,64.3272
sim-AQZ4xKZp87,UCHI_1067-L,5,25.4276,64.5927
sim-AQZ4xKZp87,UCHI_1067-L,6,25.5476,64.9217
sim-AQZ4xKZp87,UCHI_1067-L,7,25.6449,65.3559
sim-AQZ4xKZp87,UCHI_1067-L,8,25.7449,65.4232
sim-AQZ4xKZp87,UCHI_1067-L,9,25.8247,65.67
sim-AQZ4xKZp87,UCHI_1067-L,10,25.9042,65.7037
sim-AQZ4xKZp87,UCHI_1067-L,11,25.9602,66.2631
sim-AQZ4xKZp87,UCHI_1067-L,12,26.0159,66.2852
sim-AQZ4xKZp87,UCHI_1067-L,13,26.0462,66.6993
sim-AQZ4xKZp87,UCHI_1067-L,14,26.0738,66.7037
sim-AQZ4xKZp87,UCHI_1067-L,15,26.0794,66.9599
sim-AQZ4xKZp87,UCHI_1067-L,16,26.0815,66.9965
sim-AQZ4xKZp87,UCHI_1067-L,17,26.061,67.1087
sim-AQZ4xKZp87,UCHI_1067-L,18,26.0397,67.1015
sim-AQZ4xKZp87,UCHI_1067-L,19,25.9978,67.2256
sim-AQZ4xKZp87,UCHI_1067-L,20,25.9542,67.3176
sim-AQZ4xKZp87,UCHI_1067-L,20.4286,25.928,67.2786
sim-JBpzM4dWpP,UCHI_1068-R,0,3.83325,24.4335
sim-JBpzM4dWpP,UCHI_1068-R,1,3.68093,24.4529
sim-JBpzM4dWpP,UCHI_1068-R,2,3.26603,24.4607
sim-JBpzM4dWpP,UCHI_1068-R,3,2.90116,23.8252
sim-JBpzM4dWpP,UCHI_1068-R,4,2.5801,23.4721
sim-JBpzM4dWpP,UCHI_1068-R,5,2.29503,23.0613
sim-JBpzM4dWpP,UCHI_1068-R,6,2.04394,22.6755
sim-JBpzM4dWpP,UCHI_1068-R,7,1.82054,22.0232
sim-JBpzM4dWpP,UCHI_1068-R,8,1.62282,21.644
sim-JBpzM4dWpP,UCHI_1068-R,9,1.4472,21.0136
sim-JBpzM4dWpP,UCHI_1068-R,10,1.29128,20.6313
sim-JBpzM4dWpP,UCHI_1068-R,11,1.15225,19.8172
sim-JBpzM4dWpP,UCHI_1068-R,12,1.02899,19.439
sim-JBpzM4dWpP,UCHI_1068-R,13,0.918913,18.8192
sim-JBpzM4dWpP,UCHI_1068-R,14,0.820889,18.5603
sim-JBpzM4dWpP,UCHI_1068-R,15,0.733537,18.1988
sim-JBpzM4dWpP,UCHI_1068-R,16,0.655601,17.9452
sim-JBpzM4dWpP,UCHI_1068-R,17,0.58598,17.4659
sim-JBpzM4dWpP,UCHI_1068-R,18,0.523962,17.3465
sim-JBpzM4dWpP,UCHI_1068-R,19,0.468491,16.8493
sim-JBpzM4dWpP,UCHI_1068-R,20,0.418919,16.7307
sim-JBpzM4dWpP,UCHI_1068-R,20.4286,0.399335,16.1225
sim-Ha4m1by4rm,UCHI_1077-L,0,7.95737,41.9363
sim-Ha4m1by4rm,UCHI_1077-L,1,7.64656,41.933
sim-Ha4m1by4rm,UCHI_1077-L,2,6.78689,41.9192
sim-Ha4m1by4rm,UCHI_1077-L,3,6.03043,41.8987
sim-Ha4m1by4rm,UCHI_1077-L,4,5.36437,41.7168
sim-Ha4m1by4rm,UCHI_1077-L,5,4.77321,40.9653
sim-Ha4m1by4rm,UCHI_1077-L,6,4.25223,40.9514
sim-Ha4m1by4rm,UCHI_1077-L,7,3.78923,40.1205
sim-Ha4m1by4rm,UCHI_1077-L,8,3.3791,40.1105
sim-Ha4m1by4rm,UCHI_1077-L,9,3.01488,39.4142
sim-Ha4m1by4rm,UCHI_1077-L,10,2.69141,39.4028
sim-Ha4m1by4rm,UCHI_1077-L,11,2.40296,39.0051
sim-Ha4m1by4rm,UCHI_1077-L,12,2.14701,38.9526
sim-Ha4m1by4rm,UCHI_1077-L,13,1.91847,38.7074
sim-Ha4m1by4rm,UCHI_1077-L,14,1.71479,38.7216
sim-Ha4m1by4rm,UCHI_1077-L,15,1.53321,38.3544
sim-Ha4m1by4rm,UCHI_1077-L,16,1.37104,38.3689
sim-Ha4m1by4rm,UCHI_1077-L,17,1.22608,38.2475
sim-Ha4m1by4rm,UCHI_1077-L,18,1.09682,38.2624
sim-Ha4m1by4rm,UCHI_1077-L,19,0.981194,38.2553
sim-Ha4m1by4rm,UCHI_1077-L,20,0.87779,38.265
sim-Ha4m1by4rm,UCHI_1077-L,20.4286,0.836939,38.2856
sim-hw25LXQJta,UCHI_1093-L,0,1.86038,24.562
sim-hw25LXQJta,UCHI_1093-L,1,1.83693,24.5672
sim-hw25LXQJta,UCHI_1093-L,2,1.70776,24.5647
sim-hw25LXQJta,UCHI_1093-L,3,1.58992,24.5584
sim-hw25LXQJta,UCHI_1093-L,4,1.48179,24.5524
sim-hw25LXQJta,UCHI_1093-L,5,1.38093,24.1685
sim-hw25LXQJta,UCHI_1093-L,6,1.28853,23.914
sim-hw25LXQJta,UCHI_1093-L,7,1.2023,23.535
sim-hw25LXQJta,UCHI_1093-L,8,1.12272,23.5296
sim-hw25LXQJta,UCHI_1093-L,9,1.04861,22.9589
sim-hw25LXQJta,UCHI_1093-L,10,0.980002,22.9538
sim-hw25LXQJta,UCHI_1093-L,11,0.915904,22.2086
sim-hw25LXQJta,UCHI_1093-L,12,0.856586,22.2054
sim-hw25LXQJta,UCHI_1093-L,13,0.801069,21.9036
sim-hw25LXQJta,UCHI_1093-L,14,0.749485,21.8086
sim-hw25LXQJta,UCHI_1093-L,15,0.701366,21.7532
sim-hw25LXQJta,UCHI_1093-L,16,0.656512,21.3786
sim-hw25LXQJta,UCHI_1093-L,17,0.61453,21.0027
sim-hw25LXQJta,UCHI_1093-L,18,0.575476,20.9975
sim-hw25LXQJta,UCHI_1093-L,19,0.538903,20.6233
sim-hw25LXQJta,UCHI_1093-L,20,0.50472,20.6184
sim-hw25LXQJta,UCHI_1093-L,20.4286,0.490767,20.4718
sim-bTQgkFMW2n,UCHI_1111-R,0,1.736,20.2683
sim-bTQgkFMW2n,UCHI_1111-R,1,1.66524,20.2742
sim-bTQgkFMW2n,UCHI_1111-R,2,1.47471,20.2992
sim-bTQgkFMW2n,UCHI_1111-R,3,1.30718,19.8258
sim-bTQgkFMW2n,UCHI_1111-R,4,1.15981,19.8084
sim-bTQgkFMW2n,UCHI_1111-R,5,1.02916,18.8101
sim-bTQgkFMW2n,UCHI_1111-R,6,0.91428,18.8102
sim-bTQgkFMW2n,UCHI_1111-R,7,0.812286,17.8178
sim-bTQgkFMW2n,UCHI_1111-R,8,0.72216,17.8219
sim-bTQgkFMW2n,UCHI_1111-R,9,0.642321,16.8263
sim-bTQgkFMW2n,UCHI_1111-R,10,0.571627,16.8286
sim-bTQgkFMW2n,UCHI_1111-R,11,0.508757,16.3752
sim-bTQgkFMW2n,UCHI_1111-R,12,0.453151,16.3335
sim-bTQgkFMW2n,UCHI_1111-R,13,0.403647,15.0552
sim-bTQgkFMW2n,UCHI_1111-R,14,0.359694,15.8179
sim-bTQgkFMW2n,UCHI_1111-R,15,0.320636,14.1054
sim-bTQgkFMW2n,UCHI_1111-R,16,0.285877,14.5513
sim-bTQgkFMW2n,UCHI_1111-R,17,0.254905,13.7581
sim-bTQgkFMW2n,UCHI_1111-R,18,0.227362,13.7756
sim-bTQgkFMW2n,UCHI_1111-R,19,0.202776,13.6837
sim-bTQgkFMW2n,UCHI_1111-R,20,0.180837,13.698
sim-bTQgkFMW2n,UCHI_1111-R,20.4286,0.172186,13.3568
sim-1HJNJK6512,UCHI_1123-R,0,3.62012,38.8353
sim-1HJNJK6512,UCHI_1123-R,1,3.59221,38.9837
sim-1HJNJK6512,UCHI_1123-R,2,3.35549,38.836
sim-1HJNJK6512,UCHI_1123-R,3,3.13722,38.8318
sim-1HJNJK6512,UCHI_1123-R,4,2.93448,38.8288
sim-1HJNJK6512,UCHI_1123-R,5,2.74444,38.5207
sim-1HJNJK6512,UCHI_1123-R,6,2.56847,38.5169
sim-1HJNJK6512,UCHI_1123-R,7,2.40355,38.0554
sim-1HJNJK6512,UCHI_1123-R,8,2.25005,38.0512
sim-1HJNJK6512,UCHI_1123-R,9,2.10671,37.5909
sim-1HJNJK6512,UCHI_1123-R,10,1.97306,37.5872
sim-1HJNJK6512,UCHI_1123-R,11,1.84777,36.8014
sim-1HJNJK6512,UCHI_1123-R,12,1.73127,36.8009
sim-1HJNJK6512,UCHI_1123-R,13,1.62196,36.3617
sim-1HJNJK6512,UCHI_1123-R,14,1.51998,36.3542
sim-1HJNJK6512,UCHI_1123-R,15,1.42463,36.1884
sim-1HJNJK6512,UCHI_1123-R,16,1.33543,36.1886
sim-1HJNJK6512,UCHI_1123-R,17,1.25173,35.7358
sim-1HJNJK6512,UCHI_1123-R,18,1.17364,35.7356
sim-1HJNJK6512,UCHI_1123-R,19,1.10034,35.5872
sim-1HJNJK6512,UCHI_1123-R,20,1.0317,35.5845
sim-1HJNJK6512,UCHI_1123-R,20.4286,1.00364,35.2817
sim-1wZCt8vaKD,UCHI_1169-R,0,7.92138,32.4379
sim-1wZCt8vaKD,UCHI_1169-R,1,7.32768,32.4688
sim-1wZCt8vaKD,UCHI_1169-R,2,6.25846,32.4656
sim-1wZCt8vaKD,UCHI_1169-R,3,5.3479,31.8889
sim-1wZCt8vaKD,UCHI_1169-R,4,4.57032,31.1898
sim-1wZCt8vaKD,UCHI_1169-R,5,3.90668,30.6406
sim-1wZCt8vaKD,UCHI_1169-R,6,3.34119,30.2227
sim-1wZCt8vaKD,UCHI_1169-R,7,2.85824,29.2769
sim-1wZCt8vaKD,UCHI_1169-R,8,2.44571,28.9684
sim-1wZCt8vaKD,UCHI_1169-R,9,2.09368,27.5042
sim-1wZCt8vaKD,UCHI_1169-R,10,1.79276,27.8918
sim-1wZCt8vaKD,UCHI_1169-R,11,1.53519,26.4035
sim-1wZCt8vaKD,UCHI_1169-R,12,1.31523,26.0576
sim-1wZCt8vaKD,UCHI_1169-R,13,1.12676,25.4825
sim-1wZCt8vaKD,UCHI_1169-R,14,0.965382,25.1381
sim-1wZCt8vaKD,UCHI_1169-R,15,0.827326,24.8863
sim-1wZCt8vaKD,UCHI_1169-R,16,0.708967,24.7945
sim-1wZCt8vaKD,UCHI_1169-R,17,0.607488,24.4691
sim-1wZCt8vaKD,UCHI_1169-R,18,0.520622,24.4883
sim-1wZCt8vaKD,UCHI_1169-R,19,0.446109,23.3212
sim-1wZCt8vaKD,UCHI_1169-R,20,0.38223,23.3408
sim-1wZCt8vaKD,UCHI_1169-R,20.4286,0.357751,22.9937
sim-sxKJCUNvhX,UCHI_1186-R,0,10.2434,83.0652
sim-sxKJCUNvhX,UCHI_1186-R,1,9.89557,83.0513
sim-sxKJCUNvhX,UCHI_1186-R,2,8.82411,83.0371
sim-sxKJCUNvhX,UCHI_1186-R,3,7.87675,83.0247
sim-sxKJCUNvhX,UCHI_1186-R,4,7.0345,83.0121
sim-sxKJCUNvhX,UCHI_1186-R,5,6.28235,82.285
sim-sxKJCUNvhX,UCHI_1186-R,6,5.61487,82.2767
sim-sxKJCUNvhX,UCHI_1186-R,7,5.0183,81.5243
sim-sxKJCUNvhX,UCHI_1186-R,8,4.48644,81.518
sim-sxKJCUNvhX,UCHI_1186-R,9,4.01211,80.6044
sim-sxKJCUNvhX,UCHI_1186-R,10,3.58856,80.6011
sim-sxKJCUNvhX,UCHI_1186-R,11,3.20966,80.2886
sim-sxKJCUNvhX,UCHI_1186-R,12,2.87197,80.2853
sim-sxKJCUNvhX,UCHI_1186-R,13,2.56962,79.6557
sim-sxKJCUNvhX,UCHI_1186-R,14,2.29928,79.4158
sim-sxKJCUNvhX,UCHI_1186-R,15,2.05781,79.4191
sim-sxKJCUNvhX,UCHI_1186-R,16,1.84162,79.4193
sim-sxKJCUNvhX,UCHI_1186-R,17,1.64807,79.3847
sim-sxKJCUNvhX,UCHI_1186-R,18,1.47521,79.3871
sim-sxKJCUNvhX,UCHI_1186-R,19,1.32037,79.2394
sim-sxKJCUNvhX,UCHI_1186-R,20,1.18176,79.242
sim-sxKJCUNvhX,UCHI_1186-R,20.4286,1.12697,78.1888
sim-fyTdtAtYGD,UCHI_1202-L,0,9.4515,59.8004
sim-fyTdtAtYGD,UCHI_1202-L,1,9.15281,59.803
sim-fyTdtAtYGD,UCHI_1202-L,2,8.17876,59.8097
sim-fyTdtAtYGD,UCHI_1202-L,3,7.31255,59.7357
sim-fyTdtAtYGD,UCHI_1202-L,4,6.53912,59.6759
sim-fyTdtAtYGD,UCHI_1202-L,5,5.84698,59.03
sim-fyTdtAtYGD,UCHI_1202-L,6,5.23057,58.86
sim-fyTdtAtYGD,UCHI_1202-L,7,4.67883,58.1493
sim-fyTdtAtYGD,UCHI_1202-L,8,4.18566,58.1484
sim-fyTdtAtYGD,UCHI_1202-L,9,3.74542,57.3391
sim-fyTdtAtYGD,UCHI_1202-L,10,3.35136,57.3369
sim-fyTdtAtYGD,UCHI_1202-L,11,2.99859,56.6822
sim-fyTdtAtYGD,UCHI_1202-L,12,2.68366,56.6806
sim-fyTdtAtYGD,UCHI_1202-L,13,2.40156,55.8999
sim-fyTdtAtYGD,UCHI_1202-L,14,2.14904,55.8964
sim-fyTdtAtYGD,UCHI_1202-L,15,1.92344,55.3045
sim-fyTdtAtYGD,UCHI_1202-L,16,1.72134,55.3021
sim-fyTdtAtYGD,UCHI_1202-L,17,1.54031,54.9905
sim-fyTdtAtYGD,UCHI_1202-L,18,1.37872,54.9902
sim-fyTdtAtYGD,UCHI_1202-L,19,1.23398,54.8586
sim-fyTdtAtYGD,UCHI_1202-L,20,1.10439,54.8578
sim-fyTdtAtYGD,UCHI_1202-L,20.4286,1.05316,54.1762
sim-ASWvxkLX7N,UCHI_1203-R,0,66.3664,72.5714
sim-ASWvxkLX7N,UCHI_1203-R,1,64.7111,73.0253
sim-ASWvxkLX7N,UCHI_1203-R,2,59.4547,72.7623
sim-ASWvxkLX7N,UCHI_1203-R,3,54.7093,72.4923
sim-ASWvxkLX7N,UCHI_1203-R,4,50.412,72.2121
sim-ASWvxkLX7N,UCHI_1203-R,5,46.4822,71.6262
sim-ASWvxkLX7N,UCHI_1203-R,6,42.9187,70.9765
sim-ASWvxkLX7N,UCHI_1203-R,7,39.6579,70.217
sim-ASWvxkLX7N,UCHI_1203-R,8,36.6858,69.9487
sim-ASWvxkLX7N,UCHI_1203-R,9,33.9678,69.0376
sim-ASWvxkLX7N,UCHI_1203-R,10,31.4861,68.8401
sim-ASWvxkLX7N,UCHI_1203-R,11,29.2022,68.4548
sim-ASWvxkLX7N,UCHI_1203-R,12,27.1207,67.5531
sim-ASWvxkLX7N,UCHI_1203-R,13,25.1969,67.0408
sim-ASWvxkLX7N,UCHI_1203-R,14,23.4364,67.039
sim-ASWvxkLX7N,UCHI_1203-R,15,21.8087,66.0003
sim-ASWvxkLX7N,UCHI_1203-R,16,20.3152,66.3836
sim-ASWvxkLX7N,UCHI_1203-R,17,18.9275,65.661
sim-ASWvxkLX7N,UCHI_1203-R,18,17.6548,65.4202
sim-ASWvxkLX7N,UCHI_1203-R,19,16.4701,64.7657
sim-ASWvxkLX7N,UCHI_1203-R,20,15.3774,64.5813
sim-ASWvxkLX7N,UCHI_1203-R,20.4286,14.9317,64.0341
sim-HePWDPtUFp,UC_0011-L,0,7.7725,31.5265
sim-HePWDPtUFp,UC_0011-L,1,7.42911,31.5263
sim-HePWDPtUFp,UC_0011-L,2,6.54926,31.5367
sim-HePWDPtUFp,UC_0011-L,3,5.77492,31.0973
sim-HePWDPtUFp,UC_0011-L,4,5.09065,30.2385
sim-HePWDPtUFp,UC_0011-L,5,4.48652,29.812
sim-HePWDPtUFp,UC_0011-L,6,3.95484,29.0255
sim-HePWDPtUFp,UC_0011-L,7,3.48554,28.3855
sim-HePWDPtUFp,UC_0011-L,8,3.07154,27.7468
sim-HePWDPtUFp,UC_0011-L,9,2.70724,27.1065
sim-HePWDPtUFp,UC_0011-L,10,2.38579,26.6739
sim-HePWDPtUFp,UC_0011-L,11,2.10232,26.0396
sim-HePWDPtUFp,UC_0011-L,12,1.85285,26.0378
sim-HePWDPtUFp,UC_0011-L,13,1.63277,25.0217
sim-HePWDPtUFp,UC_0011-L,14,1.43871,25.0147
sim-HePWDPtUFp,UC_0011-L,15,1.26795,24.3717
sim-HePWDPtUFp,UC_0011-L,16,1.11731,24.3621
sim-HePWDPtUFp,UC_0011-L,17,0.984504,23.5044
sim-HePWDPtUFp,UC_0011-L,18,0.867633,23.4941
sim-HePWDPtUFp,UC_0011-L,19,0.764548,23.1157
sim-HePWDPtUFp,UC_0011-L,20,0.673663,23.109
sim-HePWDPtUFp,UC_0011-L,20.4286,0.638133,23.0969
sim-Sk4ymUS4Jh,UC_0012-L,0,8.80138,40.3549
sim-Sk4ymUS4Jh,UC_0012-L,1,8.13848,40.3476
sim-Sk4ymUS4Jh,UC_0012-L,2,6.94722,39.9371
sim-Sk4ymUS4Jh,UC_0012-L,3,5.93373,39.5702
sim-Sk4ymUS4Jh,UC_0012-L,4,5.06853,39.1049
sim-Sk4ymUS4Jh,UC_0012-L,5,4.33015,38.2136
sim-Sk4ymUS4Jh,UC_0012-L,6,3.70088,37.7524
sim-Sk4ymUS4Jh,UC_0012-L,7,3.16359,37.0458
sim-Sk4ymUS4Jh,UC_0012-L,8,2.70443,36.5856
sim-Sk4ymUS4Jh,UC_0012-L,9,2.31296,35.8484
sim-Sk4ymUS4Jh,UC_0012-L,10,1.97814,35.6679
sim-Sk4ymUS4Jh,UC_0012-L,11,1.69192,35.2083
sim-Sk4ymUS4Jh,UC_0012-L,12,1.44753,35.1941
sim-Sk4ymUS4Jh,UC_0012-L,13,1.23832,34.3973
sim-Sk4ymUS4Jh,UC_0012-L,14,1.05937,34.3819
sim-Sk4ymUS4Jh,UC_0012-L,15,0.906463,34.5463
sim-Sk4ymUS4Jh,UC_0012-L,16,0.775542,34.5351
sim-Sk4ymUS4Jh,UC_0012-L,17,0.663488,33.6365
sim-Sk4ymUS4Jh,UC_0012-L,18,0.567713,33.6507
sim-Sk4ymUS4Jh,UC_0012-L,19,0.485707,32.7822
sim-Sk4ymUS4Jh,UC_0012-L,20,0.41551,32.7949
sim-Sk4ymUS4Jh,UC_0012-L,20.4286,0.388644,33.4864
sim-NmPDn7CU8W,UC_0027-L,0,4.92212,113.006
sim-NmPDn7CU8W,UC_0027-L,1,4.52574,113.007
sim-NmPDn7CU8W,UC_0027-L,2,3.83953,113.009
sim-NmPDn7CU8W,UC_0027-L,3,3.25832,112.59
sim-NmPDn7CU8W,UC_0027-L,4,2.7666,112.172
sim-NmPDn7CU8W,UC_0027-L,5,2.34871,111.494
sim-NmPDn7CU8W,UC_0027-L,6,1.99586,111.137
sim-NmPDn7CU8W,UC_0027-L,7,1.69586,110.455
sim-NmPDn7CU8W,UC_0027-L,8,1.44206,110.036
sim-NmPDn7CU8W,UC_0027-L,9,1.22647,109.459
sim-NmPDn7CU8W,UC_0027-L,10,1.04398,109.04
sim-NmPDn7CU8W,UC_0027-L,11,0.888613,108.815
sim-NmPDn7CU8W,UC_0027-L,12,0.757221,108.432
sim-NmPDn7CU8W,UC_0027-L,13,0.645288,108.033
sim-NmPDn7CU8W,UC_0027-L,14,0.55033,108.034
sim-NmPDn7CU8W,UC_0027-L,15,0.469454,107.232
sim-NmPDn7CU8W,UC_0027-L,16,0.400716,107.232
sim-NmPDn7CU8W,UC_0027-L,17,0.342065,106.59
sim-NmPDn7CU8W,UC_0027-L,18,0.292206,106.591
sim-NmPDn7CU8W,UC_0027-L,19,0.249622,106.404
sim-NmPDn7CU8W,UC_0027-L,20,0.213292,106.404
sim-NmPDn7CU8W,UC_0027-L,20.4286,0.199403,105.984
sim-7v7ybzYpDR,UC_0044-R,0,2.96475,39.0959
sim-7v7ybzYpDR,UC_0044-R,1,2.86015,39.0951
sim-7v7ybzYpDR,UC_0044-R,2,2.54822,39.0938
sim-7v7ybzYpDR,UC_0044-R,3,2.27355,38.735
sim-7v7ybzYpDR,UC_0044-R,4,2.03058,38.608
sim-7v7ybzYpDR,UC_0044-R,5,1.81375,37.6698
sim-7v7ybzYpDR,UC_0044-R,6,1.62162,37.6406
sim-7v7ybzYpDR,UC_0044-R,7,1.44986,37.0293
sim-7v7ybzYpDR,UC_0044-R,8,1.29667,36.5174
sim-7v7ybzYpDR,UC_0044-R,9,1.16002,36.2207
sim-7v7ybzYpDR,UC_0044-R,10,1.03783,35.8094
sim-7v7ybzYpDR,UC_0044-R,11,0.928475,35.551
sim-7v7ybzYpDR,UC_0044-R,12,0.830828,35.1747
sim-7v7ybzYpDR,UC_0044-R,13,0.743391,34.7401
sim-7v7ybzYpDR,UC_0044-R,14,0.665123,34.7454
sim-7v7ybzYpDR,UC_0044-R,15,0.595227,34.5056
sim-7v7ybzYpDR,UC_0044-R,16,0.532625,34.5071
sim-7v7ybzYpDR,UC_0044-R,17,0.476586,33.6954
sim-7v7ybzYpDR,UC_0044-R,18,0.426527,33.6961
sim-7v7ybzYpDR,UC_0044-R,19,0.381698,33.5997
sim-7v7ybzYpDR,UC_0044-R,20,0.341564,33.6008
sim-7v7ybzYpDR,UC_0044-R,20.4286,0.325703,33.6004
sim-SH8A1MhChg,UC_0048-R,0,11.0034,60.8868
sim-SH8A1MhChg,UC_0048-R,1,10.6415,60.9428
sim-SH8A1MhChg,UC_0048-R,2,9.49971,60.9831
sim-SH8A1MhChg,UC_0048-R,3,8.4903,60.6542
sim-SH8A1MhChg,UC_0048-R,4,7.5926,60.6437
sim-SH8A1MhChg,UC_0048-R,5,6.79052,59.7401
sim-SH8A1MhChg,UC_0048-R,6,6.07696,59.5099
sim-SH8A1MhChg,UC_0048-R,7,5.43841,58.6977
sim-SH8A1MhChg,UC_0048-R,8,4.8674,58.5032
sim-SH8A1MhChg,UC_0048-R,9,4.35748,57.749
sim-SH8A1MhChg,UC_0048-R,10,3.90077,57.7463
sim-SH8A1MhChg,UC_0048-R,11,3.49172,56.8199
sim-SH8A1MhChg,UC_0048-R,12,3.12623,56.4672
sim-SH8A1MhChg,UC_0048-R,13,2.79874,56.1348
sim-SH8A1MhChg,UC_0048-R,14,2.50543,56.1362
sim-SH8A1MhChg,UC_0048-R,15,2.2433,55.7884
sim-SH8A1MhChg,UC_0048-R,16,2.00839,55.7915
sim-SH8A1MhChg,UC_0048-R,17,1.798,55.4445
sim-SH8A1MhChg,UC_0048-R,18,1.60997,55.4458
sim-SH8A1MhChg,UC_0048-R,19,1.44147,55.1048
sim-SH8A1MhChg,UC_0048-R,20,1.29055,55.1088
sim-SH8A1MhChg,UC_0048-R,20.4286,1.23089,53.6362
sim-kLFCnFHKas,UC_0051-R,0,3.43163,53.5562
sim-kLFCnFHKas,UC_0051-R,1,3.18754,53.5599
sim-kLFCnFHKas,UC_0051-R,2,2.73206,53.5669
sim-kLFCnFHKas,UC_0051-R,3,2.34246,53.5175
sim-kLFCnFHKas,UC_0051-R,4,2.00811,53.4143
sim-kLFCnFHKas,UC_0051-R,5,1.72113,52.5652
sim-kLFCnFHKas,UC_0051-R,6,1.47549,52.5699
sim-kLFCnFHKas,UC_0051-R,7,1.26468,51.7006
sim-kLFCnFHKas,UC_0051-R,8,1.08386,51.704
sim-kLFCnFHKas,UC_0051-R,9,0.929044,50.9094
sim-kLFCnFHKas,UC_0051-R,10,0.796211,50.8522
sim-kLFCnFHKas,UC_0051-R,11,0.682293,50.5471
sim-kLFCnFHKas,UC_0051-R,12,0.584771,50.5491
sim-kLFCnFHKas,UC_0051-R,13,0.501114,49.9485
sim-kLFCnFHKas,UC_0051-R,14,0.429388,49.9497
sim-kLFCnFHKas,UC_0051-R,15,0.367986,49.522
sim-kLFCnFHKas,UC_0051-R,16,0.315319,49.5233
sim-kLFCnFHKas,UC_0051-R,17,0.270168,49.526
sim-kLFCnFHKas,UC_0051-R,18,0.231521,49.5247
sim-kLFCnFHKas,UC_0051-R,19,0.198374,48.6683
sim-kLFCnFHKas,UC_0051-R,20,0.16996,48.6698
sim-kLFCnFHKas,UC_0051-R,20.4286,0.159074,48.4736
sim-CZ39Pe8CXd,UC_0052-L,0,2.94613,22.9924
sim-CZ39Pe8CXd,UC_0052-L,1,2.70944,22.9836
sim-CZ39Pe8CXd,UC_0052-L,2,2.30058,22.8492
sim-CZ39Pe8CXd,UC_0052-L,3,1.95423,22.0118
sim-CZ39Pe8CXd,UC_0052-L,4,1.6615,21.4996
sim-CZ39Pe8CXd,UC_0052-L,5,1.41279,20.7184
sim-CZ39Pe8CXd,UC_0052-L,6,1.20275,20.0527
sim-CZ39Pe8CXd,UC_0052-L,7,1.02412,19.2789
sim-CZ39Pe8CXd,UC_0052-L,8,0.8729,18.6779
sim-CZ39Pe8CXd,UC_0052-L,9,0.744317,17.9632
sim-CZ39Pe8CXd,UC_0052-L,10,0.63529,17.305
sim-CZ39Pe8CXd,UC_0052-L,11,0.5423,16.9225
sim-CZ39Pe8CXd,UC_0052-L,12,0.463443,16.5649
sim-CZ39Pe8CXd,UC_0052-L,13,0.396154,15.9563
sim-CZ39Pe8CXd,UC_0052-L,14,0.338871,15.9489
sim-CZ39Pe8CXd,UC_0052-L,15,0.290009,14.7512
sim-CZ39Pe8CXd,UC_0052-L,16,0.248289,14.7347
sim-CZ39Pe8CXd,UC_0052-L,17,0.212586,14.377
sim-CZ39Pe8CXd,UC_0052-L,18,0.182054,14.3671
sim-CZ39Pe8CXd,UC_0052-L,19,0.155892,13.3664
sim-CZ39Pe8CXd,UC_0052-L,20,0.133476,13.3527
sim-CZ39Pe8CXd,UC_0052-L,20.4286,0.124891,12.8859
sim-YWUxhVM1mG,UC_0053-R,0,3.13687,30.5879
sim-YWUxhVM1mG,UC_0053-R,1,2.89281,30.606
sim-YWUxhVM1mG,UC_0053-R,2,2.4636,30.6364
sim-YWUxhVM1mG,UC_0053-R,3,2.09922,30.2631
sim-YWUxhVM1mG,UC_0053-R,4,1.79014,29.9063
sim-YWUxhVM1mG,UC_0053-R,5,1.52676,29.2955
sim-YWUxhVM1mG,UC_0053-R,6,1.30347,28.9141
sim-YWUxhVM1mG,UC_0053-R,7,1.11306,27.9176
sim-YWUxhVM1mG,UC_0053-R,8,0.951101,27.9316
sim-YWUxhVM1mG,UC_0053-R,9,0.813069,27.1587
sim-YWUxhVM1mG,UC_0053-R,10,0.695476,27.1695
sim-YWUxhVM1mG,UC_0053-R,11,0.594961,26.5301
sim-YWUxhVM1mG,UC_0053-R,12,0.509356,26.54
sim-YWUxhVM1mG,UC_0053-R,13,0.436112,25.1614
sim-YWUxhVM1mG,UC_0053-R,14,0.373536,25.1734
sim-YWUxhVM1mG,UC_0053-R,15,0.32004,24.983
sim-YWUxhVM1mG,UC_0053-R,16,0.274254,24.9889
sim-YWUxhVM1mG,UC_0053-R,17,0.235021,24.1877
sim-YWUxhVM1mG,UC_0053-R,18,0.201461,24.1915
sim-YWUxhVM1mG,UC_0053-R,19,0.172684,23.8191
sim-YWUxhVM1mG,UC_0053-R,20,0.148011,23.8243
sim-YWUxhVM1mG,UC_0053-R,20.4286,0.138554,23.8194
sim-f2ttawab18,UC_0058-R,0,1.70975,18.2602
sim-f2ttawab18,UC_0058-R,1,1.77035,19.242
sim-f2ttawab18,UC_0058-R,2,1.79619,19.2446
sim-f2ttawab18,UC_0058-R,3,1.82254,19.4626
sim-f2ttawab18,UC_0058-R,4,1.84919,19.8007
sim-f2ttawab18,UC_0058-R,5,1.87624,19.9712
sim-f2ttawab18,UC_0058-R,6,1.90379,19.9737
sim-f2ttawab18,UC_0058-R,7,1.93179,20.4023
sim-f2ttawab18,UC_0058-R,8,1.96018,20.4367
sim-f2ttawab18,UC_0058-R,9,1.98916,20.8957
sim-f2ttawab18,UC_0058-R,10,2.01857,20.3345
sim-f2ttawab18,UC_0058-R,11,2.04843,20.364
sim-f2ttawab18,UC_0058-R,12,2.07892,20.3643
sim-f2ttawab18,UC_0058-R,13,2.1098,20.6361
sim-f2ttawab18,UC_0058-R,14,2.14117,20.6481
sim-f2ttawab18,UC_0058-R,15,2.17314,20.8894
sim-f2ttawab18,UC_0058-R,16,2.20562,20.9
sim-f2ttawab18,UC_0058-R,17,2.23856,21.0166
sim-f2ttawab18,UC_0058-R,18,2.27217,21.0681
sim-f2ttawab18,UC_0058-R,19,2.30615,21.2295
sim-f2ttawab18,UC_0058-R,20,2.34075,21.3583
sim-f2ttawab18,UC_0058-R,20.4286,2.35568,21.3663
sim-76a5HrpKXE,UNC_0013-R,0,4.326,42.0367
sim-76a5HrpKXE,UNC_0013-R,1,4.17665,42.034
sim-76a5HrpKXE,UNC_0013-R,2,3.72128,42.0288
sim-76a5HrpKXE,UNC_0013-R,3,3.31974,42.022
sim-76a5HrpKXE,UNC_0013-R,4,2.9638,41.8122
sim-76a5HrpKXE,UNC_0013-R,5,2.64639,40.9384
sim-76a5HrpKXE,UNC_0013-R,6,2.3648,41.4932
sim-76a5HrpKXE,UNC_0013-R,7,2.11329,40.8154
sim-76a5HrpKXE,UNC_0013-R,8,1.88883,40.809
sim-76a5HrpKXE,UNC_0013-R,9,1.68858,39.3821
sim-76a5HrpKXE,UNC_0013-R,10,1.50945,39.3781
sim-76a5HrpKXE,UNC_0013-R,11,1.34919,39.5747
sim-76a5HrpKXE,UNC_0013-R,12,1.20612,39.424
sim-76a5HrpKXE,UNC_0013-R,13,1.07812,38.3262
sim-76a5HrpKXE,UNC_0013-R,14,0.963618,38.3216
sim-76a5HrpKXE,UNC_0013-R,15,0.861408,38.0962
sim-76a5HrpKXE,UNC_0013-R,16,0.76995,38.0913
sim-76a5HrpKXE,UNC_0013-R,17,0.688154,37.4768
sim-76a5HrpKXE,UNC_0013-R,18,0.615126,37.3469
sim-76a5HrpKXE,UNC_0013-R,19,0.549802,37.184
sim-76a5HrpKXE,UNC_0013-R,20,0.491366,37.093
sim-76a5HrpKXE,UNC_0013-R,20.4286,0.468289,37.0272
sim-Kwc9vJZfT5,UNC_0018-R,0,6.18913,29.2628
sim-Kwc9vJZfT5,UNC_0018-R,1,5.98665,29.2489
sim-Kwc9vJZfT5,UNC_0018-R,2,5.34457,29.2199
sim-Kwc9vJZfT5,UNC_0018-R,3,4.77446,28.3125
sim-Kwc9vJZfT5,UNC_0018-R,4,4.26626,27.8407
sim-Kwc9vJZfT5,UNC_0018-R,5,3.81201,27.0648
sim-Kwc9vJZfT5,UNC_0018-R,6,3.40816,26.4207
sim-Kwc9vJZfT5,UNC_0018-R,7,3.04695,25.7124
sim-Kwc9vJZfT5,UNC_0018-R,8,2.72461,24.9912
sim-Kwc9vJZfT5,UNC_0018-R,9,2.4371,24.6073
sim-Kwc9vJZfT5,UNC_0018-R,10,2.18019,23.9749
sim-Kwc9vJZfT5,UNC_0018-R,11,1.95041,23.2863
sim-Kwc9vJZfT5,UNC_0018-R,12,1.74558,22.8862
sim-Kwc9vJZfT5,UNC_0018-R,13,1.5622,22.0909
sim-Kwc9vJZfT5,UNC_0018-R,14,1.39824,22.253
sim-Kwc9vJZfT5,UNC_0018-R,15,1.25183,21.497
sim-Kwc9vJZfT5,UNC_0018-R,16,1.12072,21.2553
sim-Kwc9vJZfT5,UNC_0018-R,17,1.00335,20.776
sim-Kwc9vJZfT5,UNC_0018-R,18,0.898492,20.7949
sim-Kwc9vJZfT5,UNC_0018-R,19,0.80449,20.1843
sim-Kwc9vJZfT5,UNC_0018-R,20,0.720295,20.2295
sim-Kwc9vJZfT5,UNC_0018-R,20.4286,0.687001,19.443
