caseID,depictionID,mvID
ISPY1_1137_MVvalFull,depiction-fysf,mv-fysf-mv4
ISPY1_1137_MVvalFull,depiction-fysf,mv-fysf-mvneg6
ISPY1_1157_MVvalFull,depiction-EHav,mv-EHav-mv4
ISPY1_1157_MVvalFull,depiction-EHav,mv-EHav-mvneg6
ISPY1_1167_MVvalFull,depiction-2QWK,mv-2QWK-mv4
ISPY1_1167_MVvalFull,depiction-2QWK,mv-2QWK-mvneg6
ISPY1_1221_MVvalFull,depiction-eZAT,mv-eZAT-mv4
ISPY1_1221_MVvalFull,depiction-eZAT,mv-eZAT-mvneg6
ISPY1_1222_MVvalFull,depiction-3bks,mv-3bks-mv4
ISPY1_1222_MVvalFull,depiction-3bks,mv-3bks-mvneg6
ISPY1_1237_MVvalFull,depiction-1cVG,mv-1cVG-mv4
ISPY1_1237_MVvalFull,depiction-1cVG,mv-1cVG-mvneg6
ISPY2_0004-R,depiction-zvDJ,mv-zvDJ-mv4
ISPY2_0004-R,depiction-zvDJ,mv-zvDJ-mvneg6
ISPY2_0015-L,depiction-hfRJ,mv-hfRJ-mv4
ISPY2_0015-L,depiction-hfRJ,mv-hfRJ-mvneg6
ISPY2_0016-L,depiction-yXeb,mv-yXeb-mv4
ISPY2_0016-L,depiction-yXeb,mv-yXeb-mvneg6
ISPY2_0030-R,depiction-Mk3K,mv-Mk3K-mv4
ISPY2_0030-R,depiction-Mk3K,mv-Mk3K-mvneg6
ISPY2_0043-L,depiction-4cze,mv-4cze-mv4
ISPY2_0043-L,depiction-4cze,mv-4cze-mvneg6
ISPY2_0048-L,depiction-nm6L,mv-nm6L-mv4
ISPY2_0048-L,depiction-nm6L,mv-nm6L-mvneg6
ISPY2_0069-L,depiction-zxbW,mv-zxbW-mv4
ISPY2_0069-L,depiction-zxbW,mv-zxbW-mvneg6
ISPY2_0092-R,depiction-GNH3,mv-GNH3-mv4
ISPY2_0092-R,depiction-GNH3,mv-GNH3-mvneg6
ISPY2_0097-L,depiction-5fbT,mv-5fbT-mv4
ISPY2_0097-L,depiction-5fbT,mv-5fbT-mvneg6
ISPY2_0099-R,depiction-Qp1W,mv-Qp1W-mv4
ISPY2_0099-R,depiction-Qp1W,mv-Qp1W-mvneg6
ISPY2_0104-R,depiction-SaBH,mv-SaBH-mv4
ISPY2_0104-R,depiction-SaBH,mv-SaBH-mvneg6
ISPY2_0117-R,depiction-4dmL,mv-4dmL-mv4
ISPY2_0117-R,depiction-4dmL,mv-4dmL-mvneg6
ISPY2_0129-L,depiction-EcyH,mv-EcyH-mv4
ISPY2_0129-L,depiction-EcyH,mv-EcyH-mvneg6
ISPY2_0141-R,depiction-Y4wF,mv-Y4wF-mv4
ISPY2_0141-R,depiction-Y4wF,mv-Y4wF-mvneg6
ISPY2_0167-R,depiction-mf1N,mv-mf1N-mv4
ISPY2_0167-R,depiction-mf1N,mv-mf1N-mvneg6
ISPY2_0185-R,depiction-LHrD,mv-LHrD-mv4
ISPY2_0185-R,depiction-LHrD,mv-LHrD-mvneg6
NCH_0016-L,depiction-x5ZB,mv-x5ZB-mv4
NCH_0016-L,depiction-x5ZB,mv-x5ZB-mvneg6
NCH_0022-R,depiction-tpH6,mv-tpH6-mv4
NCH_0022-R,depiction-tpH6,mv-tpH6-mvneg6
SPFD_0006-L,depiction-K3SZ,mv-K3SZ-mv4
SPFD_0006-L,depiction-K3SZ,mv-K3SZ-mvneg6
UC_0008-R,depiction-9EMa,mv-9EMa-mv4
UC_0008-R,depiction-9EMa,mv-9EMa-mvneg6
UC_0029-L,depiction-ZsaX,mv-ZsaX-mv4
UC_0029-L,depiction-ZsaX,mv-ZsaX-mvneg6
UC_0063-R,depiction-KJ5a,mv-KJ5a-mv4
UC_0063-R,depiction-KJ5a,mv-KJ5a-mvneg6
UC_0076-R,depiction-MW9K,mv-MW9K-mv4
UC_0076-R,depiction-MW9K,mv-MW9K-mvneg6
UCHI_1022-R,depiction-Y12r,mv-Y12r-mv4
UCHI_1022-R,depiction-Y12r,mv-Y12r-mvneg6
UCHI_1024-R,depiction-BcYM,mv-BcYM-mv4
UCHI_1024-R,depiction-BcYM,mv-BcYM-mvneg6
UCHI_1025-R,depiction-Fs9s,mv-Fs9s-mv4
UCHI_1025-R,depiction-Fs9s,mv-Fs9s-mvneg6
UCHI_1028-L,depiction-dLpS,mv-dLpS-mv4
UCHI_1028-L,depiction-dLpS,mv-dLpS-mvneg6
UCHI_1039-R,depiction-fFws,mv-fFws-mv4
UCHI_1039-R,depiction-fFws,mv-fFws-mvneg6
UCHI_1052-R,depiction-h1Y8,mv-h1Y8-mv4
UCHI_1052-R,depiction-h1Y8,mv-h1Y8-mvneg6
UCHI_1062-R,depiction-nkXZ,mv-nkXZ-mv4
UCHI_1062-R,depiction-nkXZ,mv-nkXZ-mvneg6
UCHI_1089-L,depiction-LbGQ,mv-LbGQ-mv4
UCHI_1089-L,depiction-LbGQ,mv-LbGQ-mvneg6
UCHI_1105-L,depiction-skRf,mv-skRf-mv4
UCHI_1105-L,depiction-skRf,mv-skRf-mvneg6
UCHI_1106-L,depiction-Lydc,mv-Lydc-mv4
UCHI_1106-L,depiction-Lydc,mv-Lydc-mvneg6
UCHI_1125-L,depiction-4YTa,mv-4YTa-mv4
UCHI_1125-L,depiction-4YTa,mv-4YTa-mvneg6
UCHI_1126-L,depiction-NtJw,mv-NtJw-mv4
UCHI_1126-L,depiction-NtJw,mv-NtJw-mvneg6
UCHI_1127-R,depiction-ew5r,mv-ew5r-mv4
UCHI_1127-R,depiction-ew5r,mv-ew5r-mvneg6
UCHI_1151-R,depiction-ZHDU,mv-ZHDU-mv4
UCHI_1151-R,depiction-ZHDU,mv-ZHDU-mvneg6
UCHI_1155-L,depiction-MpnM,mv-MpnM-mv4
UCHI_1155-L,depiction-MpnM,mv-MpnM-mvneg6
UCHI_1157-R,depiction-S4BN,mv-S4BN-mv4
UCHI_1157-R,depiction-S4BN,mv-S4BN-mvneg6
UCHI_1173-R,depiction-Vv6N,mv-Vv6N-mv4
UCHI_1173-R,depiction-Vv6N,mv-Vv6N-mvneg6
UCHI_1176-R,depiction-aKvx,mv-aKvx-mv4
UCHI_1176-R,depiction-aKvx,mv-aKvx-mvneg6
UCHI_1180-R,depiction-VM39,mv-VM39-mv4
UCHI_1180-R,depiction-VM39,mv-VM39-mvneg6
UCHI_1188-R,depiction-gKhb,mv-gKhb-mv4
UCHI_1188-R,depiction-gKhb,mv-gKhb-mvneg6
UCHI_1222-L,depiction-M7Wc,mv-M7Wc-mv4
UCHI_1222-L,depiction-M7Wc,mv-M7Wc-mvneg6
UNC_0007-R,depiction-pfeK,mv-pfeK-mv4
UNC_0007-R,depiction-pfeK,mv-pfeK-mvneg6
UNC_0036-L,depiction-S3Fv,mv-S3Fv-mv4
UNC_0036-L,depiction-S3Fv,mv-S3Fv-mvneg6
UNC_0047-L,depiction-SBfr,mv-SBfr-mv4
UNC_0047-L,depiction-SBfr,mv-SBfr-mvneg6
