caseID,choice,initial_volume,final_volume,percent_decrease,combined_PCR_SIM,depictionID,useMV,lagTime,endTime,regimen,mvMap,phenotyper,pathCompleteResponse
DU_0144-R,mvneg6,1.233,0.00108569,99.9119472830495,pCR,depiction-1Acm,1,1036800,10886400,TCHP,mv-1Acm-mvneg6,TreeNGF,pCR
DU_0202-L,mvneg6,35.4269,0.0305432,99.9137852874511,pCR,depiction-7CpB,1,86400,10886400,TCHP,mv-7CpB-mvneg6,TreeNGF,pCR
DU_0386-L,mv4,12.2522,0.0120911,99.9013148659016,pCR,depiction-W8Ba,1,86400,10886400,TCHP,mv-W8Ba-mv4,TreeNGF,pCR
DU_0431-L,mvneg6,1.78887,0.0026373,99.8525717352295,pCR,depiction-Lp7R,1,86400,10886400,TCHP,mv-Lp7R-mvneg6,TreeNGF,pCR
DU_0431-R,mvneg6,0.924625,0.00501021,99.4581360010815,pCR,depiction-7vsp,1,86400,10886400,TCHP,mv-7vsp-mvneg6,TreeNGF,pCR
DU_0468-R,mvneg6,9.06325,0.00732318,99.9191991835158,pCR,depiction-D2Qg,1,86400,10886400,TCHP,mv-D2Qg-mvneg6,TreeNGF,pCR
ISPY2_0026-R,mvneg6,17.9236,2.84898E-05,99.9998410486733,pCR,depiction-gFPw,1,259200,12096000,wTHP-ddAC,mv-gFPw-mvneg6,TreeNGF,pCR
ISPY2_0055-L,mvneg6,57.9178,0.00586081,99.9898808138431,pCR,depiction-cy6p,1,1296000,12096000,wTHP-ddAC,mv-cy6p-mvneg6,TreeNGF,pCR
ISPY2_0055-R,mvneg6,3.54025,7.11831E-06,99.9997989319963,pCR,depiction-yZkZ,1,259200,12096000,wTHP-ddAC,mv-yZkZ-mvneg6,TreeNGF,pCR
ISPY2_0087-R,mvneg6,5.097,0.00415326,99.9185155974102,pCR,depiction-7evz,1,604800,12096000,wTHP-ddAC,mv-7evz-mvneg6,TreeNGF,pCR
ISPY2_0115-L,mvneg6,2.58338,8.33393E-05,99.9967740208564,pCR,depiction-Ez8c,1,3024000,12096000,wTHP-ddAC,mv-Ez8c-mvneg6,TreeNGF,pCR
ISPY2_0136-R,mvneg6,4.509,0.00240042,99.9467638057219,pCR,depiction-YDtv,1,2246400,12096000,wTHP-ddAC,mv-YDtv-mvneg6,TreeNGF,pCR
ISPY2_0175-R,mvneg6,18.1757,0.00685134,99.9623049456142,pCR,depiction-XyZX,1,1209600,12096000,wTHP-ddAC,mv-XyZX-mvneg6,TreeNGF,pCR
ISPY2_0176-L,mvneg6,11.3689,0.00907417,99.920184274644,pCR,depiction-G7H3,1,1209600,12096000,wTHP-ddAC,mv-G7H3-mvneg6,TreeNGF,pCR
ISPY2_0176-R,mvneg6,8.74562,0.00460073,99.9473938954585,pCR,depiction-58xY,1,259200,12096000,wTHP-ddAC,mv-58xY-mvneg6,TreeNGF,pCR
NCH_0001-R,mvneg6,6.23762,0.00347303,99.9443212314953,pCR,depiction-vtNr,1,2160000,15724800,TCHP,mv-vtNr-mvneg6,TreeNGF,pCR
NCH_0015-R,mv4,4.60238,0.00994016,99.7840213107131,pCR,depiction-m7bU,1,1209600,13305600,TCHP,mv-m7bU-mv4,TreeNGF,pCR
NCH_0027-L,mvneg6,23.8031,0.00347632,99.9853955157101,pCR,depiction-KgKk,1,2419200,14515200,TCHP,mv-KgKk-mvneg6,TreeNGF,pCR
NCH_0057-R,mvneg6,13.9895,0.00649521,99.9535708209729,pCR,depiction-mwEJ,1,259200,10886400,TCHP,mv-mwEJ-mvneg6,TreeNGF,pCR
SPFD_0009-L,mvneg6,0.98,0.000381399,99.9610817346939,pCR,depiction-Y2H6,1,2419200,11491200,TCHP,mv-Y2H6-mvneg6,TreeNGF,pCR
SPFD_0012-L,mvneg6,1.449,0.00570648,99.6061780538302,pCR,depiction-46yy,1,1382400,11491200,TCHP,mv-46yy-mvneg6,TreeNGF,pCR
SPFD_0022-R,mvneg6,4.02325,0.00428196,99.8935696265457,pCR,depiction-NECF,1,2419200,12096000,TCHP,mv-NECF-mvneg6,TreeNGF,pCR
SPFD_0031-R,mvneg6,2.58112,0.000127836,99.995047266303,pCR,depiction-LrVM,1,3542400,22377600,TCHP,mv-LrVM-mvneg6,TreeNGF,pCR
SPFD_0036-R,mvneg6,1.54675,0.0035447,99.7708291579117,pCR,depiction-r7KU,1,1900800,12700800,TCHP,mv-r7KU-mvneg6,TreeNGF,pCR
SPFD_0040-L,mvneg6,0.73625,0.00300722,99.5915490662139,pCR,depiction-YJzx,1,1814400,11491200,TCHP,mv-YJzx-mvneg6,TreeNGF,pCR
SPFD_0044-R,mvneg6,29.1956,0.018204,99.9376481387606,pCR,depiction-gvt9,1,2937600,15724800,TCHP,mv-gvt9-mvneg6,TreeNGF,pCR
SPFD_0045-L,mvneg6,1.29037,0.0036936,99.7137565194479,pCR,depiction-yM1k,1,1296000,12096000,TCHP,mv-yM1k-mvneg6,TreeNGF,pCR
SPFD_0061-L,mvneg6,9.8335,0.000416089,99.9957686581583,pCR,depiction-WaUR,1,864000,14515200,TCHP,mv-WaUR-mvneg6,TreeNGF,pCR
SPFD_0082-R,mvneg6,1.61688,0.00487382,99.6985663747464,pCR,depiction-E5xx,1,1555200,12096000,TCHP,mv-E5xx-mvneg6,TreeNGF,pCR
UC_0011-L,mvneg6,7.7725,0.00734787,99.9054632357671,pCR,depiction-1Dw2,1,259200,10886400,TCHP,mv-1Dw2-mvneg6,TreeNGF,pCR
UC_0044-R,mvneg6,2.96475,0.000121648,99.9958968547095,pCR,depiction-VWHp,1,2332800,14515200,TCHP,mv-VWHp-mvneg6,TreeNGF,pCR
UC_0048-R,mvneg6,11.0034,0.00181425,99.9835119144991,pCR,depiction-psXr,1,777600,12096000,TCHP,mv-psXr-mvneg6,TreeNGF,pCR
UC_0052-L,mvneg6,2.94613,0.00799571,99.7286029469168,pCR,depiction-JHpa,1,777600,12700800,TCHP,mv-JHpa-mvneg6,TreeNGF,pCR
UCHI_1036-L,mvneg6,6.36963,0.00780055,99.8775352728494,pCR,depiction-EvFd,1,1728000,12096000,TCHP,mv-EvFd-mvneg6,TreeNGF,pCR
UCHI_1067-L,mv4,24.1753,0.00744442,99.9692065041592,pCR,depiction-PNz5,1,3196800,14515200,ddAC-wTHP,mv-PNz5-mv4,TreeNGF,pCR
UCHI_1068-R,mvneg6,3.83325,0.00109328,99.9714790321529,pCR,depiction-zvxn,1,2419200,12096000,TCHP,mv-zvxn-mvneg6,TreeNGF,pCR
UCHI_1077-L,mvneg6,7.95737,0.0014801,99.9813996332959,pCR,depiction-XkBL,1,432000,12096000,TCHP,mv-XkBL-mvneg6,TreeNGF,pCR
UCHI_1093-L,mvneg6,1.86038,0.00182918,99.9016770767263,pCR,depiction-mwhN,1,259200,10886400,TCHP,mv-mwhN-mvneg6,TreeNGF,pCR
UCHI_1111-R,mvneg6,1.736,0.000369361,99.9787234447005,pCR,depiction-6r19,1,86400,12096000,TCHP,mv-6r19-mvneg6,TreeNGF,pCR
UCHI_1123-R,mvneg6,3.62012,0.00321602,99.911162613394,pCR,depiction-pxRg,1,259200,10886400,TCHP,mv-pxRg-mvneg6,TreeNGF,pCR
UCHI_1169-R,mvneg6,7.92138,0.000754761,99.990471849602,pCR,depiction-hb9s,1,3024000,16934400,ddAC-wTHP,mv-hb9s-mvneg6,TreeNGF,pCR
UCHI_1186-R,mvneg6,10.2434,7.34274E-05,99.9992831735557,pCR,depiction-432c,1,1900800,13910400,ddAC-wTHP,mv-432c-mvneg6,TreeNGF,pCR
UCHI_1202-L,mvneg6,9.4515,9.88946E-06,99.9998953662382,pCR,depiction-8yA6,1,864000,13910400,ddAC-wTHP,mv-8yA6-mvneg6,TreeNGF,pCR
UCHI_1203-R,mvneg6,66.3664,0.000192671,99.9997096859254,pCR,depiction-Pv42,1,604800,18144000,ddAC-wTHP,mv-Pv42-mvneg6,TreeNGF,pCR
UNC_0013-R,mvneg6,4.326,0.00160291,99.9629470642626,pCR,depiction-9Evz,1,1382400,11315808,TCHP,mv-9Evz-mvneg6,TreeNGF,pCR
UNC_0018-R,mvneg6,6.18913,0.000262007,99.9957666586419,pCR,depiction-fBXB,1,1036800,14085792,TCHP,mv-fBXB-mvneg6,TreeNGF,pCR
